<?xml version="1.0" encoding="utf-8"?>
<!DOCTYPE eagle SYSTEM "eagle.dtd">
<eagle version="6.3">
<drawing>
<settings>
<setting alwaysvectorfont="no"/>
<setting verticaltext="up"/>
</settings>
<grid distance="0.05" unitdist="inch" unit="inch" style="lines" multiple="1" display="yes" altdistance="0.025" altunitdist="inch" altunit="inch"/>
<layers>
<layer number="1" name="Top" color="4" fill="1" visible="yes" active="yes"/>
<layer number="2" name="Route2" color="1" fill="3" visible="no" active="yes"/>
<layer number="3" name="Route3" color="4" fill="3" visible="no" active="yes"/>
<layer number="4" name="Route4" color="1" fill="4" visible="no" active="yes"/>
<layer number="5" name="Route5" color="4" fill="4" visible="no" active="yes"/>
<layer number="6" name="Route6" color="1" fill="8" visible="no" active="yes"/>
<layer number="7" name="Route7" color="4" fill="8" visible="no" active="yes"/>
<layer number="8" name="Route8" color="1" fill="2" visible="no" active="yes"/>
<layer number="9" name="Route9" color="4" fill="2" visible="no" active="yes"/>
<layer number="10" name="Route10" color="1" fill="7" visible="no" active="yes"/>
<layer number="11" name="Route11" color="4" fill="7" visible="no" active="yes"/>
<layer number="12" name="Route12" color="1" fill="5" visible="no" active="yes"/>
<layer number="13" name="Route13" color="4" fill="5" visible="no" active="yes"/>
<layer number="14" name="Route14" color="1" fill="6" visible="no" active="yes"/>
<layer number="15" name="Route15" color="4" fill="6" visible="no" active="yes"/>
<layer number="16" name="Bottom" color="1" fill="1" visible="yes" active="yes"/>
<layer number="17" name="Pads" color="2" fill="1" visible="yes" active="yes"/>
<layer number="18" name="Vias" color="2" fill="1" visible="yes" active="yes"/>
<layer number="19" name="Unrouted" color="6" fill="1" visible="yes" active="yes"/>
<layer number="20" name="Dimension" color="15" fill="1" visible="yes" active="yes"/>
<layer number="21" name="tPlace" color="7" fill="1" visible="yes" active="yes"/>
<layer number="22" name="bPlace" color="7" fill="1" visible="yes" active="yes"/>
<layer number="23" name="tOrigins" color="15" fill="1" visible="yes" active="yes"/>
<layer number="24" name="bOrigins" color="15" fill="1" visible="yes" active="yes"/>
<layer number="25" name="tNames" color="7" fill="1" visible="yes" active="yes"/>
<layer number="26" name="bNames" color="7" fill="1" visible="yes" active="yes"/>
<layer number="27" name="tValues" color="7" fill="1" visible="yes" active="yes"/>
<layer number="28" name="bValues" color="7" fill="1" visible="yes" active="yes"/>
<layer number="29" name="tStop" color="7" fill="3" visible="yes" active="yes"/>
<layer number="30" name="bStop" color="7" fill="6" visible="no" active="yes"/>
<layer number="31" name="tCream" color="7" fill="4" visible="yes" active="yes"/>
<layer number="32" name="bCream" color="7" fill="5" visible="no" active="yes"/>
<layer number="33" name="tFinish" color="6" fill="3" visible="no" active="yes"/>
<layer number="34" name="bFinish" color="6" fill="6" visible="no" active="yes"/>
<layer number="35" name="tGlue" color="7" fill="4" visible="no" active="yes"/>
<layer number="36" name="bGlue" color="7" fill="5" visible="no" active="yes"/>
<layer number="37" name="tTest" color="7" fill="1" visible="no" active="yes"/>
<layer number="38" name="bTest" color="7" fill="1" visible="no" active="yes"/>
<layer number="39" name="tKeepout" color="4" fill="11" visible="yes" active="yes"/>
<layer number="40" name="bKeepout" color="1" fill="11" visible="yes" active="yes"/>
<layer number="41" name="tRestrict" color="4" fill="10" visible="yes" active="yes"/>
<layer number="42" name="bRestrict" color="1" fill="10" visible="yes" active="yes"/>
<layer number="43" name="vRestrict" color="2" fill="10" visible="yes" active="yes"/>
<layer number="44" name="Drills" color="7" fill="1" visible="no" active="yes"/>
<layer number="45" name="Holes" color="7" fill="1" visible="no" active="yes"/>
<layer number="46" name="Milling" color="3" fill="1" visible="no" active="yes"/>
<layer number="47" name="Measures" color="7" fill="1" visible="no" active="yes"/>
<layer number="48" name="Document" color="7" fill="1" visible="yes" active="yes"/>
<layer number="49" name="Reference" color="7" fill="1" visible="yes" active="yes"/>
<layer number="51" name="tDocu" color="7" fill="1" visible="yes" active="yes"/>
<layer number="52" name="bDocu" color="7" fill="1" visible="yes" active="yes"/>
<layer number="91" name="Nets" color="2" fill="1" visible="yes" active="yes"/>
<layer number="92" name="Busses" color="1" fill="1" visible="yes" active="yes"/>
<layer number="93" name="Pins" color="2" fill="1" visible="no" active="yes"/>
<layer number="94" name="Symbols" color="4" fill="1" visible="yes" active="yes"/>
<layer number="95" name="Names" color="7" fill="1" visible="yes" active="yes"/>
<layer number="96" name="Values" color="7" fill="1" visible="yes" active="yes"/>
<layer number="97" name="Info" color="7" fill="1" visible="yes" active="yes"/>
<layer number="98" name="Guide" color="6" fill="1" visible="yes" active="yes"/>
</layers>
<library>
<packages>
<package name="LGA48">
<description>LGA48 dla STOLLMAN +SR</description>
<wire x1="-8.5" y1="5" x2="8.5" y2="5" width="0.15" layer="21"/>
<wire x1="-8.5" y1="-5" x2="8.5" y2="-5" width="0.15" layer="21"/>
<wire x1="-8.5" y1="5" x2="-8.5" y2="-5" width="0.15" layer="21"/>
<wire x1="8.5" y1="5" x2="8.5" y2="-5" width="0.15" layer="21"/>
<smd name="P$1" x="-7.25" y="3.75" dx="0.9" dy="0.9" layer="1" roundness="100"/>
<smd name="P$2" x="-5.75" y="3.75" dx="0.9" dy="0.9" layer="1" roundness="100"/>
<smd name="P$3" x="-4.25" y="3.75" dx="0.9" dy="0.9" layer="1" roundness="100"/>
<smd name="P$4" x="-7.25" y="2.25" dx="0.9" dy="0.9" layer="1" roundness="100"/>
<smd name="P$5" x="-5.75" y="2.25" dx="0.9" dy="0.9" layer="1" roundness="100"/>
<smd name="P$6" x="-2.75" y="3.75" dx="0.9" dy="0.9" layer="1" roundness="100"/>
<smd name="P$7" x="-4.25" y="2.25" dx="0.9" dy="0.9" layer="1" roundness="100"/>
<smd name="P$8" x="-2.8" y="2.25" dx="0.9" dy="0.9" layer="1" roundness="100"/>
<smd name="P$9" x="-7.25" y="0.75" dx="0.9" dy="0.9" layer="1" roundness="100"/>
<smd name="P$10" x="-5.75" y="0.75" dx="0.9" dy="0.9" layer="1" roundness="100"/>
<smd name="P$11" x="-7.25" y="-0.75" dx="0.9" dy="0.9" layer="1" roundness="100"/>
<smd name="P$12" x="-5.75" y="-0.75" dx="0.9" dy="0.9" layer="1" roundness="100"/>
<smd name="P$13" x="-7.25" y="-2.25" dx="0.9" dy="0.9" layer="1" roundness="100"/>
<smd name="P$14" x="-5.75" y="-2.25" dx="0.9" dy="0.9" layer="1" roundness="100"/>
<smd name="P$15" x="-4.25" y="-2.25" dx="0.9" dy="0.9" layer="1" roundness="100"/>
<smd name="P$16" x="-4.25" y="-0.75" dx="0.9" dy="0.9" layer="1" roundness="100"/>
<smd name="P$17" x="-4.25" y="0.75" dx="0.9" dy="0.9" layer="1" roundness="100"/>
<smd name="P$18" x="-7.25" y="-3.75" dx="0.9" dy="0.9" layer="1" roundness="100"/>
<smd name="P$19" x="-5.75" y="-3.75" dx="0.9" dy="0.9" layer="1" roundness="100"/>
<smd name="P$20" x="-4.25" y="-3.75" dx="0.9" dy="0.9" layer="1" roundness="100"/>
<smd name="P$21" x="-2.75" y="-3.75" dx="0.9" dy="0.9" layer="1" roundness="100"/>
<smd name="P$22" x="-2.75" y="-2.25" dx="0.9" dy="0.9" layer="1" roundness="100"/>
<smd name="P$23" x="-1.25" y="-2.25" dx="0.9" dy="0.9" layer="1" roundness="100"/>
<smd name="P$24" x="-1.25" y="-3.75" dx="0.9" dy="0.9" layer="1" roundness="100"/>
<smd name="P$25" x="0.25" y="-3.75" dx="0.9" dy="0.9" layer="1" roundness="100"/>
<smd name="P$26" x="1.75" y="-3.75" dx="0.9" dy="0.9" layer="1" roundness="100"/>
<smd name="P$27" x="3.25" y="-3.75" dx="0.9" dy="0.9" layer="1" roundness="100"/>
<smd name="P$28" x="3.25" y="-2.25" dx="0.9" dy="0.9" layer="1" roundness="100"/>
<smd name="P$29" x="1.75" y="-2.25" dx="0.9" dy="0.9" layer="1" roundness="100"/>
<smd name="P$30" x="0.25" y="-2.25" dx="0.9" dy="0.9" layer="1" roundness="100"/>
<smd name="P$31" x="3.25" y="-0.75" dx="0.9" dy="0.9" layer="1" roundness="100"/>
<smd name="P$32" x="1.75" y="-0.75" dx="0.9" dy="0.9" layer="1" roundness="100"/>
<smd name="P$33" x="-2.75" y="-0.75" dx="0.9" dy="0.9" layer="1" roundness="100"/>
<smd name="P$34" x="-1.25" y="-0.75" dx="0.9" dy="0.9" layer="1" roundness="100"/>
<smd name="P$35" x="0.25" y="-0.75" dx="0.9" dy="0.9" layer="1" roundness="100"/>
<smd name="P$36" x="-2.75" y="0.75" dx="0.9" dy="0.9" layer="1" roundness="100"/>
<smd name="P$37" x="-1.25" y="0.75" dx="0.9" dy="0.9" layer="1" roundness="100"/>
<smd name="P$38" x="0.25" y="0.75" dx="0.9" dy="0.9" layer="1" roundness="100"/>
<smd name="P$39" x="1.75" y="0.75" dx="0.9" dy="0.9" layer="1" roundness="100"/>
<smd name="P$40" x="-1.25" y="2.25" dx="0.9" dy="0.9" layer="1" roundness="100"/>
<smd name="P$41" x="0.25" y="2.25" dx="0.9" dy="0.9" layer="1" roundness="100"/>
<smd name="P$42" x="-1.25" y="3.75" dx="0.9" dy="0.9" layer="1" roundness="100"/>
<smd name="P$43" x="0.25" y="3.75" dx="0.9" dy="0.9" layer="1" roundness="100"/>
<smd name="P$44" x="1.75" y="3.75" dx="0.9" dy="0.9" layer="1" roundness="100"/>
<smd name="P$45" x="3.25" y="3.75" dx="0.9" dy="0.9" layer="1" roundness="100"/>
<smd name="P$46" x="1.75" y="2.25" dx="0.9" dy="0.9" layer="1" roundness="100"/>
<smd name="P$47" x="3.25" y="2.25" dx="0.9" dy="0.9" layer="1" roundness="100"/>
<smd name="P$48" x="3.25" y="0.75" dx="0.9" dy="0.9" layer="1" roundness="100"/>
<circle x="-8.2" y="4.7" radius="0.111803125" width="0.15" layer="21"/>
<rectangle x1="-8.65" y1="-5.15" x2="8.65" y2="5.15" layer="39"/>
</package>
</packages>
<symbols>
</symbols>
<devicesets>
</devicesets>
</library>
</drawing>
</eagle>
