(module misc:DPAK (layer F.Cu) (tedit 5738B9D3)
  (descr "MOS boitier DPACK G-D-S")
  (tags "CMD DPACK")
  (attr smd)
  (fp_text reference Q18 (at 0 -10.414) (layer F.SilkS)
    (effects (font (size 0.29972 0.29972) (thickness 0.0762)))
  )
  (fp_text value Q_NMOS_GDS (at 0 -4.39928) (layer F.SilkS)
    (effects (font (size 0.29972 0.29972) (thickness 0.0762)))
  )
  (fp_line (start 1.34874 1.69926) (end 1.34874 -3.2004) (layer F.SilkS) (width 0.381))
  (fp_line (start 1.34874 1.69926) (end 3.2512 1.69926) (layer F.SilkS) (width 0.381))
  (fp_line (start 3.2512 1.69926) (end 3.2512 -3.2004) (layer F.SilkS) (width 0.381))
  (fp_line (start -3.2512 1.651) (end -3.2512 -3.2004) (layer F.SilkS) (width 0.381))
  (fp_line (start -3.2512 1.651) (end -1.34874 1.651) (layer F.SilkS) (width 0.381))
  (fp_line (start -1.34874 1.651) (end -1.34874 -3.2004) (layer F.SilkS) (width 0.381))
  (fp_line (start -3.44932 -10.09904) (end 3.44932 -10.09904) (layer F.SilkS) (width 0.381))
  (fp_line (start 3.44932 -10.09904) (end 3.44932 -3.2004) (layer F.SilkS) (width 0.381))
  (fp_line (start 3.44932 -3.2004) (end -3.44932 -3.2004) (layer F.SilkS) (width 0.381))
  (fp_line (start -3.44932 -3.2004) (end -3.44932 -10.09904) (layer F.SilkS) (width 0.381))
  (pad 1 smd rect (at -2.30124 0) (size 1.651 3.048) (layers F.Cu F.Paste F.Mask))
  (pad 2 smd rect (at 0 -6.64972) (size 6.70052 6.70052) (layers F.Cu F.Paste F.Mask))
  (pad 3 smd rect (at 2.30124 0) (size 1.651 3.048) (layers F.Cu F.Paste F.Mask))
  (model smd/dpack_2.wrl
    (at (xyz 0 0 0))
    (scale (xyz 1 1 1))
    (rotate (xyz 0 0 0))
  )
)
