PCBNEW-LibModule-V1
$INDEX
high_voltage
$EndINDEX
#
# high_voltage
# pixmap w = 1690, h = 1491
#
$MODULE high_voltage
Po 0 0 0 15 00000000 00000000 ~~
Li high_voltage
T0 0 0 150 150 0 50 N I 21 "VAL"
T1 0 0 150 150 0 50 N I 21 "REF"
DP 0 0 0 0 444 1 15
Dl 1906 1557
Dl 1905 1578
Dl 1901 1597
Dl 1896 1609
Dl 1890 1620
Dl 1884 1629
Dl 1878 1635
Dl 1870 1640
Dl 1861 1644
Dl 1849 1647
Dl 1833 1649
Dl 1819 1651
Dl 1814 1651
Dl 1809 1652
Dl 1804 1652
Dl 1798 1653
Dl 1793 1653
Dl 1787 1653
Dl 1780 1654
Dl 1773 1654
Dl 1765 1655
Dl 1756 1655
Dl 1746 1655
Dl 1736 1656
Dl 1724 1656
Dl 1711 1656
Dl 1697 1656
Dl 1681 1657
Dl 1664 1657
Dl 1645 1657
Dl 1624 1657
Dl 1602 1658
Dl 1578 1658
Dl 1551 1658
Dl 1531 1658
Dl 1531 1375
Dl 1531 1373
Dl 1529 1367
Dl 1526 1360
Dl 1525 1358
Dl 1520 1350
Dl 1514 1338
Dl 1506 1322
Dl 1495 1303
Dl 1482 1280
Dl 1468 1254
Dl 1451 1224
Dl 1433 1192
Dl 1413 1157
Dl 1392 1118
Dl 1369 1077
Dl 1345 1034
Dl 1319 988
Dl 1292 940
Dl 1264 890
Dl 1234 838
Dl 1204 784
Dl 1173 728
Dl 1140 671
Dl 1107 612
Dl 1074 553
Dl 1039 492
Dl 1004 430
Dl 969 367
Dl 933 303
Dl 896 239
Dl 860 175
Dl 823 110
Dl 786 45
Dl 750 -20
Dl 713 -85
Dl 676 -150
Dl 640 -214
Dl 604 -278
Dl 568 -341
Dl 532 -403
Dl 498 -465
Dl 463 -525
Dl 430 -584
Dl 397 -641
Dl 365 -698
Dl 334 -752
Dl 304 -805
Dl 275 -855
Dl 247 -904
Dl 221 -951
Dl 196 -995
Dl 172 -1037
Dl 149 -1076
Dl 129 -1112
Dl 110 -1145
Dl 92 -1176
Dl 76 -1203
Dl 62 -1227
Dl 51 -1247
Dl 41 -1264
Dl 33 -1277
Dl 27 -1286
Dl 26 -1288
Dl 19 -1300
Dl 12 -1307
Dl 7 -1311
Dl 3 -1311
Dl -2 -1308
Dl -4 -1306
Dl -6 -1303
Dl -11 -1296
Dl -17 -1287
Dl -24 -1274
Dl -32 -1261
Dl -42 -1245
Dl -44 -1241
Dl -55 -1222
Dl -68 -1201
Dl -82 -1175
Dl -99 -1146
Dl -118 -1113
Dl -138 -1077
Dl -161 -1039
Dl -185 -997
Dl -210 -952
Dl -237 -905
Dl -265 -855
Dl -295 -804
Dl -326 -750
Dl -358 -694
Dl -391 -636
Dl -425 -576
Dl -459 -515
Dl -495 -453
Dl -531 -390
Dl -568 -325
Dl -605 -260
Dl -642 -194
Dl -680 -128
Dl -718 -61
Dl -756 6
Dl -794 74
Dl -833 141
Dl -870 207
Dl -908 274
Dl -946 340
Dl -982 405
Dl -1019 469
Dl -1055 532
Dl -1090 594
Dl -1124 655
Dl -1158 714
Dl -1190 771
Dl -1221 827
Dl -1252 880
Dl -1281 932
Dl -1308 981
Dl -1335 1027
Dl -1360 1071
Dl -1383 1112
Dl -1404 1151
Dl -1424 1186
Dl -1442 1218
Dl -1458 1246
Dl -1472 1271
Dl -1483 1292
Dl -1492 1307
Dl -1502 1326
Dl -1510 1340
Dl -1516 1352
Dl -1520 1361
Dl -1523 1367
Dl -1524 1372
Dl -1525 1375
Dl -1525 1376
Dl -1522 1381
Dl -1520 1383
Dl -1518 1383
Dl -1511 1384
Dl -1500 1384
Dl -1485 1385
Dl -1468 1385
Dl -1448 1385
Dl -1425 1386
Dl -1401 1386
Dl -1375 1386
Dl -1359 1386
Dl -1343 1387
Dl -1323 1387
Dl -1298 1387
Dl -1269 1387
Dl -1236 1387
Dl -1199 1387
Dl -1159 1387
Dl -1115 1387
Dl -1069 1387
Dl -1019 1387
Dl -967 1387
Dl -911 1387
Dl -854 1387
Dl -794 1387
Dl -732 1387
Dl -669 1387
Dl -603 1387
Dl -537 1387
Dl -468 1387
Dl -399 1387
Dl -329 1387
Dl -258 1387
Dl -186 1387
Dl -114 1387
Dl -42 1387
Dl 30 1387
Dl 102 1387
Dl 173 1387
Dl 244 1387
Dl 315 1386
Dl 384 1386
Dl 452 1386
Dl 519 1386
Dl 585 1386
Dl 649 1386
Dl 711 1386
Dl 771 1386
Dl 829 1386
Dl 884 1385
Dl 937 1385
Dl 987 1385
Dl 1034 1385
Dl 1077 1385
Dl 1118 1385
Dl 1155 1385
Dl 1188 1384
Dl 1218 1384
Dl 1243 1384
Dl 1264 1384
Dl 1281 1384
Dl 1282 1384
Dl 1325 1383
Dl 1363 1383
Dl 1397 1382
Dl 1426 1382
Dl 1452 1381
Dl 1474 1380
Dl 1492 1380
Dl 1506 1379
Dl 1517 1378
Dl 1525 1377
Dl 1530 1376
Dl 1531 1375
Dl 1531 1658
Dl 1523 1658
Dl 1492 1658
Dl 1459 1659
Dl 1424 1659
Dl 1386 1659
Dl 1346 1659
Dl 1302 1659
Dl 1257 1659
Dl 1208 1659
Dl 1156 1659
Dl 1101 1659
Dl 1042 1659
Dl 981 1659
Dl 916 1660
Dl 847 1660
Dl 775 1660
Dl 699 1660
Dl 619 1660
Dl 536 1660
Dl 448 1660
Dl 356 1660
Dl 260 1660
Dl 160 1660
Dl 55 1660
Dl -54 1660
Dl -88 1660
Dl -1828 1661
Dl -1845 1649
Dl -1862 1636
Dl -1875 1624
Dl -1885 1611
Dl -1889 1605
Dl -1894 1590
Dl -1897 1574
Dl -1897 1555
Dl -1895 1537
Dl -1891 1520
Dl -1890 1515
Dl -1888 1512
Dl -1885 1506
Dl -1879 1495
Dl -1871 1481
Dl -1861 1464
Dl -1849 1443
Dl -1835 1418
Dl -1819 1391
Dl -1802 1361
Dl -1783 1328
Dl -1763 1292
Dl -1741 1254
Dl -1717 1213
Dl -1693 1170
Dl -1667 1125
Dl -1639 1078
Dl -1611 1029
Dl -1582 978
Dl -1552 925
Dl -1521 872
Dl -1489 816
Dl -1457 760
Dl -1423 702
Dl -1390 644
Dl -1356 584
Dl -1321 524
Dl -1286 464
Dl -1251 403
Dl -1216 342
Dl -1180 280
Dl -1145 219
Dl -1109 158
Dl -1074 97
Dl -1039 36
Dl -1005 -24
Dl -970 -83
Dl -937 -142
Dl -903 -199
Dl -871 -256
Dl -839 -311
Dl -807 -365
Dl -786 -402
Dl -738 -485
Dl -692 -565
Dl -647 -643
Dl -603 -718
Dl -560 -792
Dl -519 -862
Dl -480 -930
Dl -442 -996
Dl -405 -1058
Dl -370 -1118
Dl -337 -1175
Dl -305 -1229
Dl -276 -1280
Dl -247 -1328
Dl -221 -1373
Dl -197 -1414
Dl -174 -1452
Dl -154 -1487
Dl -135 -1518
Dl -119 -1545
Dl -105 -1569
Dl -92 -1589
Dl -82 -1605
Dl -74 -1618
Dl -69 -1626
Dl -56 -1642
Dl -41 -1653
Dl -33 -1657
Dl -28 -1659
Dl -21 -1661
Dl -14 -1661
Dl -3 -1662
Dl 5 -1662
Dl 21 -1661
Dl 34 -1660
Dl 45 -1656
Dl 54 -1651
Dl 63 -1644
Dl 65 -1642
Dl 68 -1639
Dl 72 -1634
Dl 76 -1629
Dl 81 -1622
Dl 86 -1614
Dl 93 -1604
Dl 100 -1592
Dl 109 -1578
Dl 119 -1561
Dl 131 -1542
Dl 144 -1520
Dl 159 -1495
Dl 176 -1466
Dl 194 -1435
Dl 215 -1399
Dl 235 -1366
Dl 252 -1338
Dl 270 -1306
Dl 291 -1271
Dl 313 -1233
Dl 336 -1193
Dl 361 -1150
Dl 388 -1105
Dl 415 -1058
Dl 444 -1008
Dl 474 -957
Dl 505 -903
Dl 537 -848
Dl 571 -791
Dl 605 -732
Dl 639 -672
Dl 675 -611
Dl 711 -548
Dl 748 -485
Dl 785 -420
Dl 823 -355
Dl 861 -289
Dl 900 -222
Dl 939 -155
Dl 978 -88
Dl 1017 -20
Dl 1056 47
Dl 1095 115
Dl 1134 182
Dl 1173 249
Dl 1211 316
Dl 1249 382
Dl 1287 448
Dl 1324 512
Dl 1361 576
Dl 1397 639
Dl 1433 700
Dl 1467 761
Dl 1501 820
Dl 1534 877
Dl 1566 933
Dl 1597 987
Dl 1627 1039
Dl 1656 1089
Dl 1684 1137
Dl 1710 1182
Dl 1735 1226
Dl 1758 1266
Dl 1780 1305
Dl 1800 1340
Dl 1818 1372
Dl 1835 1402
Dl 1850 1428
Dl 1863 1451
Dl 1874 1471
Dl 1883 1487
Dl 1890 1500
Dl 1895 1509
Dl 1898 1514
Dl 1898 1515
Dl 1904 1535
Dl 1906 1557
Dl 1906 1557
DP 0 0 0 0 263 1 15
Dl 342 64
Dl 342 66
Dl 340 73
Dl 337 85
Dl 334 101
Dl 328 121
Dl 322 146
Dl 315 174
Dl 306 208
Dl 296 245
Dl 285 287
Dl 273 333
Dl 260 383
Dl 254 405
Dl 238 465
Dl 224 520
Dl 210 571
Dl 198 618
Dl 187 661
Dl 177 700
Dl 168 735
Dl 159 767
Dl 152 795
Dl 146 820
Dl 141 842
Dl 136 861
Dl 132 877
Dl 129 891
Dl 127 901
Dl 126 910
Dl 125 916
Dl 125 920
Dl 125 921
Dl 128 925
Dl 135 928
Dl 146 930
Dl 161 932
Dl 174 933
Dl 182 935
Dl 187 937
Dl 189 940
Dl 188 944
Dl 186 948
Dl 182 956
Dl 176 967
Dl 167 980
Dl 157 997
Dl 145 1015
Dl 132 1034
Dl 118 1055
Dl 104 1077
Dl 89 1098
Dl 75 1120
Dl 61 1141
Dl 47 1161
Dl 34 1180
Dl 22 1197
Dl 12 1211
Dl 3 1223
Dl -3 1231
Dl -7 1235
Dl -12 1240
Dl -15 1241
Dl -18 1239
Dl -20 1236
Dl -21 1233
Dl -23 1227
Dl -27 1216
Dl -32 1203
Dl -38 1186
Dl -44 1168
Dl -51 1148
Dl -59 1127
Dl -66 1104
Dl -74 1082
Dl -82 1059
Dl -90 1037
Dl -97 1015
Dl -104 995
Dl -110 977
Dl -115 961
Dl -120 948
Dl -123 938
Dl -125 931
Dl -126 928
Dl -125 926
Dl -120 925
Dl -112 925
Dl -110 925
Dl -97 924
Dl -83 923
Dl -70 922
Dl -59 920
Dl -51 918
Dl -49 917
Dl -43 912
Dl -40 906
Dl -35 889
Dl -28 867
Dl -20 843
Dl -12 815
Dl -3 786
Dl 6 754
Dl 16 721
Dl 26 687
Dl 36 653
Dl 46 619
Dl 55 586
Dl 64 554
Dl 73 524
Dl 81 497
Dl 87 472
Dl 93 451
Dl 96 441
Dl 100 425
Dl 102 413
Dl 104 404
Dl 105 398
Dl 104 393
Dl 103 389
Dl 102 388
Dl 99 385
Dl 96 385
Dl 90 386
Dl 90 387
Dl 81 389
Dl 72 393
Dl 60 397
Dl 46 402
Dl 30 408
Dl 11 415
Dl -10 424
Dl -35 433
Dl -64 445
Dl -96 457
Dl -129 471
Dl -155 481
Dl -181 491
Dl -205 501
Dl -228 510
Dl -249 518
Dl -268 525
Dl -283 531
Dl -296 536
Dl -305 539
Dl -308 541
Dl -333 550
Dl -332 542
Dl -330 537
Dl -328 527
Dl -324 514
Dl -320 496
Dl -314 476
Dl -308 452
Dl -300 425
Dl -292 395
Dl -283 363
Dl -274 329
Dl -264 293
Dl -253 255
Dl -243 216
Dl -231 176
Dl -220 135
Dl -208 93
Dl -197 51
Dl -185 9
Dl -173 -33
Dl -161 -74
Dl -150 -115
Dl -139 -155
Dl -128 -194
Dl -117 -231
Dl -107 -266
Dl -97 -300
Dl -88 -331
Dl -80 -360
Dl -73 -386
Dl -66 -409
Dl -60 -429
Dl -55 -445
Dl -52 -458
Dl -51 -460
Dl -46 -474
Dl -42 -485
Dl -38 -493
Dl -36 -496
Dl -33 -498
Dl -27 -500
Dl -19 -502
Dl -7 -503
Dl 7 -504
Dl 24 -505
Dl 45 -505
Dl 70 -505
Dl 100 -505
Dl 101 -505
Dl 126 -504
Dl 146 -504
Dl 162 -503
Dl 175 -503
Dl 185 -502
Dl 192 -501
Dl 197 -500
Dl 199 -499
Dl 200 -498
Dl 200 -498
Dl 199 -494
Dl 197 -487
Dl 192 -475
Dl 186 -459
Dl 177 -439
Dl 167 -415
Dl 156 -387
Dl 142 -355
Dl 127 -319
Dl 110 -280
Dl 91 -236
Dl 71 -189
Dl 50 -139
Dl 26 -85
Dl 5 -36
Dl -10 -1
Dl -24 33
Dl -37 64
Dl -50 93
Dl -61 120
Dl -71 145
Dl -79 166
Dl -86 185
Dl -91 200
Dl -95 211
Dl -97 219
Dl -98 221
Dl -98 223
Dl -96 225
Dl -94 226
Dl -91 226
Dl -87 226
Dl -80 224
Dl -72 222
Dl -62 219
Dl -50 215
Dl -35 209
Dl -17 203
Dl 3 195
Dl 27 186
Dl 54 175
Dl 85 163
Dl 119 150
Dl 158 134
Dl 172 129
Dl 205 116
Dl 233 104
Dl 258 95
Dl 279 87
Dl 296 80
Dl 311 74
Dl 322 70
Dl 330 67
Dl 337 65
Dl 340 64
Dl 342 64
Dl 342 64
$EndMODULE high_voltage
$EndLIBRARY
