(module Wire_Pads:SolderWirePad_2x_1mmDrill (layer F.Cu) (tedit 5738E79E)
  (fp_text reference P14 (at 0 -3.81) (layer F.SilkS)
    (effects (font (size 1 1) (thickness 0.15)))
  )
  (fp_text value CONN_01X02 (at 0.635 3.81) (layer F.Fab)
    (effects (font (size 1 1) (thickness 0.15)))
  )
  (pad 1 thru_hole circle (at -1.905 0) (size 2.49936 2.49936) (drill 1.00076) (layers *.Cu *.Mask F.SilkS))
  (pad 2 thru_hole circle (at 1.905 0) (size 2.49936 2.49936) (drill 1.00076) (layers *.Cu *.Mask F.SilkS))
)
