EESchema Schematic File Version 2
LIBS:zegar-rescue
LIBS:power
LIBS:device
LIBS:transistors
LIBS:conn
LIBS:linear
LIBS:regul
LIBS:74xx
LIBS:cmos4000
LIBS:adc-dac
LIBS:memory
LIBS:xilinx
LIBS:microcontrollers
LIBS:dsp
LIBS:microchip
LIBS:analog_switches
LIBS:motorola
LIBS:texas
LIBS:intel
LIBS:audio
LIBS:interface
LIBS:digital-audio
LIBS:philips
LIBS:display
LIBS:cypress
LIBS:siliconi
LIBS:opto
LIBS:atmel
LIBS:contrib
LIBS:valves
LIBS:mopsiok_nixie
LIBS:zegar-cache
EELAYER 25 0
EELAYER END
$Descr A3 16535 11693
encoding utf-8
Sheet 1 1
Title ""
Date "3 feb 2015"
Rev ""
Comp ""
Comment1 ""
Comment2 ""
Comment3 ""
Comment4 ""
$EndDescr
Text Label 6000 9450 0    60   ~ 0
C9
Text Label 6000 9350 0    60   ~ 0
C8
Text Label 6000 9250 0    60   ~ 0
C7
Text Label 6000 9150 0    60   ~ 0
C6
Text Label 6000 9050 0    60   ~ 0
C5
Text Label 6000 8950 0    60   ~ 0
C4
Text Label 6000 8850 0    60   ~ 0
C3
Text Label 6000 8750 0    60   ~ 0
C2
Text Label 6000 8650 0    60   ~ 0
C1
Text Label 6000 8550 0    60   ~ 0
C0
$Comp
L R R1
U 1 1 53C4E68E
P 8150 4650
F 0 "R1" V 8235 4640 50  0000 C CNN
F 1 "10k" V 8155 4650 50  0000 C CNN
F 2 "" H 8150 4650 60  0000 C CNN
F 3 "" H 8150 4650 60  0000 C CNN
	1    8150 4650
	0    -1   -1   0   
$EndComp
$Comp
L R R2
U 1 1 53C4E69B
P 8150 4950
F 0 "R2" V 8235 4940 50  0000 C CNN
F 1 "10k" V 8155 4950 50  0000 C CNN
F 2 "" H 8150 4950 60  0000 C CNN
F 3 "" H 8150 4950 60  0000 C CNN
	1    8150 4950
	0    -1   -1   0   
$EndComp
$Comp
L R R5
U 1 1 53C4E6AB
P 8150 5850
F 0 "R5" V 8235 5840 50  0000 C CNN
F 1 "10k" V 8155 5850 50  0000 C CNN
F 2 "" H 8150 5850 60  0000 C CNN
F 3 "" H 8150 5850 60  0000 C CNN
	1    8150 5850
	0    -1   -1   0   
$EndComp
$Comp
L R R3
U 1 1 53C4E6BD
P 8150 5250
F 0 "R3" V 8235 5240 50  0000 C CNN
F 1 "10k" V 8155 5250 50  0000 C CNN
F 2 "" H 8150 5250 60  0000 C CNN
F 3 "" H 8150 5250 60  0000 C CNN
	1    8150 5250
	0    -1   -1   0   
$EndComp
$Comp
L R R4
U 1 1 53C4E6C9
P 8150 5550
F 0 "R4" V 8235 5540 50  0000 C CNN
F 1 "10k" V 8155 5550 50  0000 C CNN
F 2 "" H 8150 5550 60  0000 C CNN
F 3 "" H 8150 5550 60  0000 C CNN
	1    8150 5550
	0    -1   -1   0   
$EndComp
$Comp
L GND-RESCUE-zegar #PWR01
U 1 1 53C4EC5C
P 8600 4850
F 0 "#PWR01" H 8600 4850 30  0001 C CNN
F 1 "GND" H 8600 4780 30  0001 C CNN
F 2 "" H 8600 4850 60  0000 C CNN
F 3 "" H 8600 4850 60  0000 C CNN
	1    8600 4850
	1    0    0    -1  
$EndComp
$Comp
L GND-RESCUE-zegar #PWR02
U 1 1 53C4ED28
P 9150 5150
F 0 "#PWR02" H 9150 5150 30  0001 C CNN
F 1 "GND" H 9150 5080 30  0001 C CNN
F 2 "" H 9150 5150 60  0000 C CNN
F 3 "" H 9150 5150 60  0000 C CNN
	1    9150 5150
	1    0    0    -1  
$EndComp
$Comp
L GND-RESCUE-zegar #PWR03
U 1 1 53C4EDC6
P 8600 5450
F 0 "#PWR03" H 8600 5450 30  0001 C CNN
F 1 "GND" H 8600 5380 30  0001 C CNN
F 2 "" H 8600 5450 60  0000 C CNN
F 3 "" H 8600 5450 60  0000 C CNN
	1    8600 5450
	1    0    0    -1  
$EndComp
$Comp
L GND-RESCUE-zegar #PWR04
U 1 1 53C4EDCC
P 9150 5750
F 0 "#PWR04" H 9150 5750 30  0001 C CNN
F 1 "GND" H 9150 5680 30  0001 C CNN
F 2 "" H 9150 5750 60  0000 C CNN
F 3 "" H 9150 5750 60  0000 C CNN
	1    9150 5750
	1    0    0    -1  
$EndComp
$Comp
L GND-RESCUE-zegar #PWR05
U 1 1 53C4EE3A
P 8600 6050
F 0 "#PWR05" H 8600 6050 30  0001 C CNN
F 1 "GND" H 8600 5980 30  0001 C CNN
F 2 "" H 8600 6050 60  0000 C CNN
F 3 "" H 8600 6050 60  0000 C CNN
	1    8600 6050
	1    0    0    -1  
$EndComp
Text Label 7800 4650 0    60   ~ 0
C0T
Text Label 7800 4950 0    60   ~ 0
C1T
Text Label 7800 5250 0    60   ~ 0
C2T
Text Label 7800 5550 0    60   ~ 0
C3T
Text Label 7800 5850 0    60   ~ 0
C4T
Text Label 8750 4500 2    60   ~ 0
C0
Text Label 9300 4800 2    60   ~ 0
C1
Text Label 8750 5100 2    60   ~ 0
C2
Text Label 9300 5400 2    60   ~ 0
C3
Text Label 8750 5700 2    60   ~ 0
C4
$Comp
L R R6
U 1 1 53C4F1ED
P 9900 4650
F 0 "R6" V 9985 4640 50  0000 C CNN
F 1 "10k" V 9905 4650 50  0000 C CNN
F 2 "" H 9900 4650 60  0000 C CNN
F 3 "" H 9900 4650 60  0000 C CNN
	1    9900 4650
	0    -1   -1   0   
$EndComp
$Comp
L R R7
U 1 1 53C4F1F3
P 9900 4950
F 0 "R7" V 9985 4940 50  0000 C CNN
F 1 "10k" V 9905 4950 50  0000 C CNN
F 2 "" H 9900 4950 60  0000 C CNN
F 3 "" H 9900 4950 60  0000 C CNN
	1    9900 4950
	0    -1   -1   0   
$EndComp
$Comp
L R R10
U 1 1 53C4F1F9
P 9900 5850
F 0 "R10" V 9985 5840 50  0000 C CNN
F 1 "10k" V 9905 5850 50  0000 C CNN
F 2 "" H 9900 5850 60  0000 C CNN
F 3 "" H 9900 5850 60  0000 C CNN
	1    9900 5850
	0    -1   -1   0   
$EndComp
$Comp
L R R8
U 1 1 53C4F1FF
P 9900 5250
F 0 "R8" V 9985 5240 50  0000 C CNN
F 1 "10k" V 9905 5250 50  0000 C CNN
F 2 "" H 9900 5250 60  0000 C CNN
F 3 "" H 9900 5250 60  0000 C CNN
	1    9900 5250
	0    -1   -1   0   
$EndComp
$Comp
L R R9
U 1 1 53C4F205
P 9900 5550
F 0 "R9" V 9985 5540 50  0000 C CNN
F 1 "10k" V 9905 5550 50  0000 C CNN
F 2 "" H 9900 5550 60  0000 C CNN
F 3 "" H 9900 5550 60  0000 C CNN
	1    9900 5550
	0    -1   -1   0   
$EndComp
$Comp
L GND-RESCUE-zegar #PWR06
U 1 1 53C4F217
P 10350 4850
F 0 "#PWR06" H 10350 4850 30  0001 C CNN
F 1 "GND" H 10350 4780 30  0001 C CNN
F 2 "" H 10350 4850 60  0000 C CNN
F 3 "" H 10350 4850 60  0000 C CNN
	1    10350 4850
	1    0    0    -1  
$EndComp
$Comp
L GND-RESCUE-zegar #PWR07
U 1 1 53C4F21E
P 10900 5150
F 0 "#PWR07" H 10900 5150 30  0001 C CNN
F 1 "GND" H 10900 5080 30  0001 C CNN
F 2 "" H 10900 5150 60  0000 C CNN
F 3 "" H 10900 5150 60  0000 C CNN
	1    10900 5150
	1    0    0    -1  
$EndComp
$Comp
L GND-RESCUE-zegar #PWR08
U 1 1 53C4F231
P 10350 5450
F 0 "#PWR08" H 10350 5450 30  0001 C CNN
F 1 "GND" H 10350 5380 30  0001 C CNN
F 2 "" H 10350 5450 60  0000 C CNN
F 3 "" H 10350 5450 60  0000 C CNN
	1    10350 5450
	1    0    0    -1  
$EndComp
$Comp
L GND-RESCUE-zegar #PWR09
U 1 1 53C4F237
P 10900 5750
F 0 "#PWR09" H 10900 5750 30  0001 C CNN
F 1 "GND" H 10900 5680 30  0001 C CNN
F 2 "" H 10900 5750 60  0000 C CNN
F 3 "" H 10900 5750 60  0000 C CNN
	1    10900 5750
	1    0    0    -1  
$EndComp
$Comp
L GND-RESCUE-zegar #PWR010
U 1 1 53C4F245
P 10350 6050
F 0 "#PWR010" H 10350 6050 30  0001 C CNN
F 1 "GND" H 10350 5980 30  0001 C CNN
F 2 "" H 10350 6050 60  0000 C CNN
F 3 "" H 10350 6050 60  0000 C CNN
	1    10350 6050
	1    0    0    -1  
$EndComp
Text Label 9550 4650 0    60   ~ 0
C5T
Text Label 9550 4950 0    60   ~ 0
C6T
Text Label 9550 5250 0    60   ~ 0
C7T
Text Label 9550 5550 0    60   ~ 0
C8T
Text Label 9550 5850 0    60   ~ 0
C9T
Text Label 10500 4500 2    60   ~ 0
C5
Text Label 11050 4800 2    60   ~ 0
C6
Text Label 10500 5100 2    60   ~ 0
C7
Text Label 11050 5400 2    60   ~ 0
C8
Text Label 10500 5700 2    60   ~ 0
C9
Text Label 13150 8100 0    60   ~ 0
SEP
$Comp
L ATmega88PA-AU U5
U 1 1 53C54AF3
P 3300 4300
F 0 "U5" H 2800 3100 50  0000 C CNN
F 1 "ATMEGA168PA-AU" V 3000 4500 100 0000 C CNN
F 2 "TQFP32" H 3775 2825 50  0001 C CNN
F 3 "" H 3300 4300 60  0000 C CNN
	1    3300 4300
	1    0    0    -1  
$EndComp
$Comp
L VCC #PWR011
U 1 1 53C54BE3
P 1900 7900
F 0 "#PWR011" H 1900 8000 30  0001 C CNN
F 1 "VCC" H 1900 8000 30  0000 C CNN
F 2 "" H 1900 7900 60  0000 C CNN
F 3 "" H 1900 7900 60  0000 C CNN
	1    1900 7900
	1    0    0    -1  
$EndComp
$Comp
L GND-RESCUE-zegar #PWR012
U 1 1 53C54BF2
P 2250 8100
F 0 "#PWR012" H 2250 8100 30  0001 C CNN
F 1 "GND" H 2250 8030 30  0001 C CNN
F 2 "" H 2250 8100 60  0000 C CNN
F 3 "" H 2250 8100 60  0000 C CNN
	1    2250 8100
	1    0    0    -1  
$EndComp
$Comp
L PWR_FLAG #FLG013
U 1 1 53C54C01
P 2250 8050
F 0 "#FLG013" H 2250 8320 30  0001 C CNN
F 1 "PWR_FLAG" H 2250 8280 30  0000 C CNN
F 2 "" H 2250 8050 60  0000 C CNN
F 3 "" H 2250 8050 60  0000 C CNN
	1    2250 8050
	1    0    0    -1  
$EndComp
$Comp
L PWR_FLAG #FLG014
U 1 1 53C54C0E
P 1900 7900
F 0 "#FLG014" H 1900 8170 30  0001 C CNN
F 1 "PWR_FLAG" H 1900 8130 30  0000 C CNN
F 2 "" H 1900 7900 60  0000 C CNN
F 3 "" H 1900 7900 60  0000 C CNN
	1    1900 7900
	-1   0    0    1   
$EndComp
$Comp
L GND-RESCUE-zegar #PWR015
U 1 1 53C55A4B
P 3300 6000
F 0 "#PWR015" H 3300 6000 30  0001 C CNN
F 1 "GND" H 3300 5930 30  0001 C CNN
F 2 "" H 3300 6000 60  0000 C CNN
F 3 "" H 3300 6000 60  0000 C CNN
	1    3300 6000
	1    0    0    -1  
$EndComp
$Comp
L VCC #PWR016
U 1 1 53C55A5A
P 3300 2950
F 0 "#PWR016" H 3300 3050 30  0001 C CNN
F 1 "VCC" H 3300 3050 30  0000 C CNN
F 2 "" H 3300 2950 60  0000 C CNN
F 3 "" H 3300 2950 60  0000 C CNN
	1    3300 2950
	1    0    0    -1  
$EndComp
$Comp
L R R16
U 1 1 53C55BE4
P 2550 3000
F 0 "R16" V 2635 2990 50  0000 C CNN
F 1 "10k" V 2555 3000 50  0000 C CNN
F 2 "" H 2550 3000 60  0000 C CNN
F 3 "" H 2550 3000 60  0000 C CNN
	1    2550 3000
	0    -1   -1   0   
$EndComp
Text Label 4550 3600 2    60   ~ 0
CA
Text Label 4550 3300 2    60   ~ 0
CB
Text Label 4550 3400 2    60   ~ 0
CC
Text Label 4550 3500 2    60   ~ 0
CD
Text Label 2200 4900 0    60   ~ 0
SEPT
Text Label 4550 3700 2    60   ~ 0
SDA
Text Label 4550 3800 2    60   ~ 0
SCL
Text Label 4550 4000 2    60   ~ 0
LIGHT
Text Label 4550 4300 2    60   ~ 0
A1T
Text Label 4550 4400 2    60   ~ 0
A2T
Text Label 4550 4500 2    60   ~ 0
A3T
Text Label 4550 4600 2    60   ~ 0
A4T
$Comp
L C-RESCUE-zegar C2
U 1 1 53C5974C
P 2350 4100
F 0 "C2" H 2250 4150 50  0000 L CNN
F 1 "100n" V 2450 4000 50  0000 L CNN
F 2 "" H 2350 4100 60  0000 C CNN
F 3 "" H 2350 4100 60  0000 C CNN
	1    2350 4100
	-1   0    0    -1  
$EndComp
$Comp
L L L1
U 1 1 53C59AD1
P 2000 3450
F 0 "L1" V 2050 3450 50  0000 C CNN
F 1 "10u" V 1925 3450 50  0000 C CNN
F 2 "" H 2000 3450 60  0000 C CNN
F 3 "" H 2000 3450 60  0000 C CNN
	1    2000 3450
	1    0    0    -1  
$EndComp
$Comp
L C-RESCUE-zegar C1
U 1 1 53C59E35
P 2000 3800
F 0 "C1" H 1900 3850 50  0000 L CNN
F 1 "100n" V 2100 3700 50  0000 L CNN
F 2 "" H 2000 3800 60  0000 C CNN
F 3 "" H 2000 3800 60  0000 C CNN
	1    2000 3800
	-1   0    0    -1  
$EndComp
Text Notes 5900 4350 0    60   ~ 0
sterowanie katodami
$Comp
L R R11
U 1 1 53C64F45
P 11100 3200
F 0 "R11" V 11185 3190 50  0000 C CNN
F 1 "10k" V 11105 3200 50  0000 C CNN
F 2 "" H 11100 3200 60  0000 C CNN
F 3 "" H 11100 3200 60  0000 C CNN
	1    11100 3200
	0    -1   -1   0   
$EndComp
$Comp
L GND-RESCUE-zegar #PWR017
U 1 1 53C64F51
P 11550 3400
F 0 "#PWR017" H 11550 3400 30  0001 C CNN
F 1 "GND" H 11550 3330 30  0001 C CNN
F 2 "" H 11550 3400 60  0000 C CNN
F 3 "" H 11550 3400 60  0000 C CNN
	1    11550 3400
	1    0    0    -1  
$EndComp
Text Label 10650 3200 0    60   ~ 0
SEPT
Text Label 11750 3050 2    60   ~ 0
SEP
Text Label 7850 7050 2    60   ~ 0
A1
Text Label 9450 7050 2    60   ~ 0
A2
Text Label 11050 7050 2    60   ~ 0
A3
Text Label 12650 7050 2    60   ~ 0
A4
Text Label 13000 7300 0    60   ~ 0
HV
$Comp
L SMBTA42 T1
U 1 1 53C675D0
P 8500 4650
F 0 "T1" H 8400 4775 50  0000 C CNN
F 1 "SMBTA42" V 8725 4650 50  0000 C CNN
F 2 "" H 8500 4650 60  0000 C CNN
F 3 "" H 8500 4650 60  0000 C CNN
	1    8500 4650
	1    0    0    -1  
$EndComp
$Comp
L SMBTA42 T3
U 1 1 53C675DD
P 8500 5250
F 0 "T3" H 8400 5375 50  0000 C CNN
F 1 "SMBTA42" V 8725 5250 50  0000 C CNN
F 2 "" H 8500 5250 60  0000 C CNN
F 3 "" H 8500 5250 60  0000 C CNN
	1    8500 5250
	1    0    0    -1  
$EndComp
$Comp
L SMBTA42 T5
U 1 1 53C675E3
P 8500 5850
F 0 "T5" H 8400 5975 50  0000 C CNN
F 1 "SMBTA42" V 8725 5850 50  0000 C CNN
F 2 "" H 8500 5850 60  0000 C CNN
F 3 "" H 8500 5850 60  0000 C CNN
	1    8500 5850
	1    0    0    -1  
$EndComp
$Comp
L SMBTA42 T6
U 1 1 53C675E9
P 10250 4650
F 0 "T6" H 10150 4775 50  0000 C CNN
F 1 "SMBTA42" V 10475 4650 50  0000 C CNN
F 2 "" H 10250 4650 60  0000 C CNN
F 3 "" H 10250 4650 60  0000 C CNN
	1    10250 4650
	1    0    0    -1  
$EndComp
$Comp
L SMBTA42 T7
U 1 1 53C675EF
P 10800 4950
F 0 "T7" H 10700 5075 50  0000 C CNN
F 1 "SMBTA42" V 11025 4950 50  0000 C CNN
F 2 "" H 10800 4950 60  0000 C CNN
F 3 "" H 10800 4950 60  0000 C CNN
	1    10800 4950
	1    0    0    -1  
$EndComp
$Comp
L SMBTA42 T2
U 1 1 53C675F5
P 9050 4950
F 0 "T2" H 8950 5075 50  0000 C CNN
F 1 "SMBTA42" V 9275 4950 50  0000 C CNN
F 2 "" H 9050 4950 60  0000 C CNN
F 3 "" H 9050 4950 60  0000 C CNN
	1    9050 4950
	1    0    0    -1  
$EndComp
$Comp
L SMBTA42 T4
U 1 1 53C675FB
P 9050 5550
F 0 "T4" H 8950 5675 50  0000 C CNN
F 1 "SMBTA42" V 9275 5550 50  0000 C CNN
F 2 "" H 9050 5550 60  0000 C CNN
F 3 "" H 9050 5550 60  0000 C CNN
	1    9050 5550
	1    0    0    -1  
$EndComp
$Comp
L SMBTA42 T9
U 1 1 53C67601
P 10800 5550
F 0 "T9" H 10700 5675 50  0000 C CNN
F 1 "SMBTA42" V 11025 5550 50  0000 C CNN
F 2 "" H 10800 5550 60  0000 C CNN
F 3 "" H 10800 5550 60  0000 C CNN
	1    10800 5550
	1    0    0    -1  
$EndComp
$Comp
L SMBTA42 T8
U 1 1 53C67607
P 10250 5250
F 0 "T8" H 10150 5375 50  0000 C CNN
F 1 "SMBTA42" V 10475 5250 50  0000 C CNN
F 2 "" H 10250 5250 60  0000 C CNN
F 3 "" H 10250 5250 60  0000 C CNN
	1    10250 5250
	1    0    0    -1  
$EndComp
$Comp
L SMBTA42 T10
U 1 1 53C6760D
P 10250 5850
F 0 "T10" H 10150 5975 50  0000 C CNN
F 1 "SMBTA42" V 10475 5850 50  0000 C CNN
F 2 "" H 10250 5850 60  0000 C CNN
F 3 "" H 10250 5850 60  0000 C CNN
	1    10250 5850
	1    0    0    -1  
$EndComp
$Comp
L SMBTA42 T11
U 1 1 53C6776D
P 11450 3200
F 0 "T11" H 11350 3325 50  0000 C CNN
F 1 "SMBTA42" V 11675 3200 50  0000 C CNN
F 2 "" H 11450 3200 60  0000 C CNN
F 3 "" H 11450 3200 60  0000 C CNN
	1    11450 3200
	1    0    0    -1  
$EndComp
$Comp
L CONN_2 P6
U 1 1 53C6C5CB
P 14700 8850
F 0 "P6" V 14650 8850 40  0000 C CNN
F 1 "separator" V 14750 8850 40  0000 C CNN
F 2 "" H 14700 8850 60  0000 C CNN
F 3 "" H 14700 8850 60  0000 C CNN
	1    14700 8850
	1    0    0    -1  
$EndComp
Text Label 14150 8950 0    60   ~ 0
HV
Text Label 14150 8750 0    60   ~ 0
SEP
Text Label 14150 7750 0    60   ~ 0
C1
Text Label 14150 7650 0    60   ~ 0
C2
Text Label 14150 7550 0    60   ~ 0
C3
Text Label 14150 7450 0    60   ~ 0
C4
Text Label 14150 7350 0    60   ~ 0
C5
Text Label 14150 7250 0    60   ~ 0
C6
Text Label 14150 8300 0    60   ~ 0
A1
Text Label 14150 8400 0    60   ~ 0
A2
Text Label 14150 8500 0    60   ~ 0
A3
Text Label 14150 8600 0    60   ~ 0
A4
Text Label 14150 7850 0    60   ~ 0
C0
Text Label 14150 7950 0    60   ~ 0
C9
Text Label 14150 8050 0    60   ~ 0
C8
Text Label 14150 8150 0    60   ~ 0
C7
$Comp
L CONN_4 P5
U 1 1 53C6C5F6
P 14700 8450
F 0 "P5" V 14650 8450 50  0000 C CNN
F 1 "anody" V 14750 8450 50  0000 C CNN
F 2 "" H 14700 8450 60  0000 C CNN
F 3 "" H 14700 8450 60  0000 C CNN
	1    14700 8450
	1    0    0    -1  
$EndComp
$Comp
L CONN_10 P4
U 1 1 53C6C5FC
P 14700 7700
F 0 "P4" V 14650 7700 60  0000 C CNN
F 1 "katody" V 14750 7700 60  0000 C CNN
F 2 "" H 14700 7700 60  0000 C CNN
F 3 "" H 14700 7700 60  0000 C CNN
	1    14700 7700
	1    0    0    -1  
$EndComp
$Comp
L IN-12A N1
U 1 1 53CB15CE
P 7400 7500
F 0 "N1" H 7650 7350 50  0000 L BNN
F 1 "IN-12A" H 7650 7250 50  0000 L BNN
F 2 "mopsiok_nixie_IN-12A" V 7300 7550 50  0001 C CNN
F 3 "~" H 7400 7500 60  0000 C CNN
	1    7400 7500
	1    0    0    -1  
$EndComp
$Comp
L IN-12A N2
U 1 1 53CB15DB
P 9000 7500
F 0 "N2" H 9250 7350 50  0000 L BNN
F 1 "IN-12A" H 9250 7250 50  0000 L BNN
F 2 "mopsiok_nixie_IN-12A" V 8900 7550 50  0001 C CNN
F 3 "~" H 9000 7500 60  0000 C CNN
	1    9000 7500
	1    0    0    -1  
$EndComp
$Comp
L IN-12A N3
U 1 1 53CB15E1
P 10600 7500
F 0 "N3" H 10850 7350 50  0000 L BNN
F 1 "IN-12A" H 10850 7250 50  0000 L BNN
F 2 "mopsiok_nixie_IN-12A" V 10500 7550 50  0001 C CNN
F 3 "~" H 10600 7500 60  0000 C CNN
	1    10600 7500
	1    0    0    -1  
$EndComp
$Comp
L IN-12A N4
U 1 1 53CB15E7
P 12200 7500
F 0 "N4" H 12450 7350 50  0000 L BNN
F 1 "IN-12A" H 12450 7250 50  0000 L BNN
F 2 "mopsiok_nixie_IN-12A" V 12100 7550 50  0001 C CNN
F 3 "~" H 12200 7500 60  0000 C CNN
	1    12200 7500
	1    0    0    -1  
$EndComp
Text Label 4550 5100 2    60   ~ 0
IRINT
Text Label 4550 5200 2    60   ~ 0
CLINT
Text Label 4550 4800 2    60   ~ 0
SETT
Text Label 4550 4700 2    60   ~ 0
ALT
Text Label 2200 5200 0    60   ~ 0
BUZT
$Comp
L 4028 U6
U 1 1 53CB8A8A
P 6750 5250
F 0 "U6" H 6750 5250 60  0000 C CNN
F 1 "4028" H 6700 4950 60  0000 C CNN
F 2 "" H 6750 5250 60  0000 C CNN
F 3 "" H 6750 5250 60  0000 C CNN
	1    6750 5250
	1    0    0    -1  
$EndComp
Text Label 6000 5100 0    60   ~ 0
CA
Text Label 6000 5200 0    60   ~ 0
CB
Text Label 6000 5300 0    60   ~ 0
CC
Text Label 6000 5400 0    60   ~ 0
CD
Text Label 7550 5000 2    60   ~ 0
C5T
Text Label 7550 5400 2    60   ~ 0
C0T
Text Label 7550 5300 2    60   ~ 0
C1T
Text Label 7550 5700 2    60   ~ 0
C2T
Text Label 7550 5500 2    60   ~ 0
C3T
Text Label 7550 4800 2    60   ~ 0
C4T
Text Label 7550 5200 2    60   ~ 0
C6T
Text Label 7550 5600 2    60   ~ 0
C7T
Text Label 7550 4900 2    60   ~ 0
C8T
Text Label 7550 5100 2    60   ~ 0
C9T
Text Notes 4750 3800 0    60   ~ 0
linie I2C
Text Notes 4650 4700 0    60   ~ 0
sygnalizator budzika
Text Notes 2150 4900 2    60   ~ 0
dwukropek
Text Notes 4750 3500 0    60   ~ 0
sterowanie katodami
Text Notes 4650 5100 0    60   ~ 0
przerwanie odbiornika IR
$Comp
L GND-RESCUE-zegar #PWR018
U 1 1 53CBAB45
P 6750 5850
F 0 "#PWR018" H 6750 5850 30  0001 C CNN
F 1 "GND" H 6750 5780 30  0001 C CNN
F 2 "" H 6750 5850 60  0000 C CNN
F 3 "" H 6750 5850 60  0000 C CNN
	1    6750 5850
	1    0    0    -1  
$EndComp
$Comp
L VCC #PWR019
U 1 1 53CBAB54
P 6750 4700
F 0 "#PWR019" H 6750 4800 30  0001 C CNN
F 1 "VCC" H 6750 4800 30  0000 C CNN
F 2 "" H 6750 4700 60  0000 C CNN
F 3 "" H 6750 4700 60  0000 C CNN
	1    6750 4700
	1    0    0    -1  
$EndComp
Text Label 11350 5300 0    60   ~ 0
C1
Text Label 11350 5200 0    60   ~ 0
C2
Text Label 11350 5100 0    60   ~ 0
C3
Text Label 11350 5000 0    60   ~ 0
C4
Text Label 11350 4900 0    60   ~ 0
C5
Text Label 11350 4800 0    60   ~ 0
C6
Text Label 11350 5400 0    60   ~ 0
C0
Text Label 11350 5500 0    60   ~ 0
C9
Text Label 11350 5600 0    60   ~ 0
C8
Text Label 11350 5700 0    60   ~ 0
C7
$Comp
L CONN_10 P1
U 1 1 53CBACDC
P 11900 5250
F 0 "P1" V 11850 5250 60  0000 C CNN
F 1 "katody" V 11950 5250 60  0000 C CNN
F 2 "" H 11900 5250 60  0000 C CNN
F 3 "" H 11900 5250 60  0000 C CNN
	1    11900 5250
	1    0    0    -1  
$EndComp
$Comp
L CONN_2 P8
U 1 1 53CBB3ED
P 11900 3950
F 0 "P8" V 11850 3950 40  0000 C CNN
F 1 "separator" V 11950 3950 40  0000 C CNN
F 2 "" H 11900 3950 60  0000 C CNN
F 3 "" H 11900 3950 60  0000 C CNN
	1    11900 3950
	1    0    0    -1  
$EndComp
Text Label 11350 4050 0    60   ~ 0
HV
Text Label 11350 3850 0    60   ~ 0
SEP
Text Label 4550 4200 2    60   ~ 0
RXD
Text Notes 4650 4200 0    60   ~ 0
odbiór UART
$Comp
L GND-RESCUE-zegar #PWR020
U 1 1 53CEBE07
P 5200 8500
F 0 "#PWR020" H 5200 8500 30  0001 C CNN
F 1 "GND" H 5200 8430 30  0001 C CNN
F 2 "" H 5200 8500 60  0000 C CNN
F 3 "" H 5200 8500 60  0000 C CNN
	1    5200 8500
	1    0    0    -1  
$EndComp
Text Label 5050 8200 0    60   ~ 0
RXD
$Comp
L R R29
U 1 1 53CEDA3D
P 13000 5000
F 0 "R29" V 12900 5000 50  0000 C CNN
F 1 "270k" V 13005 5000 50  0000 C CNN
F 2 "" H 13000 5000 60  0000 C CNN
F 3 "" H 13000 5000 60  0000 C CNN
	1    13000 5000
	1    0    0    -1  
$EndComp
$Comp
L GND-RESCUE-zegar #PWR021
U 1 1 53CEDD71
P 13000 5200
F 0 "#PWR021" H 13000 5200 30  0001 C CNN
F 1 "GND" H 13000 5130 30  0001 C CNN
F 2 "" H 13000 5200 60  0000 C CNN
F 3 "" H 13000 5200 60  0000 C CNN
	1    13000 5200
	1    0    0    -1  
$EndComp
$Comp
L VCC #PWR022
U 1 1 53CEDD80
P 13000 4350
F 0 "#PWR022" H 13000 4450 30  0001 C CNN
F 1 "VCC" H 13000 4450 30  0000 C CNN
F 2 "" H 13000 4350 60  0000 C CNN
F 3 "" H 13000 4350 60  0000 C CNN
	1    13000 4350
	1    0    0    -1  
$EndComp
Text Label 13350 4800 2    60   ~ 0
LIGHT
$Comp
L NPN T12
U 1 1 53CEE70C
P 12900 3900
F 0 "T12" H 12800 4025 50  0000 C CNN
F 1 "BC848" V 13125 3900 50  0000 C CNN
F 2 "" H 12900 3900 60  0000 C CNN
F 3 "" H 12900 3900 60  0000 C CNN
	1    12900 3900
	1    0    0    -1  
$EndComp
$Comp
L R R25
U 1 1 53CEE72F
P 12650 3900
F 0 "R25" V 12735 3890 50  0000 C CNN
F 1 "4k7" V 12655 3900 50  0000 C CNN
F 2 "" H 12650 3900 60  0000 C CNN
F 3 "" H 12650 3900 60  0000 C CNN
	1    12650 3900
	0    -1   1    0   
$EndComp
$Comp
L GND-RESCUE-zegar #PWR023
U 1 1 53CEE74D
P 13000 4100
F 0 "#PWR023" H 13000 4100 30  0001 C CNN
F 1 "GND" H 13000 4030 30  0001 C CNN
F 2 "" H 13000 4100 60  0000 C CNN
F 3 "" H 13000 4100 60  0000 C CNN
	1    13000 4100
	1    0    0    -1  
$EndComp
Text Label 12250 3900 0    60   ~ 0
SETT
$Comp
L NPN T13
U 1 1 53CEEAB5
P 12900 3250
F 0 "T13" H 12800 3375 50  0000 C CNN
F 1 "BC848" V 13125 3250 50  0000 C CNN
F 2 "" H 12900 3250 60  0000 C CNN
F 3 "" H 12900 3250 60  0000 C CNN
	1    12900 3250
	1    0    0    -1  
$EndComp
$Comp
L R R26
U 1 1 53CEEABB
P 12650 3250
F 0 "R26" V 12735 3240 50  0000 C CNN
F 1 "4k7" V 12655 3250 50  0000 C CNN
F 2 "" H 12650 3250 60  0000 C CNN
F 3 "" H 12650 3250 60  0000 C CNN
	1    12650 3250
	0    -1   1    0   
$EndComp
$Comp
L GND-RESCUE-zegar #PWR024
U 1 1 53CEEAC1
P 13000 3450
F 0 "#PWR024" H 13000 3450 30  0001 C CNN
F 1 "GND" H 13000 3380 30  0001 C CNN
F 2 "" H 13000 3450 60  0000 C CNN
F 3 "" H 13000 3450 60  0000 C CNN
	1    13000 3450
	1    0    0    -1  
$EndComp
Text Label 12250 3250 0    60   ~ 0
ALT
$Comp
L CONN_3 U9
U 1 1 53CF143B
P 13500 5550
F 0 "U9" V 13450 5550 50  0000 C CNN
F 1 "TSOP2236" V 13550 5550 40  0000 C CNN
F 2 "" H 13500 5550 60  0000 C CNN
F 3 "" H 13500 5550 60  0000 C CNN
	1    13500 5550
	1    0    0    -1  
$EndComp
Text Label 12850 5450 0    60   ~ 0
IRINT
$Comp
L VCC #PWR025
U 1 1 53CF165F
P 12500 5500
F 0 "#PWR025" H 12500 5600 30  0001 C CNN
F 1 "VCC" H 12500 5600 30  0000 C CNN
F 2 "" H 12500 5500 60  0000 C CNN
F 3 "" H 12500 5500 60  0000 C CNN
	1    12500 5500
	1    0    0    -1  
$EndComp
$Comp
L GND-RESCUE-zegar #PWR026
U 1 1 53CF166E
P 13000 5950
F 0 "#PWR026" H 13000 5950 30  0001 C CNN
F 1 "GND" H 13000 5880 30  0001 C CNN
F 2 "" H 13000 5950 60  0000 C CNN
F 3 "" H 13000 5950 60  0000 C CNN
	1    13000 5950
	1    0    0    -1  
$EndComp
$Comp
L R R28
U 1 1 53CF168C
P 12700 5550
F 0 "R28" V 12785 5540 50  0000 C CNN
F 1 "100" V 12705 5550 50  0000 C CNN
F 2 "" H 12700 5550 60  0000 C CNN
F 3 "" H 12700 5550 60  0000 C CNN
	1    12700 5550
	0    -1   -1   0   
$EndComp
$Comp
L CP-RESCUE-zegar C9
U 1 1 53CF16E1
P 13000 5700
F 0 "C9" H 13050 5800 50  0000 L CNN
F 1 "4u7" H 13050 5600 50  0000 L CNN
F 2 "" H 13000 5700 60  0000 C CNN
F 3 "" H 13000 5700 60  0000 C CNN
	1    13000 5700
	-1   0    0    -1  
$EndComp
$Comp
L VCC #PWR027
U 1 1 53CF2A9A
P 2000 3250
F 0 "#PWR027" H 2000 3350 30  0001 C CNN
F 1 "VCC" H 2000 3350 30  0000 C CNN
F 2 "" H 2000 3250 60  0000 C CNN
F 3 "" H 2000 3250 60  0000 C CNN
	1    2000 3250
	1    0    0    -1  
$EndComp
$Comp
L BATTERY BT1
U 1 1 53CF621E
P 2150 7200
F 0 "BT1" V 2250 7300 50  0000 C CNN
F 1 "CR2032" H 2150 7050 50  0000 C CNN
F 2 "" H 2150 7200 60  0000 C CNN
F 3 "" H 2150 7200 60  0000 C CNN
	1    2150 7200
	0    1    1    0   
$EndComp
$Comp
L PCF8563-RESCUE-zegar U8
U 1 1 53CF6298
P 4050 7200
F 0 "U8" H 4050 6801 60  0000 C CNN
F 1 "PCF8563" H 4050 7600 60  0000 C CNN
F 2 "" H 4050 7200 60  0000 C CNN
F 3 "" H 4050 7200 60  0000 C CNN
	1    4050 7200
	1    0    0    -1  
$EndComp
Text Label 5500 6950 2    60   ~ 0
CLINT
Text Label 5500 7100 2    60   ~ 0
SCL
Text Label 5500 7200 2    60   ~ 0
SDA
$Comp
L R R23
U 1 1 53CF6874
P 5000 6750
F 0 "R23" V 5085 6740 50  0000 C CNN
F 1 "10k" V 5005 6750 50  0000 C CNN
F 2 "" H 5000 6750 60  0000 C CNN
F 3 "" H 5000 6750 60  0000 C CNN
	1    5000 6750
	1    0    0    -1  
$EndComp
$Comp
L R R24
U 1 1 53CF687B
P 5200 6750
F 0 "R24" V 5285 6740 50  0000 C CNN
F 1 "10k" V 5205 6750 50  0000 C CNN
F 2 "" H 5200 6750 60  0000 C CNN
F 3 "" H 5200 6750 60  0000 C CNN
	1    5200 6750
	1    0    0    -1  
$EndComp
$Comp
L CRYSTAL X1
U 1 1 53CF6883
P 3300 7300
F 0 "X1" H 3300 7425 50  0000 C CNN
F 1 "32.768kHz" H 3300 7175 40  0000 C CNN
F 2 "" H 3300 7300 60  0000 C CNN
F 3 "" H 3300 7300 60  0000 C CNN
	1    3300 7300
	0    1    -1   0   
$EndComp
$Comp
L C-RESCUE-zegar C4
U 1 1 53CF68C6
P 3000 7250
F 0 "C4" H 3000 7350 50  0000 L CNN
F 1 "44p" H 3000 7150 50  0000 L CNN
F 2 "" H 3000 7250 60  0000 C CNN
F 3 "" H 3000 7250 60  0000 C CNN
	1    3000 7250
	-1   0    0    -1  
$EndComp
$Comp
L VCC #PWR028
U 1 1 53CF773B
P 5000 6500
F 0 "#PWR028" H 5000 6600 30  0001 C CNN
F 1 "VCC" H 5000 6600 30  0000 C CNN
F 2 "" H 5000 6500 60  0000 C CNN
F 3 "" H 5000 6500 60  0000 C CNN
	1    5000 6500
	1    0    0    -1  
$EndComp
$Comp
L GND-RESCUE-zegar #PWR029
U 1 1 53CF7B06
P 3000 7450
F 0 "#PWR029" H 3000 7450 30  0001 C CNN
F 1 "GND" H 3000 7380 30  0001 C CNN
F 2 "" H 3000 7450 60  0000 C CNN
F 3 "" H 3000 7450 60  0000 C CNN
	1    3000 7450
	1    0    0    -1  
$EndComp
$Comp
L GND-RESCUE-zegar #PWR030
U 1 1 53CF8155
P 4750 7550
F 0 "#PWR030" H 4750 7550 30  0001 C CNN
F 1 "GND" H 4750 7480 30  0001 C CNN
F 2 "" H 4750 7550 60  0000 C CNN
F 3 "" H 4750 7550 60  0000 C CNN
	1    4750 7550
	1    0    0    -1  
$EndComp
$Comp
L C-RESCUE-zegar C3
U 1 1 53CF8CB1
P 2600 7250
F 0 "C3" H 2600 7350 50  0000 L CNN
F 1 "100n" H 2600 7150 50  0000 L CNN
F 2 "" H 2600 7250 60  0000 C CNN
F 3 "" H 2600 7250 60  0000 C CNN
	1    2600 7250
	1    0    0    -1  
$EndComp
$Comp
L DIODE D5
U 1 1 53CF8CC0
P 2400 6750
F 0 "D5" H 2400 6850 40  0000 C CNN
F 1 "1N4148" H 2400 6650 40  0000 C CNN
F 2 "" H 2400 6750 60  0000 C CNN
F 3 "" H 2400 6750 60  0000 C CNN
	1    2400 6750
	1    0    0    -1  
$EndComp
$Comp
L DIODE D6
U 1 1 53CF8CD8
P 2400 7050
F 0 "D6" H 2400 7150 40  0000 C CNN
F 1 "1N4148" H 2400 6950 40  0000 C CNN
F 2 "" H 2400 7050 60  0000 C CNN
F 3 "" H 2400 7050 60  0000 C CNN
	1    2400 7050
	1    0    0    -1  
$EndComp
$Comp
L GND-RESCUE-zegar #PWR031
U 1 1 53CF92E4
P 2600 7450
F 0 "#PWR031" H 2600 7450 30  0001 C CNN
F 1 "GND" H 2600 7380 30  0001 C CNN
F 2 "" H 2600 7450 60  0000 C CNN
F 3 "" H 2600 7450 60  0000 C CNN
	1    2600 7450
	1    0    0    -1  
$EndComp
$Comp
L VCC #PWR032
U 1 1 53CF96E4
P 2250 6750
F 0 "#PWR032" H 2250 6850 30  0001 C CNN
F 1 "VCC" H 2250 6850 30  0000 C CNN
F 2 "" H 2250 6750 60  0000 C CNN
F 3 "" H 2250 6750 60  0000 C CNN
	1    2250 6750
	0    -1   -1   0   
$EndComp
$Comp
L GND-RESCUE-zegar #PWR033
U 1 1 53CF9B72
P 2150 7450
F 0 "#PWR033" H 2150 7450 30  0001 C CNN
F 1 "GND" H 2150 7380 30  0001 C CNN
F 2 "" H 2150 7450 60  0000 C CNN
F 3 "" H 2150 7450 60  0000 C CNN
	1    2150 7450
	1    0    0    -1  
$EndComp
$Comp
L NPN T14
U 1 1 53D11FEA
P 3300 8500
F 0 "T14" H 3200 8625 50  0000 C CNN
F 1 "BC848" V 3525 8500 50  0000 C CNN
F 2 "" H 3300 8500 60  0000 C CNN
F 3 "" H 3300 8500 60  0000 C CNN
	1    3300 8500
	1    0    0    -1  
$EndComp
$Comp
L R R22
U 1 1 53D11FF0
P 3050 8500
F 0 "R22" V 3135 8490 50  0000 C CNN
F 1 "4k7" V 3055 8500 50  0000 C CNN
F 2 "" H 3050 8500 60  0000 C CNN
F 3 "" H 3050 8500 60  0000 C CNN
	1    3050 8500
	0    -1   1    0   
$EndComp
$Comp
L GND-RESCUE-zegar #PWR034
U 1 1 53D11FF6
P 3400 8700
F 0 "#PWR034" H 3400 8700 30  0001 C CNN
F 1 "GND" H 3400 8630 30  0001 C CNN
F 2 "" H 3400 8700 60  0000 C CNN
F 3 "" H 3400 8700 60  0000 C CNN
	1    3400 8700
	1    0    0    -1  
$EndComp
Text Label 2650 8500 0    60   ~ 0
BUZT
$Comp
L VCC #PWR035
U 1 1 53D131C2
P 3400 8050
F 0 "#PWR035" H 3400 8150 30  0001 C CNN
F 1 "VCC" H 3400 8150 30  0000 C CNN
F 2 "" H 3400 8050 60  0000 C CNN
F 3 "" H 3400 8050 60  0000 C CNN
	1    3400 8050
	1    0    0    -1  
$EndComp
$Comp
L buzzer U10
U 1 1 53D13AC9
P 3500 8150
F 0 "U10" H 3700 8300 60  0000 C CNN
F 1 "BUZZER" V 3800 8100 60  0000 C CNN
F 2 "mopsiok_buzzer" H 3700 7800 60  0001 C CNN
F 3 "" H 3500 8150 60  0000 C CNN
	1    3500 8150
	1    0    0    -1  
$EndComp
$Comp
L CONN_6 P9
U 1 1 53D81C98
P 14500 3250
F 0 "P9" V 14450 3250 60  0000 C CNN
F 1 "panel" V 14550 3250 60  0000 C CNN
F 2 "" H 14500 3250 60  0000 C CNN
F 3 "" H 14500 3250 60  0000 C CNN
	1    14500 3250
	1    0    0    -1  
$EndComp
$Comp
L GND-RESCUE-zegar #PWR036
U 1 1 53D82A97
P 14100 3600
F 0 "#PWR036" H 14100 3600 30  0001 C CNN
F 1 "GND" H 14100 3530 30  0001 C CNN
F 2 "" H 14100 3600 60  0000 C CNN
F 3 "" H 14100 3600 60  0000 C CNN
	1    14100 3600
	1    0    0    -1  
$EndComp
$Comp
L VCC #PWR037
U 1 1 53D82AA6
P 13900 3400
F 0 "#PWR037" H 13900 3500 30  0001 C CNN
F 1 "VCC" H 13900 3500 30  0000 C CNN
F 2 "" H 13900 3400 60  0000 C CNN
F 3 "" H 13900 3400 60  0000 C CNN
	1    13900 3400
	0    -1   -1   0   
$EndComp
Text Label 13800 3000 0    60   ~ 0
IRINT
Text Label 13800 3300 0    60   ~ 0
LIGHT
Text Label 13800 3200 0    60   ~ 0
ALARM
Text Label 13800 3100 0    60   ~ 0
SET
$Comp
L CONN_6 P3
U 1 1 53D82EE5
P 14200 4100
F 0 "P3" V 14150 4100 60  0000 C CNN
F 1 "panel" V 14250 4100 60  0000 C CNN
F 2 "" H 14200 4100 60  0000 C CNN
F 3 "" H 14200 4100 60  0000 C CNN
	1    14200 4100
	-1   0    0    -1  
$EndComp
$Comp
L GND-RESCUE-zegar #PWR038
U 1 1 53D82EF1
P 14600 4450
F 0 "#PWR038" H 14600 4450 30  0001 C CNN
F 1 "GND" H 14600 4380 30  0001 C CNN
F 2 "" H 14600 4450 60  0000 C CNN
F 3 "" H 14600 4450 60  0000 C CNN
	1    14600 4450
	-1   0    0    -1  
$EndComp
$Comp
L VCC #PWR039
U 1 1 53D82EF7
P 14600 4250
F 0 "#PWR039" H 14600 4350 30  0001 C CNN
F 1 "VCC" H 14600 4350 30  0000 C CNN
F 2 "" H 14600 4250 60  0000 C CNN
F 3 "" H 14600 4250 60  0000 C CNN
	1    14600 4250
	0    1    -1   0   
$EndComp
Text Label 14800 3850 2    60   ~ 0
IRINT
Text Label 14800 4150 2    60   ~ 0
LIGHT
Text Label 14800 4050 2    60   ~ 0
ALARM
Text Label 14800 3950 2    60   ~ 0
SET
$Comp
L BULB B1
U 1 1 53D8343E
P 13300 3000
F 0 "B1" H 13300 3150 60  0000 C CNN
F 1 "SNM 6.3-20" H 13300 2850 40  0000 C CNN
F 2 "" H 13300 3000 60  0000 C CNN
F 3 "" H 13300 3000 60  0000 C CNN
	1    13300 3000
	-1   0    0    1   
$EndComp
$Comp
L BULB B2
U 1 1 53D83905
P 13300 3650
F 0 "B2" H 13300 3800 60  0000 C CNN
F 1 "SNM 6.3-20" H 13300 3500 40  0000 C CNN
F 2 "" H 13300 3650 60  0000 C CNN
F 3 "" H 13300 3650 60  0000 C CNN
	1    13300 3650
	-1   0    0    1   
$EndComp
$Comp
L VCC #PWR040
U 1 1 53D83D38
P 13500 3000
F 0 "#PWR040" H 13500 3100 30  0001 C CNN
F 1 "VCC" H 13500 3100 30  0000 C CNN
F 2 "" H 13500 3000 60  0000 C CNN
F 3 "" H 13500 3000 60  0000 C CNN
	1    13500 3000
	0    1    1    0   
$EndComp
$Comp
L VCC #PWR041
U 1 1 53D83D45
P 13500 3650
F 0 "#PWR041" H 13500 3750 30  0001 C CNN
F 1 "VCC" H 13500 3750 30  0000 C CNN
F 2 "" H 13500 3650 60  0000 C CNN
F 3 "" H 13500 3650 60  0000 C CNN
	1    13500 3650
	0    1    1    0   
$EndComp
Text Notes 13950 4300 1    60   ~ 0
gniazdo \nna panelu
Text Notes 13450 4900 0    60   ~ 0
B1 - żarówka budzika\nB2 - żarówka ustawiania\nLIGHT - pomiar światła\nIRINT - odbiornik podczerwieni
Text Notes 14700 3550 1    60   ~ 0
wyprow. od\npłytki głównej
Text Notes 12150 2700 0    60   ~ 0
przedni panel - sygnalizacja, pomiar światła i obsługa pilota
$Comp
L CONN_2 P10
U 1 1 53D85598
P 5600 8300
F 0 "P10" V 5550 8300 40  0000 C CNN
F 1 "UART panel" V 5650 8300 30  0000 C CNN
F 2 "" H 5600 8300 60  0000 C CNN
F 3 "" H 5600 8300 60  0000 C CNN
	1    5600 8300
	1    0    0    -1  
$EndComp
$Comp
L LTR4206 Q1
U 1 1 53D85B32
P 12900 4550
F 0 "Q1" H 13050 4600 50  0000 L CNN
F 1 "LTR4206" V 12750 4400 50  0000 L CNN
F 2 "~" H 12900 4550 60  0000 C CNN
F 3 "~" H 12900 4550 60  0000 C CNN
	1    12900 4550
	1    0    0    -1  
$EndComp
$Comp
L JUMPER_SMD0805 JP1
U 1 1 53D8EE92
P 14000 3300
F 0 "JP1" H 14050 3250 30  0000 C CNN
F 1 "JUMPER_SMD0805" H 14000 3200 30  0001 C CNN
F 2 "SM0805" H 14000 3150 30  0001 C CNN
F 3 "" H 14250 3200 60  0000 C CNN
	1    14000 3300
	1    0    0    -1  
$EndComp
$Comp
L JUMPER_SMD0805 JP2
U 1 1 53D8F175
P 14000 3400
F 0 "JP2" H 14050 3350 30  0000 C CNN
F 1 "JUMPER_SMD0805" H 14000 3300 30  0001 C CNN
F 2 "SM0805" H 14000 3250 30  0001 C CNN
F 3 "" H 14250 3300 60  0000 C CNN
	1    14000 3400
	1    0    0    -1  
$EndComp
Text Label 4550 5400 2    60   ~ 0
MOSI
Text Label 4550 5500 2    60   ~ 0
MISO
Text Label 4550 5600 2    60   ~ 0
SCK
Text Label 2150 3000 0    60   ~ 0
RST
$Comp
L CONN_1 P11
U 1 1 53DD8655
P 4550 8100
F 0 "P11" H 4630 8100 40  0000 L CNN
F 1 "MOSI" H 4550 8155 30  0001 C CNN
F 2 "" H 4550 8100 60  0000 C CNN
F 3 "" H 4550 8100 60  0000 C CNN
	1    4550 8100
	1    0    0    -1  
$EndComp
$Comp
L CONN_1 P12
U 1 1 53DD8662
P 4550 8200
F 0 "P12" H 4630 8200 40  0000 L CNN
F 1 "MISO" H 4550 8255 30  0001 C CNN
F 2 "" H 4550 8200 60  0000 C CNN
F 3 "" H 4550 8200 60  0000 C CNN
	1    4550 8200
	1    0    0    -1  
$EndComp
$Comp
L CONN_1 P13
U 1 1 53DD8668
P 4550 8300
F 0 "P13" H 4630 8300 40  0000 L CNN
F 1 "SCK" H 4550 8355 30  0001 C CNN
F 2 "" H 4550 8300 60  0000 C CNN
F 3 "" H 4550 8300 60  0000 C CNN
	1    4550 8300
	1    0    0    -1  
$EndComp
$Comp
L CONN_1 P14
U 1 1 53DD866E
P 4550 8400
F 0 "P14" H 4630 8400 40  0000 L CNN
F 1 "RST" H 4550 8455 30  0001 C CNN
F 2 "" H 4550 8400 60  0000 C CNN
F 3 "" H 4550 8400 60  0000 C CNN
	1    4550 8400
	1    0    0    -1  
$EndComp
$Comp
L CONN_1 P15
U 1 1 53DD8674
P 4550 8500
F 0 "P15" H 4630 8500 40  0000 L CNN
F 1 "VCC" H 4550 8555 30  0001 C CNN
F 2 "" H 4550 8500 60  0000 C CNN
F 3 "" H 4550 8500 60  0000 C CNN
	1    4550 8500
	1    0    0    -1  
$EndComp
$Comp
L CONN_1 P16
U 1 1 53DD867A
P 4550 8600
F 0 "P16" H 4630 8600 40  0000 L CNN
F 1 "GND" H 4550 8655 30  0001 C CNN
F 2 "" H 4550 8600 60  0000 C CNN
F 3 "" H 4550 8600 60  0000 C CNN
	1    4550 8600
	1    0    0    -1  
$EndComp
Text Label 4150 8100 0    60   ~ 0
MOSI
Text Label 4150 8200 0    60   ~ 0
MISO
Text Label 4150 8300 0    60   ~ 0
SCK
Text Label 4150 8400 0    60   ~ 0
RST
$Comp
L VCC #PWR042
U 1 1 53DD8EDB
P 4350 8500
F 0 "#PWR042" H 4350 8600 30  0001 C CNN
F 1 "VCC" H 4350 8600 30  0000 C CNN
F 2 "" H 4350 8500 60  0000 C CNN
F 3 "" H 4350 8500 60  0000 C CNN
	1    4350 8500
	0    -1   -1   0   
$EndComp
$Comp
L GND-RESCUE-zegar #PWR043
U 1 1 53DD8EEA
P 4350 8700
F 0 "#PWR043" H 4350 8700 30  0001 C CNN
F 1 "GND" H 4350 8630 30  0001 C CNN
F 2 "" H 4350 8700 60  0000 C CNN
F 3 "" H 4350 8700 60  0000 C CNN
	1    4350 8700
	1    0    0    -1  
$EndComp
Text Notes 4050 7850 0    60   ~ 0
złącze ISP
$Comp
L C-RESCUE-zegar C16
U 1 1 53E7747D
P 13900 2050
F 0 "C16" H 13700 2150 50  0000 L CNN
F 1 "?" H 13800 1950 50  0000 L CNN
F 2 "" H 13900 2050 60  0000 C CNN
F 3 "" H 13900 2050 60  0000 C CNN
	1    13900 2050
	-1   0    0    -1  
$EndComp
$Comp
L CP-RESCUE-zegar C5
U 1 1 53E77483
P 9750 2150
F 0 "C5" H 9800 2250 50  0000 L CNN
F 1 "100u/16V" V 9650 1950 50  0000 L CNN
F 2 "" H 9750 2150 60  0000 C CNN
F 3 "" H 9750 2150 60  0000 C CNN
	1    9750 2150
	1    0    0    -1  
$EndComp
$Comp
L C-RESCUE-zegar C14
U 1 1 53E774C7
P 10100 2150
F 0 "C14" H 10150 2250 50  0000 L CNN
F 1 "1n" H 10150 2050 50  0000 L CNN
F 2 "" H 10100 2150 60  0000 C CNN
F 3 "" H 10100 2150 60  0000 C CNN
	1    10100 2150
	1    0    0    -1  
$EndComp
$Comp
L R R35
U 1 1 53E774CD
P 13700 2100
F 0 "R35" V 13785 2090 50  0000 C CNN
F 1 "4k7" V 13705 2100 50  0000 C CNN
F 2 "" H 13700 2100 60  0000 C CNN
F 3 "" H 13700 2100 60  0000 C CNN
	1    13700 2100
	-1   0    0    1   
$EndComp
$Comp
L R R33
U 1 1 53E774D3
P 13700 1400
F 0 "R33" V 13785 1390 50  0000 C CNN
F 1 "680k" V 13705 1400 50  0000 C CNN
F 2 "" H 13700 1400 60  0000 C CNN
F 3 "" H 13700 1400 60  0000 C CNN
	1    13700 1400
	1    0    0    -1  
$EndComp
$Comp
L CP-RESCUE-zegar C15
U 1 1 53E774D9
P 13400 1750
F 0 "C15" H 13450 1850 50  0000 L CNN
F 1 "2.2u/250V" V 13300 1550 50  0000 L CNN
F 2 "" H 13400 1750 60  0000 C CNN
F 3 "" H 13400 1750 60  0000 C CNN
	1    13400 1750
	1    0    0    -1  
$EndComp
$Comp
L DIODE D10
U 1 1 53E774DF
P 13150 1200
F 0 "D10" H 13150 1300 40  0000 C CNN
F 1 "BAS21" H 13150 1100 40  0000 C CNN
F 2 "" H 13150 1200 60  0000 C CNN
F 3 "" H 13150 1200 60  0000 C CNN
	1    13150 1200
	1    0    0    -1  
$EndComp
$Comp
L R R27
U 1 1 53E774E5
P 12200 2200
F 0 "R27" V 12285 2190 50  0000 C CNN
F 1 "10k" V 12205 2200 50  0000 C CNN
F 2 "" H 12200 2200 60  0000 C CNN
F 3 "" H 12200 2200 60  0000 C CNN
	1    12200 2200
	-1   0    0    1   
$EndComp
$Comp
L MOSFET_N Q3
U 1 1 53E774EB
P 12750 1800
F 0 "Q3" H 12850 1550 60  0000 R CNN
F 1 "IRFR220N" V 13000 2000 60  0000 R CNN
F 2 "" H 12750 1800 60  0000 C CNN
F 3 "" H 12750 1800 60  0000 C CNN
	1    12750 1800
	1    0    0    -1  
$EndComp
$Comp
L L L3
U 1 1 53E774F1
P 12400 1200
F 0 "L3" V 12350 1200 50  0000 C CNN
F 1 "3.3mH" V 12450 1200 50  0000 C CNN
F 2 "" H 12400 1200 60  0000 C CNN
F 3 "" H 12400 1200 60  0000 C CNN
	1    12400 1200
	0    1    1    0   
$EndComp
$Comp
L MC34063 U11
U 1 1 53E774F9
P 11000 1750
F 0 "U11" H 11150 2100 60  0000 L CNN
F 1 "MC34063" H 11100 1400 60  0000 L CNN
F 2 "" H 11000 1750 60  0000 C CNN
F 3 "" H 11000 1750 60  0000 C CNN
	1    11000 1750
	1    0    0    -1  
$EndComp
$Comp
L GND-RESCUE-zegar #PWR044
U 1 1 53E77FC5
P 12900 2450
F 0 "#PWR044" H 12900 2450 30  0001 C CNN
F 1 "GND" H 12900 2380 30  0001 C CNN
F 2 "" H 12900 2450 60  0000 C CNN
F 3 "" H 12900 2450 60  0000 C CNN
	1    12900 2450
	1    0    0    -1  
$EndComp
$Comp
L GND-RESCUE-zegar #PWR045
U 1 1 53E78418
P 11000 2450
F 0 "#PWR045" H 11000 2450 30  0001 C CNN
F 1 "GND" H 11000 2380 30  0001 C CNN
F 2 "" H 11000 2450 60  0000 C CNN
F 3 "" H 11000 2450 60  0000 C CNN
	1    11000 2450
	1    0    0    -1  
$EndComp
$Comp
L GND-RESCUE-zegar #PWR046
U 1 1 53E78DD9
P 10100 2450
F 0 "#PWR046" H 10100 2450 30  0001 C CNN
F 1 "GND" H 10100 2380 30  0001 C CNN
F 2 "" H 10100 2450 60  0000 C CNN
F 3 "" H 10100 2450 60  0000 C CNN
	1    10100 2450
	1    0    0    -1  
$EndComp
$Comp
L +12V #PWR047
U 1 1 53E794BD
P 11900 1150
F 0 "#PWR047" H 11900 1100 20  0001 C CNN
F 1 "+12V" H 11900 1250 30  0000 C CNN
F 2 "" H 11900 1150 60  0000 C CNN
F 3 "" H 11900 1150 60  0000 C CNN
	1    11900 1150
	1    0    0    -1  
$EndComp
$Comp
L GND-RESCUE-zegar #PWR048
U 1 1 53E7A592
P 13400 2450
F 0 "#PWR048" H 13400 2450 30  0001 C CNN
F 1 "GND" H 13400 2380 30  0001 C CNN
F 2 "" H 13400 2450 60  0000 C CNN
F 3 "" H 13400 2450 60  0000 C CNN
	1    13400 2450
	1    0    0    -1  
$EndComp
Text Label 14200 1200 2    60   ~ 0
HV
$Comp
L GND-RESCUE-zegar #PWR049
U 1 1 53E7A8EC
P 13700 2450
F 0 "#PWR049" H 13700 2450 30  0001 C CNN
F 1 "GND" H 13700 2380 30  0001 C CNN
F 2 "" H 13700 2450 60  0000 C CNN
F 3 "" H 13700 2450 60  0000 C CNN
	1    13700 2450
	1    0    0    -1  
$EndComp
$Comp
L PR R34
U 1 1 53E7B2E3
P 13700 1750
F 0 "R34" V 13620 1750 50  0000 C CNN
F 1 "5k" V 13707 1749 50  0000 C CNN
F 2 "~" H 13700 1750 60  0000 C CNN
F 3 "~" H 13700 1750 60  0000 C CNN
	1    13700 1750
	1    0    0    -1  
$EndComp
$Comp
L GND-RESCUE-zegar #PWR050
U 1 1 53E7BA53
P 13900 2450
F 0 "#PWR050" H 13900 2450 30  0001 C CNN
F 1 "GND" H 13900 2380 30  0001 C CNN
F 2 "" H 13900 2450 60  0000 C CNN
F 3 "" H 13900 2450 60  0000 C CNN
	1    13900 2450
	1    0    0    -1  
$EndComp
Text Label 14550 2150 2    60   ~ 0
SENSE
Text Label 12150 1950 2    60   ~ 0
SENSE
$Comp
L GND-RESCUE-zegar #PWR051
U 1 1 53E7C647
P 9750 2450
F 0 "#PWR051" H 9750 2450 30  0001 C CNN
F 1 "GND" H 9750 2380 30  0001 C CNN
F 2 "" H 9750 2450 60  0000 C CNN
F 3 "" H 9750 2450 60  0000 C CNN
	1    9750 2450
	1    0    0    -1  
$EndComp
$Comp
L +12V #PWR052
U 1 1 53E7C888
P 9750 1900
F 0 "#PWR052" H 9750 1850 20  0001 C CNN
F 1 "+12V" H 9750 2000 30  0000 C CNN
F 2 "" H 9750 1900 60  0000 C CNN
F 3 "" H 9750 1900 60  0000 C CNN
	1    9750 1900
	1    0    0    -1  
$EndComp
$Comp
L 7805-RESCUE-zegar U12
U 1 1 53E7D530
P 7350 1650
F 0 "U12" H 7500 1500 60  0000 C CNN
F 1 "7805" H 7350 1800 80  0000 C CNN
F 2 "~" H 7350 1650 60  0000 C CNN
F 3 "~" H 7350 1650 60  0000 C CNN
	1    7350 1650
	1    0    0    -1  
$EndComp
$Comp
L C-RESCUE-zegar C17
U 1 1 53E7D536
P 6850 1850
F 0 "C17" H 6900 1950 50  0000 L CNN
F 1 "100n" H 6900 1750 50  0000 L CNN
F 2 "" H 6850 1850 60  0000 C CNN
F 3 "" H 6850 1850 60  0000 C CNN
	1    6850 1850
	1    0    0    -1  
$EndComp
$Comp
L CP-RESCUE-zegar C18
U 1 1 53E7D53C
P 7850 1850
F 0 "C18" H 7900 1950 50  0000 L CNN
F 1 "100u" H 7900 1750 50  0000 L CNN
F 2 "" H 7850 1850 60  0000 C CNN
F 3 "" H 7850 1850 60  0000 C CNN
	1    7850 1850
	1    0    0    -1  
$EndComp
$Comp
L C-RESCUE-zegar C19
U 1 1 53E7D542
P 8200 1850
F 0 "C19" H 8250 1950 50  0000 L CNN
F 1 "100n" H 8250 1750 50  0000 L CNN
F 2 "" H 8200 1850 60  0000 C CNN
F 3 "" H 8200 1850 60  0000 C CNN
	1    8200 1850
	1    0    0    -1  
$EndComp
$Comp
L +12V #PWR053
U 1 1 53E7D548
P 6850 1500
F 0 "#PWR053" H 6850 1450 20  0001 C CNN
F 1 "+12V" H 6850 1600 30  0000 C CNN
F 2 "" H 6850 1500 60  0000 C CNN
F 3 "" H 6850 1500 60  0000 C CNN
	1    6850 1500
	1    0    0    -1  
$EndComp
$Comp
L VCC #PWR054
U 1 1 53E7D54E
P 8200 1500
F 0 "#PWR054" H 8200 1600 30  0001 C CNN
F 1 "VCC" H 8200 1600 30  0000 C CNN
F 2 "" H 8200 1500 60  0000 C CNN
F 3 "" H 8200 1500 60  0000 C CNN
	1    8200 1500
	1    0    0    -1  
$EndComp
$Comp
L GND-RESCUE-zegar #PWR055
U 1 1 53E7D554
P 7350 2150
F 0 "#PWR055" H 7350 2150 30  0001 C CNN
F 1 "GND" H 7350 2080 30  0001 C CNN
F 2 "" H 7350 2150 60  0000 C CNN
F 3 "" H 7350 2150 60  0000 C CNN
	1    7350 2150
	1    0    0    -1  
$EndComp
$Comp
L CONN_2 P17
U 1 1 53E7D55A
P 6150 1850
F 0 "P17" V 6100 1850 40  0000 C CNN
F 1 "zasilanie" V 6200 1850 40  0000 C CNN
F 2 "" H 6150 1850 60  0000 C CNN
F 3 "" H 6150 1850 60  0000 C CNN
	1    6150 1850
	-1   0    0    -1  
$EndComp
$Comp
L PNP T15
U 1 1 53E7D863
P 12400 2000
F 0 "T15" H 12400 1800 50  0000 C CNN
F 1 "BC807" V 12600 2000 50  0000 C CNN
F 2 "~" H 12400 2000 60  0000 C CNN
F 3 "~" H 12400 2000 60  0000 C CNN
	1    12400 2000
	1    0    0    -1  
$EndComp
$Comp
L DIODE D11
U 1 1 53E7D87A
P 12350 1800
F 0 "D11" H 12250 1750 40  0000 C CNN
F 1 "1N4148" H 12350 1900 40  0000 C CNN
F 2 "" H 12350 1800 60  0000 C CNN
F 3 "" H 12350 1800 60  0000 C CNN
	1    12350 1800
	1    0    0    -1  
$EndComp
$Comp
L GND-RESCUE-zegar #PWR056
U 1 1 53E7E55D
P 12200 2450
F 0 "#PWR056" H 12200 2450 30  0001 C CNN
F 1 "GND" H 12200 2380 30  0001 C CNN
F 2 "" H 12200 2450 60  0000 C CNN
F 3 "" H 12200 2450 60  0000 C CNN
	1    12200 2450
	1    0    0    -1  
$EndComp
$Comp
L GND-RESCUE-zegar #PWR057
U 1 1 53E7E56A
P 12500 2450
F 0 "#PWR057" H 12500 2450 30  0001 C CNN
F 1 "GND" H 12500 2380 30  0001 C CNN
F 2 "" H 12500 2450 60  0000 C CNN
F 3 "" H 12500 2450 60  0000 C CNN
	1    12500 2450
	1    0    0    -1  
$EndComp
$Comp
L PR R17
U 1 1 53EA0943
P 7850 7300
F 0 "R17" V 7770 7300 50  0000 C CNN
F 1 "47k" V 7857 7299 50  0000 C CNN
F 2 "~" H 7850 7300 60  0000 C CNN
F 3 "~" H 7850 7300 60  0000 C CNN
	1    7850 7300
	-1   0    0    -1  
$EndComp
$Comp
L PR R18
U 1 1 53EA101B
P 9450 7300
F 0 "R18" V 9370 7300 50  0000 C CNN
F 1 "47k" V 9457 7299 50  0000 C CNN
F 2 "~" H 9450 7300 60  0000 C CNN
F 3 "~" H 9450 7300 60  0000 C CNN
	1    9450 7300
	-1   0    0    -1  
$EndComp
$Comp
L PR R19
U 1 1 53EA122C
P 11050 7300
F 0 "R19" V 10970 7300 50  0000 C CNN
F 1 "47k" V 11057 7299 50  0000 C CNN
F 2 "~" H 11050 7300 60  0000 C CNN
F 3 "~" H 11050 7300 60  0000 C CNN
	1    11050 7300
	-1   0    0    -1  
$EndComp
$Comp
L PR R20
U 1 1 53EA1232
P 12650 7300
F 0 "R20" V 12570 7300 50  0000 C CNN
F 1 "47k" V 12657 7299 50  0000 C CNN
F 2 "~" H 12650 7300 60  0000 C CNN
F 3 "~" H 12650 7300 60  0000 C CNN
	1    12650 7300
	-1   0    0    -1  
$EndComp
$Comp
L PR R21
U 1 1 53EA1944
P 13300 7300
F 0 "R21" V 13220 7300 50  0000 C CNN
F 1 "47k" V 13307 7299 50  0000 C CNN
F 2 "~" H 13300 7300 60  0000 C CNN
F 3 "~" H 13300 7300 60  0000 C CNN
	1    13300 7300
	-1   0    0    -1  
$EndComp
$Comp
L PNP T17
U 1 1 53ED4C93
P 6850 3250
F 0 "T17" H 6800 3400 50  0000 C CNN
F 1 "PMBTA92" V 7075 3250 50  0000 C CNN
F 2 "~" H 6850 3250 60  0000 C CNN
F 3 "~" H 6850 3250 60  0000 C CNN
	1    6850 3250
	1    0    0    -1  
$EndComp
$Comp
L NPN T16
U 1 1 53ED4CA2
P 6600 3800
F 0 "T16" H 6500 3925 50  0000 C CNN
F 1 "SMBTA42" V 6825 3800 50  0000 C CNN
F 2 "~" H 6600 3800 60  0000 C CNN
F 3 "~" H 6600 3800 60  0000 C CNN
	1    6600 3800
	1    0    0    -1  
$EndComp
$Comp
L R R30
U 1 1 53ED4CC5
P 6700 3050
F 0 "R30" V 6785 3040 50  0000 C CNN
F 1 "100k" V 6705 3050 50  0000 C CNN
F 2 "~" H 6700 3050 60  0000 C CNN
F 3 "~" H 6700 3050 60  0000 C CNN
	1    6700 3050
	-1   0    0    -1  
$EndComp
$Comp
L R R31
U 1 1 53ED4CD2
P 6700 3450
F 0 "R31" V 6785 3440 50  0000 C CNN
F 1 "470k" V 6705 3450 50  0000 C CNN
F 2 "~" H 6700 3450 60  0000 C CNN
F 3 "~" H 6700 3450 60  0000 C CNN
	1    6700 3450
	-1   0    0    -1  
$EndComp
$Comp
L R R12
U 1 1 53ED55E3
P 6300 3800
F 0 "R12" V 6385 3790 50  0000 C CNN
F 1 "10k" V 6305 3800 50  0000 C CNN
F 2 "~" H 6300 3800 60  0000 C CNN
F 3 "~" H 6300 3800 60  0000 C CNN
	1    6300 3800
	0    1    1    0   
$EndComp
$Comp
L GND-RESCUE-zegar #PWR058
U 1 1 53ED5809
P 6700 4050
F 0 "#PWR058" H 6700 4050 30  0001 C CNN
F 1 "GND" H 6700 3980 30  0001 C CNN
F 2 "" H 6700 4050 60  0000 C CNN
F 3 "" H 6700 4050 60  0000 C CNN
	1    6700 4050
	1    0    0    -1  
$EndComp
Text Label 7100 3550 2    60   ~ 0
A1
Text Label 7100 2850 2    60   ~ 0
HV
Text Label 6000 3800 0    60   ~ 0
A1T
$Comp
L PNP T19
U 1 1 53ED63A3
P 7900 3250
F 0 "T19" H 7850 3400 50  0000 C CNN
F 1 "PMBTA92" V 8125 3250 50  0000 C CNN
F 2 "~" H 7900 3250 60  0000 C CNN
F 3 "~" H 7900 3250 60  0000 C CNN
	1    7900 3250
	1    0    0    -1  
$EndComp
$Comp
L NPN T18
U 1 1 53ED63A9
P 7650 3800
F 0 "T18" H 7550 3925 50  0000 C CNN
F 1 "SMBTA42" V 7875 3800 50  0000 C CNN
F 2 "~" H 7650 3800 60  0000 C CNN
F 3 "~" H 7650 3800 60  0000 C CNN
	1    7650 3800
	1    0    0    -1  
$EndComp
$Comp
L R R32
U 1 1 53ED63AF
P 7750 3050
F 0 "R32" V 7835 3040 50  0000 C CNN
F 1 "100k" V 7755 3050 50  0000 C CNN
F 2 "~" H 7750 3050 60  0000 C CNN
F 3 "~" H 7750 3050 60  0000 C CNN
	1    7750 3050
	-1   0    0    -1  
$EndComp
$Comp
L R R36
U 1 1 53ED63B5
P 7750 3450
F 0 "R36" V 7835 3440 50  0000 C CNN
F 1 "470k" V 7755 3450 50  0000 C CNN
F 2 "~" H 7750 3450 60  0000 C CNN
F 3 "~" H 7750 3450 60  0000 C CNN
	1    7750 3450
	-1   0    0    -1  
$EndComp
$Comp
L R R13
U 1 1 53ED63C2
P 7350 3800
F 0 "R13" V 7435 3790 50  0000 C CNN
F 1 "10k" V 7355 3800 50  0000 C CNN
F 2 "~" H 7350 3800 60  0000 C CNN
F 3 "~" H 7350 3800 60  0000 C CNN
	1    7350 3800
	0    1    1    0   
$EndComp
$Comp
L GND-RESCUE-zegar #PWR059
U 1 1 53ED63C9
P 7750 4050
F 0 "#PWR059" H 7750 4050 30  0001 C CNN
F 1 "GND" H 7750 3980 30  0001 C CNN
F 2 "" H 7750 4050 60  0000 C CNN
F 3 "" H 7750 4050 60  0000 C CNN
	1    7750 4050
	1    0    0    -1  
$EndComp
Text Label 8150 3550 2    60   ~ 0
A2
Text Label 8150 2850 2    60   ~ 0
HV
Text Label 7050 3800 0    60   ~ 0
A2T
$Comp
L PNP T21
U 1 1 53ED63D9
P 8950 3250
F 0 "T21" H 8900 3400 50  0000 C CNN
F 1 "PMBTA92" V 9175 3250 50  0000 C CNN
F 2 "~" H 8950 3250 60  0000 C CNN
F 3 "~" H 8950 3250 60  0000 C CNN
	1    8950 3250
	1    0    0    -1  
$EndComp
$Comp
L NPN T20
U 1 1 53ED63DF
P 8700 3800
F 0 "T20" H 8600 3925 50  0000 C CNN
F 1 "SMBTA42" V 8925 3800 50  0000 C CNN
F 2 "~" H 8700 3800 60  0000 C CNN
F 3 "~" H 8700 3800 60  0000 C CNN
	1    8700 3800
	1    0    0    -1  
$EndComp
$Comp
L R R37
U 1 1 53ED63E5
P 8800 3050
F 0 "R37" V 8885 3040 50  0000 C CNN
F 1 "100k" V 8805 3050 50  0000 C CNN
F 2 "~" H 8800 3050 60  0000 C CNN
F 3 "~" H 8800 3050 60  0000 C CNN
	1    8800 3050
	-1   0    0    -1  
$EndComp
$Comp
L R R38
U 1 1 53ED63EB
P 8800 3450
F 0 "R38" V 8885 3440 50  0000 C CNN
F 1 "470k" V 8805 3450 50  0000 C CNN
F 2 "~" H 8800 3450 60  0000 C CNN
F 3 "~" H 8800 3450 60  0000 C CNN
	1    8800 3450
	-1   0    0    -1  
$EndComp
$Comp
L R R14
U 1 1 53ED63F8
P 8400 3800
F 0 "R14" V 8485 3790 50  0000 C CNN
F 1 "10k" V 8405 3800 50  0000 C CNN
F 2 "~" H 8400 3800 60  0000 C CNN
F 3 "~" H 8400 3800 60  0000 C CNN
	1    8400 3800
	0    1    1    0   
$EndComp
$Comp
L GND-RESCUE-zegar #PWR060
U 1 1 53ED63FF
P 8800 4050
F 0 "#PWR060" H 8800 4050 30  0001 C CNN
F 1 "GND" H 8800 3980 30  0001 C CNN
F 2 "" H 8800 4050 60  0000 C CNN
F 3 "" H 8800 4050 60  0000 C CNN
	1    8800 4050
	1    0    0    -1  
$EndComp
Text Label 9200 3550 2    60   ~ 0
A3
Text Label 9200 2850 2    60   ~ 0
HV
Text Label 8000 3800 0    60   ~ 0
A3T
$Comp
L PNP T23
U 1 1 53ED640D
P 10000 3250
F 0 "T23" H 9950 3400 50  0000 C CNN
F 1 "PMBTA92" V 10225 3250 50  0000 C CNN
F 2 "~" H 10000 3250 60  0000 C CNN
F 3 "~" H 10000 3250 60  0000 C CNN
	1    10000 3250
	1    0    0    -1  
$EndComp
$Comp
L NPN T22
U 1 1 53ED6413
P 9750 3800
F 0 "T22" H 9650 3925 50  0000 C CNN
F 1 "SMBTA42" V 9975 3800 50  0000 C CNN
F 2 "~" H 9750 3800 60  0000 C CNN
F 3 "~" H 9750 3800 60  0000 C CNN
	1    9750 3800
	1    0    0    -1  
$EndComp
$Comp
L R R39
U 1 1 53ED6419
P 9850 3050
F 0 "R39" V 9935 3040 50  0000 C CNN
F 1 "100k" V 9855 3050 50  0000 C CNN
F 2 "~" H 9850 3050 60  0000 C CNN
F 3 "~" H 9850 3050 60  0000 C CNN
	1    9850 3050
	-1   0    0    -1  
$EndComp
$Comp
L R R40
U 1 1 53ED641F
P 9850 3450
F 0 "R40" V 9935 3440 50  0000 C CNN
F 1 "470k" V 9855 3450 50  0000 C CNN
F 2 "~" H 9850 3450 60  0000 C CNN
F 3 "~" H 9850 3450 60  0000 C CNN
	1    9850 3450
	-1   0    0    -1  
$EndComp
$Comp
L R R15
U 1 1 53ED642C
P 9450 3800
F 0 "R15" V 9535 3790 50  0000 C CNN
F 1 "10k" V 9455 3800 50  0000 C CNN
F 2 "~" H 9450 3800 60  0000 C CNN
F 3 "~" H 9450 3800 60  0000 C CNN
	1    9450 3800
	0    1    1    0   
$EndComp
$Comp
L GND-RESCUE-zegar #PWR061
U 1 1 53ED6433
P 9850 4050
F 0 "#PWR061" H 9850 4050 30  0001 C CNN
F 1 "GND" H 9850 3980 30  0001 C CNN
F 2 "" H 9850 4050 60  0000 C CNN
F 3 "" H 9850 4050 60  0000 C CNN
	1    9850 4050
	1    0    0    -1  
$EndComp
Text Label 10250 3550 2    60   ~ 0
A4
Text Label 10250 2850 2    60   ~ 0
HV
Text Label 9050 3800 0    60   ~ 0
A4T
$Comp
L CONN_4 P7
U 1 1 53ED6D0D
P 11150 3900
F 0 "P7" V 11100 3900 50  0000 C CNN
F 1 "anody" V 11200 3900 50  0000 C CNN
F 2 "" H 11150 3900 60  0000 C CNN
F 3 "" H 11150 3900 60  0000 C CNN
	1    11150 3900
	1    0    0    -1  
$EndComp
Text Label 10650 3750 0    60   ~ 0
A1
Text Label 10650 3850 0    60   ~ 0
A2
Text Label 10650 3950 0    60   ~ 0
A3
Text Label 10650 4050 0    60   ~ 0
A4
Text Notes 5900 2700 0    60   ~ 0
sterowanie anodami i separatorem
Text Notes 5900 6300 0    60   ~ 0
pionowa plytka - podstawki do nixie i separatora
$Comp
L JUMPER_SMD0805 JP3
U 1 1 53ED80DB
P 8100 3800
F 0 "JP3" H 8150 3750 30  0000 C CNN
F 1 "JUMPER_SMD0805" H 8100 3700 30  0001 C CNN
F 2 "SM0805" H 8100 3650 30  0001 C CNN
F 3 "~" H 8350 3700 60  0000 C CNN
	1    8100 3800
	1    0    0    -1  
$EndComp
$Comp
L JUMPER_SMD0805 JP4
U 1 1 53ED80EA
P 9150 3800
F 0 "JP4" H 9200 3750 30  0000 C CNN
F 1 "JUMPER_SMD0805" H 9150 3700 30  0001 C CNN
F 2 "SM0805" H 9150 3650 30  0001 C CNN
F 3 "~" H 9400 3700 60  0000 C CNN
	1    9150 3800
	1    0    0    -1  
$EndComp
$Comp
L JUMPER_SMD0805 JP5
U 1 1 53ED96DD
P 10800 3200
F 0 "JP5" H 10850 3150 30  0000 C CNN
F 1 "JUMPER_SMD0805" H 10800 3100 30  0001 C CNN
F 2 "SM0805" H 10800 3050 30  0001 C CNN
F 3 "~" H 11050 3100 60  0000 C CNN
	1    10800 3200
	1    0    0    -1  
$EndComp
$Comp
L R R41
U 1 1 53EDE696
P 14450 1750
F 0 "R41" V 14535 1740 50  0000 C CNN
F 1 "470k" V 14455 1750 50  0000 C CNN
F 2 "~" H 14450 1750 60  0000 C CNN
F 3 "~" H 14450 1750 60  0000 C CNN
	1    14450 1750
	0    -1   -1   0   
$EndComp
Text Label 14900 1750 2    60   ~ 0
HVC0
$Comp
L R R42
U 1 1 53EDEB7C
P 14450 1950
F 0 "R42" V 14535 1940 50  0000 C CNN
F 1 "220k" V 14455 1950 50  0000 C CNN
F 2 "~" H 14450 1950 60  0000 C CNN
F 3 "~" H 14450 1950 60  0000 C CNN
	1    14450 1950
	0    -1   -1   0   
$EndComp
Text Label 14900 1950 2    60   ~ 0
HVC1
Text Label 4550 4900 2    60   ~ 0
HVC0
Text Label 4550 5300 2    60   ~ 0
HVC1
$Comp
L JUMPER_SMD0805 JP7
U 1 1 53EE0C5A
P 14550 3850
F 0 "JP7" H 14600 3800 30  0000 C CNN
F 1 "JUMPER_SMD0805" H 14550 3750 30  0001 C CNN
F 2 "SM0805" H 14550 3700 30  0001 C CNN
F 3 "~" H 14800 3750 60  0000 C CNN
	1    14550 3850
	1    0    0    -1  
$EndComp
Text Notes 8700 1150 0    60   ~ 0
Przy odłączonych HVC1..0, ustawić potencjometr na Uwy=164V.\nPrzybliżone wartości:
Text Notes 4650 4000 0    60   ~ 0
pomiar oświetlenia
Text Notes 4750 4500 0    60   ~ 0
sterowanie anodami
Text Notes 4750 5550 0    60   ~ 0
złącze ISP
Text Notes 4650 4800 0    60   ~ 0
sygnalizator ustawiania
Text Notes 4650 4900 0    60   ~ 0
regulacja napięcia [0]
Text Notes 4650 5200 0    60   ~ 0
przerwanie RTC (1s)
Text Notes 4650 5300 0    60   ~ 0
regulacja napięcia [1]
Text Notes 2150 5200 2    60   ~ 0
brzęczyk
Text Notes 4950 7850 0    60   ~ 0
złącze UART
Text Notes 1650 6300 0    60   ~ 0
układ zegara RTC
Text Notes 5900 950  0    60   ~ 0
zasilanie dla części cyfrowej (5V)
Text Notes 8600 950  0    60   ~ 0
regulowana cyfrowo przetwornica do zasilania lamp
Text Notes 8700 1350 0    60   ~ 0
HVC1\n0\n0\n1\n1
Text Notes 9000 1350 0    60   ~ 0
HVC0\n0\n1\n0\n1
Text Notes 9300 1350 0    60   ~ 0
Uwy\n170V\n163V\n154V\n147V
Text Notes 2550 7850 0    60   ~ 0
sterowanie brzęczykiem
Text Notes 1750 1500 0    400  Italic 80
zegar nixie
Text Notes 2200 1900 0    200  Italic 40
na lampach IN-12
Text Notes 2750 2400 0    150  ~ 30
v.1.1 by mopsiok (2014)
$Comp
L GND-RESCUE-zegar #PWR062
U 1 1 540A6224
P 2350 4350
F 0 "#PWR062" H 2350 4350 30  0001 C CNN
F 1 "GND" H 2350 4280 30  0001 C CNN
F 2 "" H 2350 4350 60  0000 C CNN
F 3 "" H 2350 4350 60  0000 C CNN
	1    2350 4350
	1    0    0    -1  
$EndComp
$Comp
L GND-RESCUE-zegar #PWR063
U 1 1 540A6974
P 2000 4000
F 0 "#PWR063" H 2000 4000 30  0001 C CNN
F 1 "GND" H 2000 3930 30  0001 C CNN
F 2 "" H 2000 4000 60  0000 C CNN
F 3 "" H 2000 4000 60  0000 C CNN
	1    2000 4000
	1    0    0    -1  
$EndComp
$Comp
L CONN_2 N5
U 1 1 548B6A7E
P 13700 7650
F 0 "N5" V 13650 7650 40  0000 C CNN
F 1 "NEON-5" V 13750 7650 40  0000 C CNN
F 2 "" H 13700 7650 60  0000 C CNN
F 3 "" H 13700 7650 60  0000 C CNN
	1    13700 7650
	1    0    0    -1  
$EndComp
$Comp
L CONN_2 N6
U 1 1 548B6A8B
P 13700 8000
F 0 "N6" V 13650 8000 40  0000 C CNN
F 1 "NEON-5" V 13750 8000 40  0000 C CNN
F 2 "" H 13700 8000 60  0000 C CNN
F 3 "" H 13700 8000 60  0000 C CNN
	1    13700 8000
	1    0    0    -1  
$EndComp
Text Notes 11750 8350 0    60   ~ 0
do osadzenia neonówek (N5 i N6) użyć \n2-pinowych podstawek precyzyjnych\n\ndo osadzenia lamp (N1-N4) użyć pinów \nwyciągniętych z gniazda D-sub
$Comp
L NPN T24
U 1 1 54C3AB45
P 4150 9550
F 0 "T24" V 4100 9700 50  0000 C CNN
F 1 "BC848" V 4350 9550 50  0000 C CNN
F 2 "" H 4150 9550 60  0000 C CNN
F 3 "" H 4150 9550 60  0000 C CNN
	1    4150 9550
	0    1    1    0   
$EndComp
$Comp
L R R43
U 1 1 54C3AB4B
P 4150 9300
F 0 "R43" V 4235 9290 50  0000 C CNN
F 1 "10k" V 4155 9300 50  0000 C CNN
F 2 "" H 4150 9300 60  0000 C CNN
F 3 "" H 4150 9300 60  0000 C CNN
	1    4150 9300
	-1   0    0    1   
$EndComp
$Comp
L DIODE D1
U 1 1 54C3AB51
P 3900 9350
F 0 "D1" H 3750 9300 40  0000 C CNN
F 1 "1N4148" H 3900 9450 40  0000 C CNN
F 2 "" H 3900 9350 60  0000 C CNN
F 3 "" H 3900 9350 60  0000 C CNN
	1    3900 9350
	0    -1   -1   0   
$EndComp
$Comp
L CONN_3 P18
U 1 1 54C3BC02
P 5400 9400
F 0 "P18" V 5350 9400 50  0000 C CNN
F 1 "UART PC" V 5450 9400 40  0000 C CNN
F 2 "" H 5400 9400 60  0000 C CNN
F 3 "" H 5400 9400 60  0000 C CNN
	1    5400 9400
	1    0    0    -1  
$EndComp
$Comp
L CONN_2 P2
U 1 1 54C3C2FD
P 2950 9400
F 0 "P2" V 2900 9400 40  0000 C CNN
F 1 "UART AVR" V 3000 9400 40  0000 C CNN
F 2 "" H 2950 9400 60  0000 C CNN
F 3 "" H 2950 9400 60  0000 C CNN
	1    2950 9400
	-1   0    0    -1  
$EndComp
Wire Notes Line
	1650 2550 5800 2550
Wire Notes Line
	5800 950  1650 950 
Wire Notes Line
	1650 6150 5800 6150
Wire Notes Line
	5800 2700 1650 2700
Wire Wire Line
	2350 3300 2400 3300
Connection ~ 2350 3000
Wire Wire Line
	2000 3900 2000 3950
Wire Wire Line
	2000 3250 2000 3300
Connection ~ 2000 3650
Wire Wire Line
	2000 3600 2000 3700
Wire Wire Line
	2400 3650 2000 3650
Connection ~ 2350 4250
Wire Wire Line
	13000 3000 13000 3100
Wire Wire Line
	13000 3650 13000 3750
Wire Wire Line
	12500 3250 12250 3250
Wire Wire Line
	12500 3900 12250 3900
Connection ~ 13000 4800
Wire Wire Line
	13000 4800 13350 4800
Wire Wire Line
	13000 4750 13000 4850
Wire Wire Line
	5200 8400 5200 8450
Wire Wire Line
	5250 8400 5200 8400
Wire Wire Line
	5050 8200 5250 8200
Wire Wire Line
	11550 4050 11350 4050
Wire Wire Line
	11550 3850 11350 3850
Wire Notes Line
	12050 4350 12050 6150
Wire Wire Line
	11350 5700 11550 5700
Wire Wire Line
	11350 5600 11550 5600
Wire Wire Line
	11350 5500 11550 5500
Wire Wire Line
	11550 5400 11350 5400
Wire Wire Line
	11550 4800 11350 4800
Wire Wire Line
	11350 5300 11550 5300
Wire Wire Line
	11350 5200 11550 5200
Wire Wire Line
	11350 5100 11550 5100
Wire Wire Line
	11550 5000 11350 5000
Wire Wire Line
	11550 4900 11350 4900
Wire Notes Line
	4700 3800 4650 3800
Wire Notes Line
	4700 3700 4700 3800
Wire Notes Line
	4650 3700 4700 3700
Wire Notes Line
	4700 3600 4650 3600
Wire Notes Line
	4700 3300 4700 3600
Wire Notes Line
	4650 3300 4700 3300
Wire Wire Line
	7550 5700 7350 5700
Wire Wire Line
	7550 5600 7350 5600
Wire Wire Line
	7550 5500 7350 5500
Wire Wire Line
	7550 5400 7350 5400
Wire Wire Line
	7550 5300 7350 5300
Wire Wire Line
	7550 5200 7350 5200
Wire Wire Line
	7550 5100 7350 5100
Wire Wire Line
	7550 5000 7350 5000
Wire Wire Line
	7550 4900 7350 4900
Wire Wire Line
	7350 4800 7550 4800
Wire Wire Line
	6000 5400 6150 5400
Wire Wire Line
	6000 5300 6150 5300
Wire Wire Line
	6150 5200 6000 5200
Wire Wire Line
	6150 5100 6000 5100
Wire Wire Line
	14150 8150 14350 8150
Wire Wire Line
	14150 8050 14350 8050
Wire Wire Line
	14150 7950 14350 7950
Wire Wire Line
	14350 7850 14150 7850
Wire Wire Line
	14150 8600 14350 8600
Wire Wire Line
	14150 8500 14350 8500
Wire Wire Line
	14150 8400 14350 8400
Wire Wire Line
	14350 8300 14150 8300
Wire Wire Line
	14350 7250 14150 7250
Wire Wire Line
	14150 7750 14350 7750
Wire Wire Line
	14150 7650 14350 7650
Wire Wire Line
	14150 7550 14350 7550
Wire Wire Line
	14350 7450 14150 7450
Wire Wire Line
	14350 7350 14150 7350
Wire Wire Line
	14350 8950 14150 8950
Wire Wire Line
	14350 8750 14150 8750
Wire Wire Line
	12650 7500 12650 7450
Wire Wire Line
	12600 7500 12650 7500
Wire Wire Line
	11050 7500 11050 7450
Wire Wire Line
	11000 7500 11050 7500
Wire Wire Line
	9450 7500 9450 7450
Wire Wire Line
	9400 7500 9450 7500
Wire Wire Line
	7850 7500 7850 7450
Wire Wire Line
	7800 7500 7850 7500
Wire Wire Line
	13300 7450 13300 7550
Wire Wire Line
	11350 3200 11250 3200
Wire Wire Line
	11550 3050 11750 3050
Wire Notes Line
	5900 6150 5900 4350
Wire Wire Line
	2350 3950 2350 4000
Wire Wire Line
	2400 3950 2350 3950
Wire Wire Line
	4550 3600 4300 3600
Wire Wire Line
	4300 3500 4550 3500
Wire Wire Line
	4550 3400 4300 3400
Wire Wire Line
	4300 3300 4550 3300
Wire Wire Line
	4300 3800 4550 3800
Wire Wire Line
	4300 3700 4550 3700
Wire Wire Line
	4300 4000 4550 4000
Wire Wire Line
	4300 4500 4550 4500
Wire Wire Line
	4300 4400 4550 4400
Wire Wire Line
	4300 4300 4550 4300
Wire Wire Line
	4300 4200 4550 4200
Wire Wire Line
	4300 5600 4550 5600
Wire Wire Line
	4300 5500 4550 5500
Wire Wire Line
	4300 5400 4550 5400
Wire Wire Line
	4300 5300 4550 5300
Wire Wire Line
	4300 5200 4550 5200
Wire Wire Line
	4300 5100 4550 5100
Wire Wire Line
	4300 4900 4550 4900
Wire Wire Line
	4300 4800 4550 4800
Wire Wire Line
	4300 4700 4550 4700
Connection ~ 3300 5900
Wire Wire Line
	3300 5900 3300 5950
Wire Wire Line
	3350 5900 3350 5850
Wire Wire Line
	3250 5900 3350 5900
Wire Wire Line
	3250 5850 3250 5900
Connection ~ 3300 3000
Wire Wire Line
	3300 3000 3300 2950
Wire Wire Line
	3250 3000 3250 3050
Wire Wire Line
	2700 3000 3350 3000
Wire Wire Line
	3350 3000 3350 3050
Wire Wire Line
	13150 8100 13350 8100
Connection ~ 11600 9450
Connection ~ 11550 9350
Connection ~ 11500 9250
Connection ~ 11450 9150
Connection ~ 11400 9050
Connection ~ 11350 8950
Connection ~ 11300 8850
Connection ~ 11250 8750
Connection ~ 11200 8650
Connection ~ 10000 9450
Connection ~ 9950 9350
Connection ~ 9900 9250
Connection ~ 9850 9150
Connection ~ 9800 9050
Connection ~ 9750 8950
Connection ~ 9700 8850
Connection ~ 9650 8750
Connection ~ 9600 8650
Connection ~ 10050 8550
Wire Wire Line
	11650 8550 11650 7900
Wire Wire Line
	11200 8650 11200 7000
Wire Wire Line
	11250 8750 11250 7100
Wire Wire Line
	11300 8850 11300 7200
Wire Wire Line
	11350 8950 11350 7300
Wire Wire Line
	11400 9050 11400 7400
Wire Wire Line
	11450 9150 11450 7500
Wire Wire Line
	11500 9250 11500 7600
Wire Wire Line
	11550 9350 11550 7700
Wire Wire Line
	11650 7900 11700 7900
Wire Wire Line
	11200 7000 11700 7000
Wire Wire Line
	11250 7100 11700 7100
Wire Wire Line
	11300 7200 11700 7200
Wire Wire Line
	11350 7300 11700 7300
Wire Wire Line
	11400 7400 11700 7400
Wire Wire Line
	11450 7500 11700 7500
Wire Wire Line
	11500 7600 11700 7600
Wire Wire Line
	11550 7700 11700 7700
Wire Wire Line
	11600 9450 11600 7800
Wire Wire Line
	11600 7800 11700 7800
Wire Wire Line
	10150 5850 10050 5850
Wire Wire Line
	10050 5550 10700 5550
Wire Wire Line
	10150 5250 10050 5250
Wire Wire Line
	10050 4950 10700 4950
Wire Wire Line
	10150 4650 10050 4650
Wire Wire Line
	8400 5850 8300 5850
Wire Wire Line
	8300 5550 8950 5550
Wire Wire Line
	8400 5250 8300 5250
Wire Wire Line
	8300 4950 8950 4950
Wire Wire Line
	8400 4650 8300 4650
Wire Wire Line
	10350 5700 10500 5700
Wire Wire Line
	10900 5400 11050 5400
Wire Wire Line
	10900 4800 11050 4800
Wire Wire Line
	10350 4500 10500 4500
Wire Wire Line
	10350 5100 10500 5100
Wire Wire Line
	9550 5850 9750 5850
Wire Wire Line
	9550 5550 9750 5550
Wire Wire Line
	9550 5250 9750 5250
Wire Wire Line
	9550 4950 9750 4950
Wire Wire Line
	9550 4650 9750 4650
Wire Wire Line
	8600 5700 8750 5700
Wire Wire Line
	9150 5400 9300 5400
Wire Wire Line
	9150 4800 9300 4800
Wire Wire Line
	8600 4500 8750 4500
Wire Wire Line
	8600 5100 8750 5100
Wire Wire Line
	7800 5850 8000 5850
Wire Wire Line
	7800 5550 8000 5550
Wire Wire Line
	7800 5250 8000 5250
Wire Wire Line
	7800 4950 8000 4950
Wire Wire Line
	7800 4650 8000 4650
Connection ~ 8400 9450
Connection ~ 8350 9350
Connection ~ 8300 9250
Connection ~ 8250 9150
Connection ~ 8200 9050
Connection ~ 8150 8950
Connection ~ 8100 8850
Connection ~ 8050 8750
Connection ~ 8000 8650
Connection ~ 8450 8550
Wire Wire Line
	9600 7000 10100 7000
Wire Wire Line
	9600 8650 9600 7000
Wire Wire Line
	9650 7100 10100 7100
Wire Wire Line
	9650 8750 9650 7100
Wire Wire Line
	9700 7200 10100 7200
Wire Wire Line
	9700 8850 9700 7200
Wire Wire Line
	9750 7300 10100 7300
Wire Wire Line
	9750 8950 9750 7300
Wire Wire Line
	9800 7400 10100 7400
Wire Wire Line
	9800 9050 9800 7400
Wire Wire Line
	9850 9150 9850 7500
Wire Wire Line
	9850 7500 10100 7500
Wire Wire Line
	9900 7600 10100 7600
Wire Wire Line
	9900 9250 9900 7600
Wire Wire Line
	9950 7700 10100 7700
Wire Wire Line
	9950 9350 9950 7700
Wire Wire Line
	10000 9450 10000 7800
Wire Wire Line
	10000 7800 10100 7800
Wire Wire Line
	10050 8550 10050 7900
Wire Wire Line
	10050 7900 10100 7900
Wire Wire Line
	6000 9350 11550 9350
Wire Wire Line
	6000 9250 11500 9250
Wire Wire Line
	6000 9150 11450 9150
Wire Wire Line
	6000 9050 11400 9050
Wire Wire Line
	6000 8950 11350 8950
Wire Wire Line
	6000 8850 11300 8850
Wire Wire Line
	6000 8750 11250 8750
Wire Wire Line
	6000 8650 11200 8650
Connection ~ 6800 9450
Wire Wire Line
	6000 9450 11600 9450
Wire Wire Line
	6000 8550 11650 8550
Connection ~ 6400 8650
Wire Wire Line
	8000 7000 8500 7000
Wire Wire Line
	8000 8650 8000 7000
Connection ~ 6450 8750
Wire Wire Line
	8050 7100 8500 7100
Wire Wire Line
	8050 8750 8050 7100
Connection ~ 6500 8850
Wire Wire Line
	8100 7200 8500 7200
Wire Wire Line
	8100 8850 8100 7200
Connection ~ 6550 8950
Wire Wire Line
	8150 7300 8500 7300
Wire Wire Line
	8150 8950 8150 7300
Connection ~ 6600 9050
Wire Wire Line
	8200 7400 8500 7400
Wire Wire Line
	8200 9050 8200 7400
Connection ~ 6650 9150
Wire Wire Line
	8250 7500 8250 9150
Wire Wire Line
	8500 7500 8250 7500
Connection ~ 6700 9250
Wire Wire Line
	8300 7600 8500 7600
Wire Wire Line
	8300 9250 8300 7600
Connection ~ 6750 9350
Wire Wire Line
	8350 7700 8500 7700
Wire Wire Line
	8350 9350 8350 7700
Wire Wire Line
	8400 7800 8400 9450
Wire Wire Line
	8500 7800 8400 7800
Connection ~ 6850 8550
Wire Wire Line
	8450 7900 8450 8550
Wire Wire Line
	8500 7900 8450 7900
Wire Wire Line
	6850 7900 6850 8550
Wire Wire Line
	6400 7000 6400 8650
Wire Wire Line
	6450 7100 6450 8750
Wire Wire Line
	6500 7200 6500 8850
Wire Wire Line
	6550 7300 6550 8950
Wire Wire Line
	6600 7400 6600 9050
Wire Wire Line
	6650 7500 6650 9150
Wire Wire Line
	6700 7600 6700 9250
Wire Wire Line
	6750 7700 6750 9350
Wire Wire Line
	6900 7900 6850 7900
Wire Wire Line
	6900 7000 6400 7000
Wire Wire Line
	6900 7100 6450 7100
Wire Wire Line
	6900 7200 6500 7200
Wire Wire Line
	6900 7300 6550 7300
Wire Wire Line
	6900 7400 6600 7400
Wire Wire Line
	6900 7500 6650 7500
Wire Wire Line
	6900 7600 6700 7600
Wire Wire Line
	6900 7700 6750 7700
Wire Wire Line
	6800 7800 6800 9450
Wire Wire Line
	6900 7800 6800 7800
Wire Wire Line
	12850 5550 13150 5550
Wire Wire Line
	13000 5550 13000 5600
Wire Wire Line
	13000 5800 13000 5900
Wire Wire Line
	13000 5850 13150 5850
Wire Wire Line
	13150 5850 13150 5650
Connection ~ 13000 5850
Connection ~ 13000 5550
Wire Wire Line
	13150 5450 12850 5450
Wire Wire Line
	12550 5550 12500 5550
Wire Wire Line
	12500 5550 12500 5500
Wire Wire Line
	4700 6950 5500 6950
Wire Wire Line
	4700 7100 5500 7100
Wire Wire Line
	4700 7200 5500 7200
Wire Wire Line
	3000 7100 3400 7100
Wire Wire Line
	3300 7100 3300 7200
Wire Wire Line
	3000 7100 3000 7150
Connection ~ 3300 7100
Wire Wire Line
	3300 7450 3300 7400
Wire Wire Line
	5000 6900 5000 7100
Connection ~ 5000 7100
Wire Wire Line
	5200 6900 5200 7200
Connection ~ 5200 7200
Wire Wire Line
	5200 6550 5200 6600
Wire Wire Line
	5000 6500 5000 6600
Wire Wire Line
	3400 7450 3300 7450
Wire Wire Line
	3000 7350 3000 7400
Wire Wire Line
	4750 7500 4750 7450
Wire Wire Line
	4750 7450 4700 7450
Wire Wire Line
	2600 6750 2600 7150
Wire Wire Line
	2500 6750 2600 6750
Connection ~ 2600 7050
Wire Wire Line
	2600 7350 2600 7400
Wire Wire Line
	2300 6750 2250 6750
Wire Wire Line
	2300 7050 2150 7050
Wire Wire Line
	2150 7050 2150 7100
Wire Wire Line
	2150 7300 2150 7400
Wire Wire Line
	2600 7050 2500 7050
Wire Wire Line
	2600 6950 3400 6950
Connection ~ 2600 6950
Wire Wire Line
	5000 6550 5200 6550
Connection ~ 5000 6550
Wire Wire Line
	3400 8250 3400 8350
Wire Wire Line
	2900 8500 2650 8500
Wire Wire Line
	3500 8250 3400 8250
Wire Wire Line
	3500 8150 3400 8150
Wire Wire Line
	4300 4600 4550 4600
Wire Wire Line
	2400 4900 2200 4900
Wire Wire Line
	2400 5200 2200 5200
Wire Wire Line
	14150 3000 13800 3000
Wire Wire Line
	14150 3100 13800 3100
Wire Wire Line
	13800 3200 14150 3200
Wire Wire Line
	14100 3500 14150 3500
Wire Wire Line
	14100 3500 14100 3550
Wire Wire Line
	14550 3950 14800 3950
Wire Wire Line
	14800 4050 14550 4050
Wire Wire Line
	14800 4150 14550 4150
Wire Wire Line
	14600 4250 14550 4250
Wire Wire Line
	14600 4350 14550 4350
Wire Wire Line
	14600 4350 14600 4400
Wire Wire Line
	13000 3000 13100 3000
Wire Wire Line
	13000 3650 13100 3650
Wire Wire Line
	14000 3300 13800 3300
Wire Wire Line
	14000 3400 13900 3400
Wire Wire Line
	4400 8100 4150 8100
Wire Wire Line
	4400 8200 4150 8200
Wire Wire Line
	4150 8300 4400 8300
Wire Wire Line
	4400 8400 4150 8400
Wire Wire Line
	4400 8600 4350 8600
Wire Wire Line
	4350 8600 4350 8650
Wire Wire Line
	4400 8500 4350 8500
Wire Notes Line
	4850 8800 4850 7850
Wire Notes Line
	4050 8800 4050 7850
Wire Wire Line
	11900 1650 11850 1650
Wire Wire Line
	11900 1150 11900 1650
Wire Wire Line
	11900 1550 11850 1550
Wire Wire Line
	10100 1200 12250 1200
Wire Wire Line
	11000 1200 11000 1250
Connection ~ 11900 1550
Wire Wire Line
	10100 1200 10100 1600
Wire Wire Line
	10100 1600 10150 1600
Connection ~ 11000 1200
Wire Wire Line
	12900 2000 12900 2400
Wire Wire Line
	11000 2250 11000 2400
Wire Wire Line
	10150 1900 10100 1900
Wire Wire Line
	10100 1900 10100 2050
Wire Wire Line
	10100 2250 10100 2400
Connection ~ 11900 1200
Wire Wire Line
	12550 1200 13050 1200
Wire Wire Line
	12900 1200 12900 1600
Connection ~ 12900 1200
Wire Wire Line
	13400 1650 13400 1200
Wire Wire Line
	13250 1200 14200 1200
Wire Wire Line
	13400 1850 13400 2400
Connection ~ 13400 1200
Wire Wire Line
	13700 2250 13700 2400
Wire Wire Line
	13700 1200 13700 1250
Connection ~ 13700 1200
Wire Wire Line
	13700 1600 13700 1550
Wire Wire Line
	13700 1900 13700 1950
Wire Wire Line
	13900 2150 13900 2400
Wire Wire Line
	11850 1950 12150 1950
Wire Wire Line
	9750 2250 9750 2400
Wire Wire Line
	9750 1900 9750 2050
Wire Wire Line
	13900 1750 13900 1950
Connection ~ 13900 1750
Wire Wire Line
	6550 1650 7000 1650
Wire Wire Line
	6850 1500 6850 1750
Connection ~ 6850 1650
Wire Wire Line
	7350 2000 7350 2100
Wire Wire Line
	6850 2050 6850 1950
Connection ~ 6850 2050
Wire Wire Line
	8200 1500 8200 1750
Wire Wire Line
	7700 1650 8200 1650
Wire Wire Line
	7850 1750 7850 1650
Connection ~ 7850 1650
Wire Wire Line
	7850 2050 7850 1950
Connection ~ 7350 2050
Wire Wire Line
	8200 2050 8200 1950
Connection ~ 7850 2050
Connection ~ 8200 1650
Wire Wire Line
	6550 2050 8200 2050
Wire Wire Line
	6550 1650 6550 1750
Wire Wire Line
	6550 1750 6500 1750
Wire Wire Line
	6500 1950 6550 1950
Wire Wire Line
	6550 1950 6550 2050
Wire Wire Line
	12500 1850 12500 1800
Wire Wire Line
	12450 1800 12550 1800
Wire Wire Line
	12200 1800 12200 2050
Wire Wire Line
	12200 2000 12300 2000
Connection ~ 12200 2000
Wire Wire Line
	12500 2400 12500 2150
Wire Wire Line
	12200 2350 12200 2400
Connection ~ 12500 1800
Connection ~ 12200 1800
Wire Wire Line
	11850 1800 12250 1800
Wire Wire Line
	7650 7300 7700 7300
Wire Wire Line
	7850 7050 7650 7050
Wire Wire Line
	7650 7050 7650 7300
Wire Wire Line
	9300 7300 9250 7300
Wire Wire Line
	9250 7300 9250 7050
Wire Wire Line
	9250 7050 9450 7050
Wire Wire Line
	11050 7050 10850 7050
Wire Wire Line
	10850 7050 10850 7300
Wire Wire Line
	10850 7300 10900 7300
Wire Wire Line
	12650 7050 12450 7050
Wire Wire Line
	12450 7050 12450 7300
Wire Wire Line
	12450 7300 12500 7300
Wire Wire Line
	13000 7300 13150 7300
Wire Wire Line
	6700 2900 6700 2850
Wire Wire Line
	6700 2850 7100 2850
Wire Wire Line
	6950 2850 6950 3100
Wire Wire Line
	6700 3200 6700 3300
Wire Wire Line
	6750 3250 6700 3250
Connection ~ 6700 3250
Wire Wire Line
	6700 3600 6700 3650
Wire Wire Line
	6450 3800 6500 3800
Wire Wire Line
	6700 3950 6700 4000
Wire Wire Line
	6950 3400 6950 3550
Wire Wire Line
	6950 3550 7100 3550
Connection ~ 6950 2850
Wire Wire Line
	6150 3800 6000 3800
Wire Wire Line
	7750 2900 7750 2850
Wire Wire Line
	7750 2850 8150 2850
Wire Wire Line
	8000 2850 8000 3100
Wire Wire Line
	7750 3200 7750 3300
Wire Wire Line
	7800 3250 7750 3250
Connection ~ 7750 3250
Wire Wire Line
	7750 3600 7750 3650
Wire Wire Line
	7500 3800 7550 3800
Wire Wire Line
	7750 3950 7750 4000
Wire Wire Line
	8000 3400 8000 3550
Wire Wire Line
	8000 3550 8150 3550
Connection ~ 8000 2850
Wire Wire Line
	7200 3800 7050 3800
Wire Wire Line
	8800 2900 8800 2850
Wire Wire Line
	8800 2850 9200 2850
Wire Wire Line
	9050 2850 9050 3100
Wire Wire Line
	8800 3200 8800 3300
Wire Wire Line
	8850 3250 8800 3250
Connection ~ 8800 3250
Wire Wire Line
	8800 3600 8800 3650
Wire Wire Line
	8800 3950 8800 4000
Wire Wire Line
	9050 3400 9050 3550
Wire Wire Line
	9050 3550 9200 3550
Connection ~ 9050 2850
Wire Wire Line
	8100 3800 8000 3800
Wire Wire Line
	9850 2900 9850 2850
Wire Wire Line
	9850 2850 10250 2850
Wire Wire Line
	10100 2850 10100 3100
Wire Wire Line
	9850 3200 9850 3300
Wire Wire Line
	9900 3250 9850 3250
Connection ~ 9850 3250
Wire Wire Line
	9850 3600 9850 3650
Wire Wire Line
	9850 3950 9850 4000
Wire Wire Line
	10100 3400 10100 3550
Wire Wire Line
	10100 3550 10250 3550
Connection ~ 10100 2850
Wire Wire Line
	10800 3750 10650 3750
Wire Wire Line
	10650 3850 10800 3850
Wire Wire Line
	10800 3950 10650 3950
Wire Wire Line
	10650 4050 10800 4050
Wire Notes Line
	12050 4200 12050 2700
Wire Notes Line
	5900 2700 5900 4200
Wire Notes Line
	5900 6300 5900 9850
Wire Notes Line
	5900 6300 14950 6300
Wire Notes Line
	14950 6300 14950 9850
Wire Notes Line
	14950 9850 5900 9850
Wire Wire Line
	8600 3800 8550 3800
Wire Wire Line
	9650 3800 9600 3800
Wire Wire Line
	9150 3800 9050 3800
Wire Wire Line
	10800 3200 10650 3200
Wire Wire Line
	3400 8150 3400 8050
Wire Wire Line
	14700 3850 14800 3850
Wire Notes Line
	4700 4600 4650 4600
Wire Notes Line
	4700 4300 4700 4600
Wire Notes Line
	4650 4300 4700 4300
Wire Notes Line
	4650 5400 4700 5400
Wire Notes Line
	4700 5400 4700 5600
Wire Notes Line
	4700 5600 4650 5600
Wire Notes Line
	12150 2700 14950 2700
Wire Notes Line
	14950 6150 12150 6150
Wire Notes Line
	1650 7700 5800 7700
Wire Notes Line
	1650 7700 1650 6300
Wire Notes Line
	1650 6300 5800 6300
Wire Notes Line
	5800 6300 5800 7700
Wire Notes Line
	5900 2550 5900 950 
Wire Notes Line
	14950 950  14950 2550
Wire Notes Line
	8500 950  8500 2550
Wire Notes Line
	8600 2550 8600 950 
Wire Notes Line
	8600 950  14950 950 
Wire Notes Line
	14950 2550 8600 2550
Wire Wire Line
	13850 1750 14300 1750
Wire Wire Line
	14300 1950 14250 1950
Wire Wire Line
	14250 1750 14250 2150
Connection ~ 14250 1750
Wire Wire Line
	14600 1750 14900 1750
Wire Wire Line
	14600 1950 14900 1950
Wire Wire Line
	14250 2150 14550 2150
Connection ~ 14250 1950
Wire Notes Line
	2550 7850 2550 8800
Wire Notes Line
	3950 8800 3950 7850
Wire Notes Line
	12050 2700 5900 2700
Wire Notes Line
	5900 4200 12050 4200
Wire Notes Line
	5900 4350 12050 4350
Wire Notes Line
	12050 6150 5900 6150
Wire Notes Line
	14950 2700 14950 6150
Wire Notes Line
	12150 6150 12150 2700
Wire Notes Line
	5900 950  8500 950 
Wire Notes Line
	8500 2550 5900 2550
Wire Notes Line
	5800 2550 5800 950 
Wire Notes Line
	1650 950  1650 2550
Wire Notes Line
	5800 6150 5800 2700
Wire Notes Line
	1650 2700 1650 6150
Connection ~ 3250 3000
Wire Wire Line
	2150 3000 2400 3000
Wire Wire Line
	2350 3000 2350 3300
Wire Wire Line
	2400 4250 2350 4250
Wire Wire Line
	2350 4200 2350 4300
Wire Wire Line
	13350 7750 13300 7750
Wire Wire Line
	13300 7750 13300 7900
Wire Wire Line
	13300 7900 13350 7900
Wire Wire Line
	13300 7550 13350 7550
Wire Wire Line
	4150 9100 4150 9150
Connection ~ 4150 9100
Wire Notes Line
	4950 7850 4950 8800
Wire Notes Line
	4050 7850 4850 7850
Wire Notes Line
	4050 8800 4850 8800
Wire Wire Line
	4300 9650 4550 9650
Wire Notes Line
	5800 7850 5800 8800
Wire Notes Line
	3950 7850 2550 7850
Wire Notes Line
	2550 8800 3950 8800
Wire Notes Line
	5800 7850 4950 7850
Wire Notes Line
	5800 8800 4950 8800
Wire Wire Line
	3900 9100 4550 9100
Text Label 4550 9650 2    60   ~ 0
RXPC
Text Label 4550 9100 2    60   ~ 0
TXPC
Wire Wire Line
	3900 9100 3900 9250
Wire Wire Line
	3900 9450 3900 9650
Wire Wire Line
	3700 9650 4000 9650
Connection ~ 3900 9650
Text Label 3700 9650 0    60   ~ 0
RXD
Wire Wire Line
	5050 9300 4800 9300
Text Label 4800 9300 0    60   ~ 0
TXPC
Wire Wire Line
	5050 9400 4800 9400
Text Label 4800 9400 0    60   ~ 0
RXPC
Wire Wire Line
	5050 9500 5000 9500
Wire Wire Line
	5000 9500 5000 9550
Wire Wire Line
	3300 9500 3350 9500
Wire Wire Line
	3350 9500 3350 9550
Wire Wire Line
	3300 9300 3500 9300
Text Label 3500 9300 2    60   ~ 0
RXD
$Comp
L GND-RESCUE-zegar #PWR064
U 1 1 54C46E31
P 3350 9600
F 0 "#PWR064" H 3350 9600 30  0001 C CNN
F 1 "GND" H 3350 9530 30  0001 C CNN
F 2 "" H 3350 9600 60  0000 C CNN
F 3 "" H 3350 9600 60  0000 C CNN
	1    3350 9600
	1    0    0    -1  
$EndComp
$Comp
L GND-RESCUE-zegar #PWR065
U 1 1 54C46E37
P 5000 9600
F 0 "#PWR065" H 5000 9600 30  0001 C CNN
F 1 "GND" H 5000 9530 30  0001 C CNN
F 2 "" H 5000 9600 60  0000 C CNN
F 3 "" H 5000 9600 60  0000 C CNN
	1    5000 9600
	1    0    0    -1  
$EndComp
Wire Notes Line
	2550 9850 5800 9850
Wire Notes Line
	2550 9850 2550 8950
Wire Notes Line
	2550 8950 5800 8950
Wire Notes Line
	5800 8950 5800 9850
Text Notes 2550 8950 0    60   ~ 0
zewnętrzna przejściówka dla bootloadera (single wire UART)
Text Notes 2550 9850 0    60   ~ 0
źródło:\nhttp://nerdralph.blogspot.ca/2014/01/avr-half-duplex-software-uart.html
$Comp
L C-RESCUE-zegar C6
U 1 1 54C43D11
P 13200 5000
F 0 "C6" H 13250 4900 50  0000 L CNN
F 1 "100n" V 13350 4950 50  0000 L CNN
F 2 "" H 13200 5000 60  0000 C CNN
F 3 "" H 13200 5000 60  0000 C CNN
	1    13200 5000
	1    0    0    -1  
$EndComp
Connection ~ 13200 4800
Wire Wire Line
	13200 5100 13200 5150
$Comp
L GND-RESCUE-zegar #PWR066
U 1 1 54C43F88
P 13200 5200
F 0 "#PWR066" H 13200 5200 30  0001 C CNN
F 1 "GND" H 13200 5130 30  0001 C CNN
F 2 "" H 13200 5200 60  0000 C CNN
F 3 "" H 13200 5200 60  0000 C CNN
	1    13200 5200
	1    0    0    -1  
$EndComp
Wire Wire Line
	13200 4900 13200 4800
Text Notes 1750 6450 0    60   ~ 0
wartość kondensatora C4 dobrać doświadczalnie
$EndSCHEMATC
