EESchema Schematic File Version 2
LIBS:nixeclock-rescue
LIBS:power
LIBS:device
LIBS:transistors
LIBS:linear
LIBS:regul
LIBS:74xx
LIBS:cmos4000
LIBS:adc-dac
LIBS:memory
LIBS:xilinx
LIBS:microcontrollers
LIBS:dsp
LIBS:microchip
LIBS:analog_switches
LIBS:motorola
LIBS:texas
LIBS:intel
LIBS:audio
LIBS:interface
LIBS:digital-audio
LIBS:philips
LIBS:display
LIBS:cypress
LIBS:siliconi
LIBS:opto
LIBS:atmel
LIBS:contrib
LIBS:valves
LIBS:Connectors
LIBS:74xgxx
LIBS:ac-dc
LIBS:actel
LIBS:Altera
LIBS:analog_devices
LIBS:brooktre
LIBS:cr2023
LIBS:conn
LIBS:mopsiok_nixie
LIBS:trafoTME
LIBS:nixeclock-cache
EELAYER 25 0
EELAYER END
$Descr A3 16535 11693
encoding utf-8
Sheet 1 1
Title ""
Date ""
Rev ""
Comp ""
Comment1 ""
Comment2 ""
Comment3 ""
Comment4 ""
$EndDescr
$Comp
L ATMEGA168PA-A IC1
U 1 1 5737025A
P 3500 3250
F 0 "IC1" H 2750 4500 40  0000 L BNN
F 1 "ATMEGA168PA-A" H 3900 1850 40  0000 L BNN
F 2 "Housings_QFP:TQFP-32_7x7mm_Pitch0.8mm" H 3500 3250 30  0000 C CIN
F 3 "" H 3500 3250 60  0000 C CNN
	1    3500 3250
	1    0    0    -1  
$EndComp
$Comp
L GND #PWR01
U 1 1 5737030E
P 5400 1850
F 0 "#PWR01" H 5400 1600 50  0001 C CNN
F 1 "GND" H 5400 1700 50  0000 C CNN
F 2 "" H 5400 1850 60  0000 C CNN
F 3 "" H 5400 1850 60  0000 C CNN
	1    5400 1850
	1    0    0    -1  
$EndComp
$Comp
L GND #PWR02
U 1 1 573703B7
P 2375 4600
F 0 "#PWR02" H 2375 4350 50  0001 C CNN
F 1 "GND" H 2375 4450 50  0000 C CNN
F 2 "" H 2375 4600 60  0000 C CNN
F 3 "" H 2375 4600 60  0000 C CNN
	1    2375 4600
	1    0    0    -1  
$EndComp
$Comp
L C_Small C3
U 1 1 5737053D
P 2350 2875
F 0 "C3" H 2360 2945 50  0000 L CNN
F 1 "100nF" H 2360 2795 50  0000 L CNN
F 2 "Capacitors_SMD:C_0805_HandSoldering" H 2350 2875 60  0001 C CNN
F 3 "" H 2350 2875 60  0000 C CNN
	1    2350 2875
	1    0    0    -1  
$EndComp
$Comp
L GND #PWR03
U 1 1 5737060B
P 2350 3050
F 0 "#PWR03" H 2350 2800 50  0001 C CNN
F 1 "GND" H 2350 2900 50  0000 C CNN
F 2 "" H 2350 3050 60  0000 C CNN
F 3 "" H 2350 3050 60  0000 C CNN
	1    2350 3050
	1    0    0    -1  
$EndComp
$Comp
L INDUCTOR_SMALL L1
U 1 1 5737078D
P 2075 2175
F 0 "L1" H 2075 2275 50  0000 C CNN
F 1 "10uH" H 2075 2125 50  0000 C CNN
F 2 "SMD_Packages:SMD-1210_Pol" H 2075 2175 60  0001 C CNN
F 3 "" H 2075 2175 60  0000 C CNN
	1    2075 2175
	0    1    1    0   
$EndComp
$Comp
L C_Small C1
U 1 1 57370858
P 2075 2625
F 0 "C1" H 2085 2695 50  0000 L CNN
F 1 "100nF" H 2085 2545 50  0000 L CNN
F 2 "Capacitors_SMD:C_0805_HandSoldering" H 2075 2625 60  0001 C CNN
F 3 "" H 2075 2625 60  0000 C CNN
	1    2075 2625
	1    0    0    -1  
$EndComp
$Comp
L +5VD #PWR04
U 1 1 573709B2
P 2275 1675
F 0 "#PWR04" H 2275 1525 50  0001 C CNN
F 1 "+5VD" H 2275 1815 50  0000 C CNN
F 2 "" H 2275 1675 60  0000 C CNN
F 3 "" H 2275 1675 60  0000 C CNN
	1    2275 1675
	1    0    0    -1  
$EndComp
$Comp
L CONN_01X07 P4
U 1 1 57370B29
P 6850 3500
F 0 "P4" H 6850 3900 50  0000 C CNN
F 1 "CONN_01X07" V 6950 3500 50  0000 C CNN
F 2 "Socket_Strips:Socket_Strip_Straight_1x07" H 6850 3500 60  0001 C CNN
F 3 "" H 6850 3500 60  0000 C CNN
	1    6850 3500
	1    0    0    -1  
$EndComp
$Comp
L +5VD #PWR05
U 1 1 57370DBA
P 6450 2375
F 0 "#PWR05" H 6450 2225 50  0001 C CNN
F 1 "+5VD" H 6450 2515 50  0000 C CNN
F 2 "" H 6450 2375 60  0000 C CNN
F 3 "" H 6450 2375 60  0000 C CNN
	1    6450 2375
	1    0    0    -1  
$EndComp
$Comp
L C_Small C4
U 1 1 5737101F
P 5925 2925
F 0 "C4" H 5935 2995 50  0000 L CNN
F 1 "100nF" H 5935 2845 50  0000 L CNN
F 2 "Capacitors_SMD:C_0805_HandSoldering" H 5925 2925 60  0001 C CNN
F 3 "" H 5925 2925 60  0000 C CNN
	1    5925 2925
	1    0    0    -1  
$EndComp
$Comp
L GND #PWR06
U 1 1 57371335
P 5925 3100
F 0 "#PWR06" H 5925 2850 50  0001 C CNN
F 1 "GND" H 5925 2950 50  0000 C CNN
F 2 "" H 5925 3100 60  0000 C CNN
F 3 "" H 5925 3100 60  0000 C CNN
	1    5925 3100
	1    0    0    -1  
$EndComp
Text Label 6600 3600 2    60   ~ 0
SDA
Text Label 6600 3700 2    60   ~ 0
SCL
$Comp
L BATTERY_CR2032 BT1
U 1 1 57370EB6
P 6575 4350
F 0 "BT1" H 6575 4550 50  0000 C CNN
F 1 "BATTERY_CR2032" H 6575 4160 50  0000 C CNN
F 2 "CR2032:BATT_CR2032_TE" H 6575 4350 60  0001 C CNN
F 3 "" H 6575 4350 60  0000 C CNN
	1    6575 4350
	0    1    1    0   
$EndComp
$Comp
L GND #PWR07
U 1 1 57371560
P 6575 4725
F 0 "#PWR07" H 6575 4475 50  0001 C CNN
F 1 "GND" H 6575 4575 50  0000 C CNN
F 2 "" H 6575 4725 60  0000 C CNN
F 3 "" H 6575 4725 60  0000 C CNN
	1    6575 4725
	1    0    0    -1  
$EndComp
$Comp
L R_Small R6
U 1 1 57371ABB
P 4800 3600
F 0 "R6" H 4830 3620 50  0000 L CNN
F 1 "10k" H 4830 3560 50  0000 L CNN
F 2 "Resistors_SMD:R_0805_HandSoldering" H 4800 3600 60  0001 C CNN
F 3 "" H 4800 3600 60  0000 C CNN
	1    4800 3600
	0    1    1    0   
$EndComp
$Comp
L +5VD #PWR08
U 1 1 57371BA4
P 5025 3600
F 0 "#PWR08" H 5025 3450 50  0001 C CNN
F 1 "+5VD" H 5025 3740 50  0000 C CNN
F 2 "" H 5025 3600 60  0000 C CNN
F 3 "" H 5025 3600 60  0000 C CNN
	1    5025 3600
	0    1    1    0   
$EndComp
$Comp
L CONN_01X06 P1
U 1 1 57371DA6
P 5650 1550
F 0 "P1" H 5650 1900 50  0000 C CNN
F 1 "CONN_01X06" V 5750 1550 50  0000 C CNN
F 2 "Socket_Strips:Socket_Strip_Straight_1x06" H 5650 1550 60  0001 C CNN
F 3 "" H 5650 1550 60  0000 C CNN
	1    5650 1550
	0    -1   -1   0   
$EndComp
Text Label 5500 1900 1    60   ~ 0
+5VD
Text Label 5900 1900 1    60   ~ 0
RST
Text Label 4575 3600 0    60   ~ 0
RST
Text Label 2275 1825 0    60   ~ 0
+5VD
Text Label 6400 3400 0    60   ~ 0
INT
Text Label 4575 2250 0    60   ~ 0
INT
$Comp
L GND #PWR09
U 1 1 573732B6
P 6200 925
F 0 "#PWR09" H 6200 675 50  0001 C CNN
F 1 "GND" H 6200 775 50  0000 C CNN
F 2 "" H 6200 925 60  0000 C CNN
F 3 "" H 6200 925 60  0000 C CNN
	1    6200 925 
	1    0    0    -1  
$EndComp
$Comp
L PWR_FLAG #FLG010
U 1 1 573732DC
P 6200 775
F 0 "#FLG010" H 6200 870 50  0001 C CNN
F 1 "PWR_FLAG" H 6200 955 50  0000 C CNN
F 2 "" H 6200 775 60  0000 C CNN
F 3 "" H 6200 775 60  0000 C CNN
	1    6200 775 
	1    0    0    -1  
$EndComp
Text Label 4725 3000 0    60   ~ 0
KB
Text Label 4725 3100 0    60   ~ 0
KC
Text Label 4725 3200 0    60   ~ 0
KD
Text Label 4725 3300 0    60   ~ 0
KA
Text Label 4500 3750 0    60   ~ 0
SEPT
Text Label 5500 2150 2    60   ~ 0
HVC0
Text Label 4725 2350 0    60   ~ 0
HVC1
Text Label 4750 3850 0    60   ~ 0
A1T
Text Label 4750 3950 0    60   ~ 0
A2T
Text Label 4750 4050 0    60   ~ 0
A3T
Text Label 4750 4150 0    60   ~ 0
A4T
Text Label 5350 4050 0    60   ~ 0
SETUP
Text Label 5350 4150 0    60   ~ 0
SHOW_MOD
Text Label 5350 4250 0    60   ~ 0
INCREMENT
Text Label 5350 4350 0    60   ~ 0
DECREMENT
Text Label 5525 3825 0    60   ~ 0
SETUP_LED_ACTIVE
$Comp
L CONN_01X05 P2
U 1 1 573756D4
P 6100 4150
F 0 "P2" H 6100 4450 50  0000 C CNN
F 1 "CONN_01X05" V 6200 4150 50  0000 C CNN
F 2 "Socket_Strips:Socket_Strip_Straight_1x05" H 6100 4150 60  0001 C CNN
F 3 "" H 6100 4150 60  0000 C CNN
	1    6100 4150
	1    0    0    -1  
$EndComp
$Comp
L R_Small R10
U 1 1 573758AF
P 5750 3950
F 0 "R10" H 5780 3970 50  0000 L CNN
F 1 "1k" H 5780 3910 50  0000 L CNN
F 2 "Resistors_SMD:R_0805_HandSoldering" H 5750 3950 60  0001 C CNN
F 3 "" H 5750 3950 60  0000 C CNN
	1    5750 3950
	0    -1   -1   0   
$EndComp
$Comp
L GND #PWR011
U 1 1 5737663E
P 8225 2550
F 0 "#PWR011" H 8225 2300 50  0001 C CNN
F 1 "GND" H 8225 2400 50  0000 C CNN
F 2 "" H 8225 2550 60  0000 C CNN
F 3 "" H 8225 2550 60  0000 C CNN
	1    8225 2550
	1    0    0    -1  
$EndComp
$Comp
L C_Small C5
U 1 1 573766D9
P 9550 1000
F 0 "C5" H 9560 1070 50  0000 L CNN
F 1 "100nF" H 9560 920 50  0000 L CNN
F 2 "Capacitors_SMD:C_0805_HandSoldering" H 9550 1000 60  0001 C CNN
F 3 "" H 9550 1000 60  0000 C CNN
	1    9550 1000
	1    0    0    -1  
$EndComp
$Comp
L CP_Small C7
U 1 1 5737671C
P 9925 1000
F 0 "C7" H 9935 1070 50  0000 L CNN
F 1 "100uF" H 9935 920 50  0000 L CNN
F 2 "Capacitors_SMD:c_elec_6.3x5.3" H 9925 1000 60  0001 C CNN
F 3 "" H 9925 1000 60  0000 C CNN
	1    9925 1000
	1    0    0    -1  
$EndComp
$Comp
L GND #PWR012
U 1 1 5737696B
P 9750 1375
F 0 "#PWR012" H 9750 1125 50  0001 C CNN
F 1 "GND" H 9750 1225 50  0000 C CNN
F 2 "" H 9750 1375 60  0000 C CNN
F 3 "" H 9750 1375 60  0000 C CNN
	1    9750 1375
	1    0    0    -1  
$EndComp
$Comp
L CP_Small C10
U 1 1 57376C37
P 11525 975
F 0 "C10" H 11535 1045 50  0000 L CNN
F 1 "100uF" H 11535 895 50  0000 L CNN
F 2 "Capacitors_SMD:c_elec_6.3x5.3" H 11525 975 60  0001 C CNN
F 3 "" H 11525 975 60  0000 C CNN
	1    11525 975 
	1    0    0    -1  
$EndComp
$Comp
L +12VA #PWR013
U 1 1 573770AF
P 11875 700
F 0 "#PWR013" H 11875 550 50  0001 C CNN
F 1 "+12VA" H 11875 840 50  0000 C CNN
F 2 "" H 11875 700 60  0000 C CNN
F 3 "" H 11875 700 60  0000 C CNN
	1    11875 700 
	1    0    0    -1  
$EndComp
$Comp
L MC34063 U2
U 1 1 573770E7
P 10575 2525
F 0 "U2" H 10725 2875 60  0000 L CNN
F 1 "MC34063" H 10675 2175 60  0000 L CNN
F 2 "SMD_Packages:SOIC-8-N" H 10575 2525 60  0001 C CNN
F 3 "" H 10575 2525 60  0000 C CNN
	1    10575 2525
	1    0    0    -1  
$EndComp
$Comp
L C_Small C6
U 1 1 57377868
P 9725 2925
F 0 "C6" H 9735 2995 50  0000 L CNN
F 1 "1nF" H 9735 2845 50  0000 L CNN
F 2 "Capacitors_SMD:C_0805_HandSoldering" H 9725 2925 60  0001 C CNN
F 3 "" H 9725 2925 60  0000 C CNN
	1    9725 2925
	1    0    0    -1  
$EndComp
$Comp
L GND #PWR014
U 1 1 573779F4
P 9725 3150
F 0 "#PWR014" H 9725 2900 50  0001 C CNN
F 1 "GND" H 9725 3000 50  0000 C CNN
F 2 "" H 9725 3150 60  0000 C CNN
F 3 "" H 9725 3150 60  0000 C CNN
	1    9725 3150
	1    0    0    -1  
$EndComp
$Comp
L CP_Small C8
U 1 1 57377D09
P 10975 1900
F 0 "C8" H 10985 1970 50  0000 L CNN
F 1 "100uF" H 10985 1820 50  0000 L CNN
F 2 "Capacitors_SMD:c_elec_6.3x5.3" H 10975 1900 60  0001 C CNN
F 3 "" H 10975 1900 60  0000 C CNN
	1    10975 1900
	1    0    0    -1  
$EndComp
$Comp
L GND #PWR015
U 1 1 57377EEE
P 10975 2025
F 0 "#PWR015" H 10975 1775 50  0001 C CNN
F 1 "GND" H 10975 1875 50  0000 C CNN
F 2 "" H 10975 2025 60  0000 C CNN
F 3 "" H 10975 2025 60  0000 C CNN
	1    10975 2025
	1    0    0    -1  
$EndComp
Text Label 11525 2725 0    60   ~ 0
SENS
$Comp
L L_Small L2
U 1 1 573782A5
P 11800 1750
F 0 "L2" H 11830 1790 50  0000 L CNN
F 1 "3,3mH" H 11830 1710 50  0000 L CNN
F 2 "Choke_Radial_ThroughHole:Choke_Radial_27mm_2,8mm-Drills_CD_Bobin_Type_No1410311" H 11800 1750 60  0001 C CNN
F 3 "" H 11800 1750 60  0000 C CNN
	1    11800 1750
	0    -1   -1   0   
$EndComp
$Comp
L D_Schottky_Small D2
U 1 1 5737C78F
P 12100 2575
F 0 "D2" H 12050 2655 50  0000 L CNN
F 1 "1n4148" H 11820 2495 50  0000 L CNN
F 2 "Diodes_SMD:MiniMELF_Handsoldering" V 12100 2575 60  0001 C CNN
F 3 "" V 12100 2575 60  0000 C CNN
	1    12100 2575
	-1   0    0    1   
$EndComp
$Comp
L BC807-40 Q16
U 1 1 5737C8B1
P 12200 2825
F 0 "Q16" H 12400 2900 50  0000 L CNN
F 1 "BC807-40" H 12400 2825 50  0000 L CNN
F 2 "TO_SOT_Packages_SMD:SOT-23" H 12400 2750 50  0000 L CIN
F 3 "" H 12200 2825 50  0000 L CNN
	1    12200 2825
	1    0    0    1   
$EndComp
$Comp
L R_Small R17
U 1 1 5737CBCC
P 11950 2975
F 0 "R17" H 11980 2995 50  0000 L CNN
F 1 "10k" H 11980 2935 50  0000 L CNN
F 2 "Resistors_SMD:R_0805_HandSoldering" H 11950 2975 60  0001 C CNN
F 3 "" H 11950 2975 60  0000 C CNN
	1    11950 2975
	1    0    0    -1  
$EndComp
$Comp
L GND #PWR016
U 1 1 5737CE2E
P 12125 3200
F 0 "#PWR016" H 12125 2950 50  0001 C CNN
F 1 "GND" H 12125 3050 50  0000 C CNN
F 2 "" H 12125 3200 60  0000 C CNN
F 3 "" H 12125 3200 60  0000 C CNN
	1    12125 3200
	1    0    0    -1  
$EndComp
$Comp
L Q_NMOS_GDS Q18
U 1 1 5737CE74
P 12850 2575
F 0 "Q18" H 13150 2625 50  0000 R CNN
F 1 "Q_NMOS_GDS" H 13500 2525 50  0000 R CNN
F 2 "misc:DPAK" H 13050 2675 29  0000 C CNN
F 3 "" H 12850 2575 60  0000 C CNN
	1    12850 2575
	1    0    0    -1  
$EndComp
$Comp
L BC807-40 Q19
U 1 1 5737D2F7
P 13300 1950
F 0 "Q19" H 13500 2025 50  0000 L CNN
F 1 "BAS23DIODA" H 13500 1950 50  0000 L CNN
F 2 "TO_SOT_Packages_SMD:SOT-23" H 13500 1875 50  0000 L CIN
F 3 "" H 13300 1950 50  0000 L CNN
	1    13300 1950
	1    0    0    -1  
$EndComp
$Comp
L CP_Small C13
U 1 1 5737DDEB
P 14125 1925
F 0 "C13" H 14135 1995 50  0000 L CNN
F 1 "4.7uF" H 14135 1845 50  0000 L CNN
F 2 "Capacitors_ThroughHole:C_Radial_D8_L11.5_P3.5" H 14125 1925 60  0001 C CNN
F 3 "" H 14125 1925 60  0000 C CNN
	1    14125 1925
	1    0    0    -1  
$EndComp
$Comp
L GND #PWR017
U 1 1 5737DFDA
P 14125 2450
F 0 "#PWR017" H 14125 2200 50  0001 C CNN
F 1 "GND" H 14125 2300 50  0000 C CNN
F 2 "" H 14125 2450 60  0000 C CNN
F 3 "" H 14125 2450 60  0000 C CNN
	1    14125 2450
	1    0    0    -1  
$EndComp
$Comp
L R_Small R22
U 1 1 5737E026
P 14600 1850
F 0 "R22" H 14630 1870 50  0000 L CNN
F 1 "680k" H 14630 1810 50  0000 L CNN
F 2 "Resistors_SMD:R_0805_HandSoldering" H 14600 1850 60  0001 C CNN
F 3 "" H 14600 1850 60  0000 C CNN
	1    14600 1850
	1    0    0    -1  
$EndComp
$Comp
L R_Small R23
U 1 1 5737E0C8
P 14600 2650
F 0 "R23" H 14630 2670 50  0000 L CNN
F 1 "4k7" H 14630 2610 50  0000 L CNN
F 2 "Resistors_SMD:R_0805_HandSoldering" H 14600 2650 60  0001 C CNN
F 3 "" H 14600 2650 60  0000 C CNN
	1    14600 2650
	1    0    0    -1  
$EndComp
$Comp
L POT RV4
U 1 1 5737E1C7
P 14600 2250
F 0 "RV4" H 14600 2150 50  0000 C CNN
F 1 "5k" H 14600 2250 50  0000 C CNN
F 2 "Potentiometers:Potentiometer_Triwood_RM-065" H 14600 2250 60  0001 C CNN
F 3 "" H 14600 2250 60  0000 C CNN
	1    14600 2250
	0    1    1    0   
$EndComp
$Comp
L GND #PWR018
U 1 1 5737E9F3
P 14600 2875
F 0 "#PWR018" H 14600 2625 50  0001 C CNN
F 1 "GND" H 14600 2725 50  0000 C CNN
F 2 "" H 14600 2875 60  0000 C CNN
F 3 "" H 14600 2875 60  0000 C CNN
	1    14600 2875
	1    0    0    -1  
$EndComp
Text Label 15050 1750 2    60   ~ 0
HVOUT
Text Label 15025 2475 0    60   ~ 0
SENS
$Comp
L R_Small R25
U 1 1 5737F76B
P 15125 2025
F 0 "R25" H 14950 1900 50  0000 L CNN
F 1 "470k" V 15050 1950 50  0000 L CNN
F 2 "Resistors_SMD:R_0805_HandSoldering" H 15125 2025 60  0001 C CNN
F 3 "" H 15125 2025 60  0000 C CNN
	1    15125 2025
	1    0    0    -1  
$EndComp
$Comp
L R_Small R26
U 1 1 5737F9B8
P 15225 2025
F 0 "R26" H 15350 1900 50  0000 L CNN
F 1 "220k" V 15375 1950 50  0000 L CNN
F 2 "Resistors_SMD:R_0805_HandSoldering" H 15225 2025 60  0001 C CNN
F 3 "" H 15225 2025 60  0000 C CNN
	1    15225 2025
	1    0    0    -1  
$EndComp
Text Label 15300 1850 0    60   ~ 0
HVC0
Text Label 15300 1925 0    60   ~ 0
HVC1
$Comp
L C_Small C16
U 1 1 57380C89
P 14850 2525
F 0 "C16" H 14860 2595 50  0000 L CNN
F 1 "100nF" H 14860 2445 50  0000 L CNN
F 2 "Capacitors_SMD:C_0805_HandSoldering" H 14850 2525 60  0001 C CNN
F 3 "" H 14850 2525 60  0000 C CNN
	1    14850 2525
	1    0    0    -1  
$EndComp
$Comp
L GND #PWR019
U 1 1 57380D9D
P 14850 2725
F 0 "#PWR019" H 14850 2475 50  0001 C CNN
F 1 "GND" H 14850 2575 50  0000 C CNN
F 2 "" H 14850 2725 60  0000 C CNN
F 3 "" H 14850 2725 60  0000 C CNN
	1    14850 2725
	1    0    0    -1  
$EndComp
$Comp
L C_Small C9
U 1 1 57376C31
P 11150 975
F 0 "C9" H 11160 1045 50  0000 L CNN
F 1 "100nF" H 11160 895 50  0000 L CNN
F 2 "Capacitors_SMD:c_elec_6.3x5.3" H 11150 975 60  0001 C CNN
F 3 "" H 11150 975 60  0000 C CNN
	1    11150 975 
	1    0    0    -1  
$EndComp
$Comp
L C_Small C11
U 1 1 5738411D
P 12600 1000
F 0 "C11" H 12610 1070 50  0000 L CNN
F 1 "100nF" H 12610 920 50  0000 L CNN
F 2 "Capacitors_SMD:c_elec_6.3x5.3" H 12600 1000 60  0001 C CNN
F 3 "" H 12600 1000 60  0000 C CNN
	1    12600 1000
	1    0    0    -1  
$EndComp
$Comp
L CP_Small C12
U 1 1 5738468B
P 12900 1000
F 0 "C12" H 12910 1070 50  0000 L CNN
F 1 "100uF" H 12910 920 50  0000 L CNN
F 2 "Capacitors_SMD:c_elec_6.3x5.3" H 12900 1000 60  0001 C CNN
F 3 "" H 12900 1000 60  0000 C CNN
	1    12900 1000
	1    0    0    -1  
$EndComp
$Comp
L C_Small C14
U 1 1 573852A7
P 14150 1000
F 0 "C14" H 14160 1070 50  0000 L CNN
F 1 "100nF" H 14160 920 50  0000 L CNN
F 2 "Capacitors_SMD:C_0805_HandSoldering" H 14150 1000 60  0001 C CNN
F 3 "" H 14150 1000 60  0000 C CNN
	1    14150 1000
	1    0    0    -1  
$EndComp
$Comp
L CP_Small C15
U 1 1 573852AD
P 14450 1000
F 0 "C15" H 14460 1070 50  0000 L CNN
F 1 "100uF" H 14460 920 50  0000 L CNN
F 2 "Capacitors_SMD:c_elec_6.3x5.3" H 14450 1000 60  0001 C CNN
F 3 "" H 14450 1000 60  0000 C CNN
	1    14450 1000
	1    0    0    -1  
$EndComp
$Comp
L +5VD #PWR020
U 1 1 5738866C
P 15000 825
F 0 "#PWR020" H 15000 675 50  0001 C CNN
F 1 "+5VD" H 15000 965 50  0000 C CNN
F 2 "" H 15000 825 60  0000 C CNN
F 3 "" H 15000 825 60  0000 C CNN
	1    15000 825 
	0    1    1    0   
$EndComp
$Comp
L C_Small C2
U 1 1 5738A4EC
P 2350 2150
F 0 "C2" H 2360 2220 50  0000 L CNN
F 1 "100nF" H 2360 2070 50  0000 L CNN
F 2 "Capacitors_SMD:C_0805_HandSoldering" H 2350 2150 60  0001 C CNN
F 3 "" H 2350 2150 60  0000 C CNN
	1    2350 2150
	1    0    0    -1  
$EndComp
$Comp
L GND #PWR021
U 1 1 5738AB18
P 2350 2275
F 0 "#PWR021" H 2350 2025 50  0001 C CNN
F 1 "GND" H 2350 2125 50  0000 C CNN
F 2 "" H 2350 2275 60  0000 C CNN
F 3 "" H 2350 2275 60  0000 C CNN
	1    2350 2275
	1    0    0    -1  
$EndComp
$Comp
L MMBT3904 Q11
U 1 1 5738C365
P 8825 5300
F 0 "Q11" H 9025 5375 50  0000 L CNN
F 1 "MMBTA42" H 9025 5300 50  0000 L CNN
F 2 "TO_SOT_Packages_SMD:SOT-23" H 9025 5225 50  0000 L CIN
F 3 "" H 8825 5300 50  0000 L CNN
	1    8825 5300
	1    0    0    -1  
$EndComp
$Comp
L MMBT3906 Q12
U 1 1 5738C406
P 9300 4625
F 0 "Q12" H 9500 4700 50  0000 L CNN
F 1 "MMBTA92" H 9500 4625 50  0000 L CNN
F 2 "TO_SOT_Packages_SMD:SOT-23" H 9500 4550 50  0000 L CIN
F 3 "" H 9300 4625 50  0000 L CNN
	1    9300 4625
	1    0    0    1   
$EndComp
$Comp
L R_Small R14
U 1 1 5738C5D5
P 8925 4850
F 0 "R14" H 8955 4870 50  0000 L CNN
F 1 "470k" H 8955 4810 50  0000 L CNN
F 2 "Resistors_SMD:R_0805_HandSoldering" H 8925 4850 60  0001 C CNN
F 3 "" H 8925 4850 60  0000 C CNN
	1    8925 4850
	1    0    0    -1  
$EndComp
$Comp
L R_Small R13
U 1 1 5738C68D
P 8925 4375
F 0 "R13" H 8955 4395 50  0000 L CNN
F 1 "100k" H 8955 4335 50  0000 L CNN
F 2 "Resistors_SMD:R_0805_HandSoldering" H 8925 4375 60  0001 C CNN
F 3 "" H 8925 4375 60  0000 C CNN
	1    8925 4375
	1    0    0    -1  
$EndComp
$Comp
L GND #PWR022
U 1 1 5738CDAD
P 8925 5675
F 0 "#PWR022" H 8925 5425 50  0001 C CNN
F 1 "GND" H 8925 5525 50  0000 C CNN
F 2 "" H 8925 5675 60  0000 C CNN
F 3 "" H 8925 5675 60  0000 C CNN
	1    8925 5675
	1    0    0    -1  
$EndComp
$Comp
L MMBT3904 Q13
U 1 1 5738D628
P 10500 5300
F 0 "Q13" H 10700 5375 50  0000 L CNN
F 1 "MMBTA42" H 10700 5300 50  0000 L CNN
F 2 "TO_SOT_Packages_SMD:SOT-23" H 10700 5225 50  0000 L CIN
F 3 "" H 10500 5300 50  0000 L CNN
	1    10500 5300
	1    0    0    -1  
$EndComp
$Comp
L MMBT3906 Q14
U 1 1 5738D62E
P 10975 4625
F 0 "Q14" H 11175 4700 50  0000 L CNN
F 1 "MMBTA92" H 11175 4625 50  0000 L CNN
F 2 "TO_SOT_Packages_SMD:SOT-23" H 11175 4550 50  0000 L CIN
F 3 "" H 10975 4625 50  0000 L CNN
	1    10975 4625
	1    0    0    1   
$EndComp
$Comp
L R_Small R16
U 1 1 5738D634
P 10600 4850
F 0 "R16" H 10630 4870 50  0000 L CNN
F 1 "470k" H 10630 4810 50  0000 L CNN
F 2 "Resistors_SMD:R_0805_HandSoldering" H 10600 4850 60  0001 C CNN
F 3 "" H 10600 4850 60  0000 C CNN
	1    10600 4850
	1    0    0    -1  
$EndComp
$Comp
L R_Small R15
U 1 1 5738D63A
P 10600 4375
F 0 "R15" H 10630 4395 50  0000 L CNN
F 1 "100k" H 10630 4335 50  0000 L CNN
F 2 "Resistors_SMD:R_0805_HandSoldering" H 10600 4375 60  0001 C CNN
F 3 "" H 10600 4375 60  0000 C CNN
	1    10600 4375
	1    0    0    -1  
$EndComp
$Comp
L GND #PWR023
U 1 1 5738D648
P 10600 5675
F 0 "#PWR023" H 10600 5425 50  0001 C CNN
F 1 "GND" H 10600 5525 50  0000 C CNN
F 2 "" H 10600 5675 60  0000 C CNN
F 3 "" H 10600 5675 60  0000 C CNN
	1    10600 5675
	1    0    0    -1  
$EndComp
$Comp
L MMBT3904 Q15
U 1 1 5738D7E1
P 12025 5275
F 0 "Q15" H 12225 5350 50  0000 L CNN
F 1 "MMBTA42" H 12225 5275 50  0000 L CNN
F 2 "TO_SOT_Packages_SMD:SOT-23" H 12225 5200 50  0000 L CIN
F 3 "" H 12025 5275 50  0000 L CNN
	1    12025 5275
	1    0    0    -1  
$EndComp
$Comp
L MMBT3906 Q17
U 1 1 5738D7E7
P 12500 4600
F 0 "Q17" H 12700 4675 50  0000 L CNN
F 1 "MMBTA92" H 12700 4600 50  0000 L CNN
F 2 "TO_SOT_Packages_SMD:SOT-23" H 12700 4525 50  0000 L CIN
F 3 "" H 12500 4600 50  0000 L CNN
	1    12500 4600
	1    0    0    1   
$EndComp
$Comp
L R_Small R19
U 1 1 5738D7ED
P 12125 4825
F 0 "R19" H 12155 4845 50  0000 L CNN
F 1 "470k" H 12155 4785 50  0000 L CNN
F 2 "Resistors_SMD:R_0805_HandSoldering" H 12125 4825 60  0001 C CNN
F 3 "" H 12125 4825 60  0000 C CNN
	1    12125 4825
	1    0    0    -1  
$EndComp
$Comp
L R_Small R18
U 1 1 5738D7F3
P 12125 4350
F 0 "R18" H 12155 4370 50  0000 L CNN
F 1 "100k" H 12155 4310 50  0000 L CNN
F 2 "Resistors_SMD:R_0805_HandSoldering" H 12125 4350 60  0001 C CNN
F 3 "" H 12125 4350 60  0000 C CNN
	1    12125 4350
	1    0    0    -1  
$EndComp
$Comp
L GND #PWR024
U 1 1 5738D801
P 12125 5650
F 0 "#PWR024" H 12125 5400 50  0001 C CNN
F 1 "GND" H 12125 5500 50  0000 C CNN
F 2 "" H 12125 5650 60  0000 C CNN
F 3 "" H 12125 5650 60  0000 C CNN
	1    12125 5650
	1    0    0    -1  
$EndComp
$Comp
L MMBT3904 Q20
U 1 1 5738E4F8
P 13725 5275
F 0 "Q20" H 13925 5350 50  0000 L CNN
F 1 "MMBTA42" H 13925 5275 50  0000 L CNN
F 2 "TO_SOT_Packages_SMD:SOT-23" H 13925 5200 50  0000 L CIN
F 3 "" H 13725 5275 50  0000 L CNN
	1    13725 5275
	1    0    0    -1  
$EndComp
$Comp
L MMBT3906 Q21
U 1 1 5738E4FE
P 14200 4600
F 0 "Q21" H 14400 4675 50  0000 L CNN
F 1 "MMBTA92" H 14400 4600 50  0000 L CNN
F 2 "TO_SOT_Packages_SMD:SOT-23" H 14400 4525 50  0000 L CIN
F 3 "" H 14200 4600 50  0000 L CNN
	1    14200 4600
	1    0    0    1   
$EndComp
$Comp
L R_Small R21
U 1 1 5738E504
P 13825 4825
F 0 "R21" H 13855 4845 50  0000 L CNN
F 1 "470k" H 13855 4785 50  0000 L CNN
F 2 "Resistors_SMD:R_0805_HandSoldering" H 13825 4825 60  0001 C CNN
F 3 "" H 13825 4825 60  0000 C CNN
	1    13825 4825
	1    0    0    -1  
$EndComp
$Comp
L R_Small R20
U 1 1 5738E50A
P 13825 4350
F 0 "R20" H 13855 4370 50  0000 L CNN
F 1 "100k" H 13855 4310 50  0000 L CNN
F 2 "Resistors_SMD:R_0805_HandSoldering" H 13825 4350 60  0001 C CNN
F 3 "" H 13825 4350 60  0000 C CNN
	1    13825 4350
	1    0    0    -1  
$EndComp
$Comp
L GND #PWR025
U 1 1 5738E518
P 13825 5650
F 0 "#PWR025" H 13825 5400 50  0001 C CNN
F 1 "GND" H 13825 5500 50  0000 C CNN
F 2 "" H 13825 5650 60  0000 C CNN
F 3 "" H 13825 5650 60  0000 C CNN
	1    13825 5650
	1    0    0    -1  
$EndComp
Text Label 9650 5000 0    60   ~ 0
A1
Text Label 11325 5000 0    60   ~ 0
A2
Text Label 12850 4975 0    60   ~ 0
A3
Text Label 14550 4975 0    60   ~ 0
A4
Text Label 8100 5300 0    60   ~ 0
A1T
Text Label 9750 5275 0    60   ~ 0
A2T
Text Label 11325 5200 0    60   ~ 0
A3T
Text Label 13050 5250 0    60   ~ 0
A4T
$Comp
L MMBT3904 Q22
U 1 1 573943A3
P 15075 3750
F 0 "Q22" H 15275 3825 50  0000 L CNN
F 1 "MMBTA42" H 15275 3750 50  0000 L CNN
F 2 "TO_SOT_Packages_SMD:SOT-23" H 15275 3675 50  0000 L CIN
F 3 "" H 15075 3750 50  0000 L CNN
	1    15075 3750
	1    0    0    -1  
$EndComp
$Comp
L R_Small R24
U 1 1 5739486F
P 14650 3750
F 0 "R24" H 14680 3770 50  0000 L CNN
F 1 "10k" H 14680 3710 50  0000 L CNN
F 2 "Resistors_SMD:R_0805_HandSoldering" H 14650 3750 60  0000 C CNN
F 3 "" H 14650 3750 60  0000 C CNN
	1    14650 3750
	0    1    1    0   
$EndComp
Text Label 13675 3750 0    60   ~ 0
SEPT
$Comp
L GND #PWR026
U 1 1 5739530B
P 15175 4075
F 0 "#PWR026" H 15175 3825 50  0001 C CNN
F 1 "GND" H 15175 3925 50  0000 C CNN
F 2 "" H 15175 4075 60  0000 C CNN
F 3 "" H 15175 4075 60  0000 C CNN
	1    15175 4075
	1    0    0    -1  
$EndComp
Text Label 15200 3375 0    60   ~ 0
SEP
$Comp
L CONN_01X04 P9
U 1 1 5739D0AE
P 15325 5125
F 0 "P9" H 15325 5375 50  0000 C CNN
F 1 "CONN_01X04" V 15425 5125 50  0000 C CNN
F 2 "Socket_Strips:Socket_Strip_Straight_1x04" H 15325 5125 60  0001 C CNN
F 3 "" H 15325 5125 60  0000 C CNN
	1    15325 5125
	1    0    0    -1  
$EndComp
Text Label 15025 4975 0    60   ~ 0
A1
Text Label 15025 5075 0    60   ~ 0
A2
Text Label 15025 5275 0    60   ~ 0
A4
Text Label 15025 5175 0    60   ~ 0
A3
$Comp
L VAA #PWR027
U 1 1 573A0860
P 12025 3950
F 0 "#PWR027" H 12025 3800 50  0001 C CNN
F 1 "VAA" H 12025 4100 50  0000 C CNN
F 2 "" H 12025 3950 60  0000 C CNN
F 3 "" H 12025 3950 60  0000 C CNN
	1    12025 3950
	1    0    0    -1  
$EndComp
$Comp
L VAA #PWR028
U 1 1 573A18C0
P 15050 1750
F 0 "#PWR028" H 15050 1600 50  0001 C CNN
F 1 "VAA" H 15050 1900 50  0000 C CNN
F 2 "" H 15050 1750 60  0000 C CNN
F 3 "" H 15050 1750 60  0000 C CNN
	1    15050 1750
	1    0    0    -1  
$EndComp
$Comp
L MMBT3904 Q1
U 1 1 573A3908
P 3175 6000
F 0 "Q1" H 3375 6075 50  0000 L CNN
F 1 "MMBTA42" H 3375 6000 50  0000 L CNN
F 2 "TO_SOT_Packages_SMD:SOT-23" H 3375 5925 50  0000 L CIN
F 3 "" H 3175 6000 50  0000 L CNN
	1    3175 6000
	1    0    0    -1  
$EndComp
$Comp
L 4028 U1
U 1 1 573A4130
P 1650 6450
F 0 "U1" H 1650 6450 60  0000 C CNN
F 1 "4028" H 1600 6150 60  0000 C CNN
F 2 "SMD_Packages:SO-16-N" H 1650 6450 60  0001 C CNN
F 3 "" H 1650 6450 60  0000 C CNN
	1    1650 6450
	1    0    0    -1  
$EndComp
$Comp
L MMBT3904 Q5
U 1 1 573A5B53
P 4000 6450
F 0 "Q5" H 4200 6525 50  0000 L CNN
F 1 "MMBTA42" H 4200 6450 50  0000 L CNN
F 2 "TO_SOT_Packages_SMD:SOT-23" H 4200 6375 50  0000 L CIN
F 3 "" H 4000 6450 50  0000 L CNN
	1    4000 6450
	1    0    0    -1  
$EndComp
$Comp
L MMBT3904 Q2
U 1 1 573A5C3C
P 3175 6950
F 0 "Q2" H 3375 7025 50  0000 L CNN
F 1 "MMBTA42" H 3375 6950 50  0000 L CNN
F 2 "TO_SOT_Packages_SMD:SOT-23" H 3375 6875 50  0000 L CIN
F 3 "" H 3175 6950 50  0000 L CNN
	1    3175 6950
	1    0    0    -1  
$EndComp
$Comp
L MMBT3904 Q4
U 1 1 573A6250
P 3975 7400
F 0 "Q4" H 4175 7475 50  0000 L CNN
F 1 "MMBTA42" H 4175 7400 50  0000 L CNN
F 2 "TO_SOT_Packages_SMD:SOT-23" H 4175 7325 50  0000 L CIN
F 3 "" H 3975 7400 50  0000 L CNN
	1    3975 7400
	1    0    0    -1  
$EndComp
$Comp
L MMBT3904 Q3
U 1 1 573A6337
P 3175 7950
F 0 "Q3" H 3375 8025 50  0000 L CNN
F 1 "MMBTA42" H 3375 7950 50  0000 L CNN
F 2 "TO_SOT_Packages_SMD:SOT-23" H 3375 7875 50  0000 L CIN
F 3 "" H 3175 7950 50  0000 L CNN
	1    3175 7950
	1    0    0    -1  
$EndComp
$Comp
L GND #PWR029
U 1 1 573A63ED
P 4075 7675
F 0 "#PWR029" H 4075 7425 50  0001 C CNN
F 1 "GND" H 4075 7525 50  0000 C CNN
F 2 "" H 4075 7675 60  0000 C CNN
F 3 "" H 4075 7675 60  0000 C CNN
	1    4075 7675
	1    0    0    -1  
$EndComp
$Comp
L GND #PWR030
U 1 1 573A64CB
P 3275 8225
F 0 "#PWR030" H 3275 7975 50  0001 C CNN
F 1 "GND" H 3275 8075 50  0000 C CNN
F 2 "" H 3275 8225 60  0000 C CNN
F 3 "" H 3275 8225 60  0000 C CNN
	1    3275 8225
	1    0    0    -1  
$EndComp
$Comp
L GND #PWR031
U 1 1 573A65A2
P 3275 7225
F 0 "#PWR031" H 3275 6975 50  0001 C CNN
F 1 "GND" H 3275 7075 50  0000 C CNN
F 2 "" H 3275 7225 60  0000 C CNN
F 3 "" H 3275 7225 60  0000 C CNN
	1    3275 7225
	1    0    0    -1  
$EndComp
$Comp
L GND #PWR032
U 1 1 573A6679
P 4100 6725
F 0 "#PWR032" H 4100 6475 50  0001 C CNN
F 1 "GND" H 4100 6575 50  0000 C CNN
F 2 "" H 4100 6725 60  0000 C CNN
F 3 "" H 4100 6725 60  0000 C CNN
	1    4100 6725
	1    0    0    -1  
$EndComp
$Comp
L GND #PWR033
U 1 1 573A6750
P 3275 6300
F 0 "#PWR033" H 3275 6050 50  0001 C CNN
F 1 "GND" H 3275 6150 50  0000 C CNN
F 2 "" H 3275 6300 60  0000 C CNN
F 3 "" H 3275 6300 60  0000 C CNN
	1    3275 6300
	1    0    0    -1  
$EndComp
$Comp
L R_Small R3
U 1 1 573A863A
P 2825 6000
F 0 "R3" H 2855 6020 50  0000 L CNN
F 1 "10k" H 2855 5960 50  0000 L CNN
F 2 "Resistors_SMD:R_0805_HandSoldering" H 2825 6000 60  0001 C CNN
F 3 "" H 2825 6000 60  0000 C CNN
	1    2825 6000
	0    1    1    0   
$EndComp
$Comp
L R_Small R5
U 1 1 573A9887
P 3625 6450
F 0 "R5" H 3655 6470 50  0000 L CNN
F 1 "10k" H 3655 6410 50  0000 L CNN
F 2 "Resistors_SMD:R_0805_HandSoldering" H 3625 6450 60  0001 C CNN
F 3 "" H 3625 6450 60  0000 C CNN
	1    3625 6450
	0    1    1    0   
$EndComp
$Comp
L R_Small R1
U 1 1 573A9981
P 2800 6950
F 0 "R1" H 2830 6970 50  0000 L CNN
F 1 "10k" H 2830 6910 50  0000 L CNN
F 2 "Resistors_SMD:R_0805_HandSoldering" H 2800 6950 60  0001 C CNN
F 3 "" H 2800 6950 60  0000 C CNN
	1    2800 6950
	0    1    1    0   
$EndComp
$Comp
L R_Small R2
U 1 1 573A9EAB
P 2800 7950
F 0 "R2" H 2830 7970 50  0000 L CNN
F 1 "10k" H 2830 7910 50  0000 L CNN
F 2 "Resistors_SMD:R_0805_HandSoldering" H 2800 7950 60  0001 C CNN
F 3 "" H 2800 7950 60  0000 C CNN
	1    2800 7950
	0    1    1    0   
$EndComp
$Comp
L R_Small R4
U 1 1 573A9FBF
P 3575 7400
F 0 "R4" H 3605 7420 50  0000 L CNN
F 1 "10k" H 3605 7360 50  0000 L CNN
F 2 "Resistors_SMD:R_0805_HandSoldering" H 3575 7400 60  0001 C CNN
F 3 "" H 3575 7400 60  0000 C CNN
	1    3575 7400
	0    1    1    0   
$EndComp
$Comp
L MMBT3904 Q6
U 1 1 573AE0C9
P 5400 6000
F 0 "Q6" H 5600 6075 50  0000 L CNN
F 1 "MMBTA42" H 5600 6000 50  0000 L CNN
F 2 "TO_SOT_Packages_SMD:SOT-23" H 5600 5925 50  0000 L CIN
F 3 "" H 5400 6000 50  0000 L CNN
	1    5400 6000
	1    0    0    -1  
$EndComp
$Comp
L MMBT3904 Q10
U 1 1 573AE0CF
P 6225 6450
F 0 "Q10" H 6425 6525 50  0000 L CNN
F 1 "MMBTA42" H 6425 6450 50  0000 L CNN
F 2 "TO_SOT_Packages_SMD:SOT-23" H 6425 6375 50  0000 L CIN
F 3 "" H 6225 6450 50  0000 L CNN
	1    6225 6450
	1    0    0    -1  
$EndComp
$Comp
L MMBT3904 Q7
U 1 1 573AE0D5
P 5400 6950
F 0 "Q7" H 5600 7025 50  0000 L CNN
F 1 "MMBTA42" H 5600 6950 50  0000 L CNN
F 2 "TO_SOT_Packages_SMD:SOT-23" H 5600 6875 50  0000 L CIN
F 3 "" H 5400 6950 50  0000 L CNN
	1    5400 6950
	1    0    0    -1  
$EndComp
$Comp
L MMBT3904 Q9
U 1 1 573AE0DB
P 6200 7400
F 0 "Q9" H 6400 7475 50  0000 L CNN
F 1 "MMBTA42" H 6400 7400 50  0000 L CNN
F 2 "TO_SOT_Packages_SMD:SOT-23" H 6400 7325 50  0000 L CIN
F 3 "" H 6200 7400 50  0000 L CNN
	1    6200 7400
	1    0    0    -1  
$EndComp
$Comp
L MMBT3904 Q8
U 1 1 573AE0E1
P 5400 7950
F 0 "Q8" H 5600 8025 50  0000 L CNN
F 1 "MMBTA42" H 5600 7950 50  0000 L CNN
F 2 "TO_SOT_Packages_SMD:SOT-23" H 5600 7875 50  0000 L CIN
F 3 "" H 5400 7950 50  0000 L CNN
	1    5400 7950
	1    0    0    -1  
$EndComp
$Comp
L GND #PWR034
U 1 1 573AE0E7
P 6300 7675
F 0 "#PWR034" H 6300 7425 50  0001 C CNN
F 1 "GND" H 6300 7525 50  0000 C CNN
F 2 "" H 6300 7675 60  0000 C CNN
F 3 "" H 6300 7675 60  0000 C CNN
	1    6300 7675
	1    0    0    -1  
$EndComp
$Comp
L GND #PWR035
U 1 1 573AE0ED
P 5500 8225
F 0 "#PWR035" H 5500 7975 50  0001 C CNN
F 1 "GND" H 5500 8075 50  0000 C CNN
F 2 "" H 5500 8225 60  0000 C CNN
F 3 "" H 5500 8225 60  0000 C CNN
	1    5500 8225
	1    0    0    -1  
$EndComp
$Comp
L GND #PWR036
U 1 1 573AE0F3
P 5500 7225
F 0 "#PWR036" H 5500 6975 50  0001 C CNN
F 1 "GND" H 5500 7075 50  0000 C CNN
F 2 "" H 5500 7225 60  0000 C CNN
F 3 "" H 5500 7225 60  0000 C CNN
	1    5500 7225
	1    0    0    -1  
$EndComp
$Comp
L GND #PWR037
U 1 1 573AE0F9
P 6325 6725
F 0 "#PWR037" H 6325 6475 50  0001 C CNN
F 1 "GND" H 6325 6575 50  0000 C CNN
F 2 "" H 6325 6725 60  0000 C CNN
F 3 "" H 6325 6725 60  0000 C CNN
	1    6325 6725
	1    0    0    -1  
$EndComp
$Comp
L GND #PWR038
U 1 1 573AE0FF
P 5500 6300
F 0 "#PWR038" H 5500 6050 50  0001 C CNN
F 1 "GND" H 5500 6150 50  0000 C CNN
F 2 "" H 5500 6300 60  0000 C CNN
F 3 "" H 5500 6300 60  0000 C CNN
	1    5500 6300
	1    0    0    -1  
$EndComp
$Comp
L R_Small R9
U 1 1 573AE10A
P 5050 6000
F 0 "R9" H 5080 6020 50  0000 L CNN
F 1 "10k" H 5080 5960 50  0000 L CNN
F 2 "Resistors_SMD:R_0805_HandSoldering" H 5050 6000 60  0001 C CNN
F 3 "" H 5050 6000 60  0000 C CNN
	1    5050 6000
	0    1    1    0   
$EndComp
$Comp
L R_Small R12
U 1 1 573AE110
P 5850 6450
F 0 "R12" H 5880 6470 50  0000 L CNN
F 1 "10k" H 5880 6410 50  0000 L CNN
F 2 "Resistors_SMD:R_0805_HandSoldering" H 5850 6450 60  0001 C CNN
F 3 "" H 5850 6450 60  0000 C CNN
	1    5850 6450
	0    1    1    0   
$EndComp
$Comp
L R_Small R7
U 1 1 573AE116
P 5025 6950
F 0 "R7" H 5055 6970 50  0000 L CNN
F 1 "10k" H 5055 6910 50  0000 L CNN
F 2 "Resistors_SMD:R_0805_HandSoldering" H 5025 6950 60  0001 C CNN
F 3 "" H 5025 6950 60  0000 C CNN
	1    5025 6950
	0    1    1    0   
$EndComp
$Comp
L R_Small R8
U 1 1 573AE11C
P 5025 7950
F 0 "R8" H 5055 7970 50  0000 L CNN
F 1 "10k" H 5055 7910 50  0000 L CNN
F 2 "Resistors_SMD:R_0805_HandSoldering" H 5025 7950 60  0001 C CNN
F 3 "" H 5025 7950 60  0000 C CNN
	1    5025 7950
	0    1    1    0   
$EndComp
$Comp
L R_Small R11
U 1 1 573AE122
P 5800 7400
F 0 "R11" H 5830 7420 50  0000 L CNN
F 1 "10k" H 5830 7360 50  0000 L CNN
F 2 "Resistors_SMD:R_0805_HandSoldering" H 5800 7400 60  0001 C CNN
F 3 "" H 5800 7400 60  0000 C CNN
	1    5800 7400
	0    1    1    0   
$EndComp
Text Label 2250 6400 0    60   ~ 0
C4T
Text Label 2250 6800 0    60   ~ 0
C8T
Text Label 2250 6500 0    60   ~ 0
C5T
Text Label 2250 6900 0    60   ~ 0
C9T
Text Label 2250 6600 0    60   ~ 0
C6T
Text Label 2250 6100 0    60   ~ 0
C1T
Text Label 2250 6000 0    60   ~ 0
C0T
Text Label 2250 6300 0    60   ~ 0
C3T
Text Label 2250 6700 0    60   ~ 0
C7T
Text Label 2250 6200 0    60   ~ 0
C2T
$Comp
L VDD #PWR039
U 1 1 573B1B54
P 1700 5350
F 0 "#PWR039" H 1700 5200 50  0001 C CNN
F 1 "VDD" H 1700 5500 50  0000 C CNN
F 2 "" H 1700 5350 60  0000 C CNN
F 3 "" H 1700 5350 60  0000 C CNN
	1    1700 5350
	1    0    0    -1  
$EndComp
$Comp
L +5VD #PWR040
U 1 1 573B1C0E
P 1875 5350
F 0 "#PWR040" H 1875 5200 50  0001 C CNN
F 1 "+5VD" H 1875 5490 50  0000 C CNN
F 2 "" H 1875 5350 60  0000 C CNN
F 3 "" H 1875 5350 60  0000 C CNN
	1    1875 5350
	1    0    0    -1  
$EndComp
$Comp
L VSS #PWR041
U 1 1 573B1E62
P 2100 5350
F 0 "#PWR041" H 2100 5200 50  0001 C CNN
F 1 "VSS" H 2100 5500 50  0000 C CNN
F 2 "" H 2100 5350 60  0000 C CNN
F 3 "" H 2100 5350 60  0000 C CNN
	1    2100 5350
	1    0    0    -1  
$EndComp
$Comp
L GND #PWR042
U 1 1 573B1F1C
P 2100 5425
F 0 "#PWR042" H 2100 5175 50  0001 C CNN
F 1 "GND" H 2100 5275 50  0000 C CNN
F 2 "" H 2100 5425 60  0000 C CNN
F 3 "" H 2100 5425 60  0000 C CNN
	1    2100 5425
	1    0    0    -1  
$EndComp
$Comp
L IN-12A N1
U 1 1 573B58A7
P 8625 7425
F 0 "N1" H 8875 7275 50  0000 L BNN
F 1 "IN-12A" H 8875 7175 50  0000 L BNN
F 2 "nixie:mopsiok_nixie_IN-12A" V 8525 7475 50  0001 C CNN
F 3 "" H 8625 7425 60  0000 C CNN
	1    8625 7425
	1    0    0    -1  
$EndComp
$Comp
L IN-12A N2
U 1 1 573B5A30
P 10600 7425
F 0 "N2" H 10850 7275 50  0000 L BNN
F 1 "IN-12A" H 10850 7175 50  0000 L BNN
F 2 "nixie:mopsiok_nixie_IN-12A" V 10500 7475 50  0001 C CNN
F 3 "" H 10600 7425 60  0000 C CNN
	1    10600 7425
	1    0    0    -1  
$EndComp
$Comp
L IN-12A N3
U 1 1 573B5B7F
P 12500 7425
F 0 "N3" H 12750 7275 50  0000 L BNN
F 1 "IN-12A" H 12750 7175 50  0000 L BNN
F 2 "nixie:mopsiok_nixie_IN-12A" V 12400 7475 50  0001 C CNN
F 3 "" H 12500 7425 60  0000 C CNN
	1    12500 7425
	1    0    0    -1  
$EndComp
$Comp
L IN-12A N4
U 1 1 573B5CB1
P 14225 7425
F 0 "N4" H 14475 7275 50  0000 L BNN
F 1 "IN-12A" H 14475 7175 50  0000 L BNN
F 2 "nixie:mopsiok_nixie_IN-12A" V 14125 7475 50  0001 C CNN
F 3 "" H 14225 7425 60  0000 C CNN
	1    14225 7425
	1    0    0    -1  
$EndComp
$Comp
L POT RV1
U 1 1 573B8212
P 9150 7050
F 0 "RV1" H 9150 6950 50  0000 C CNN
F 1 "47k" H 9150 7050 50  0000 C CNN
F 2 "Potentiometers:Potentiometer_Triwood_RM-065" H 9150 7050 60  0001 C CNN
F 3 "" H 9150 7050 60  0000 C CNN
	1    9150 7050
	0    -1   -1   0   
$EndComp
$Comp
L POT RV2
U 1 1 573B83AB
P 11100 7025
F 0 "RV2" H 11100 6925 50  0000 C CNN
F 1 "47k" H 11100 7025 50  0000 C CNN
F 2 "Potentiometers:Potentiometer_Triwood_RM-065" H 11100 7025 60  0001 C CNN
F 3 "" H 11100 7025 60  0000 C CNN
	1    11100 7025
	0    -1   -1   0   
$EndComp
$Comp
L POT RV3
U 1 1 573B84E8
P 13000 7000
F 0 "RV3" H 13000 6900 50  0000 C CNN
F 1 "47k" H 13000 7000 50  0000 C CNN
F 2 "Potentiometers:Potentiometer_Triwood_RM-065" H 13000 7000 60  0001 C CNN
F 3 "" H 13000 7000 60  0000 C CNN
	1    13000 7000
	0    -1   -1   0   
$EndComp
$Comp
L POT RV5
U 1 1 573B9F42
P 14700 6975
F 0 "RV5" H 14700 6875 50  0000 C CNN
F 1 "47k" H 14700 6975 50  0000 C CNN
F 2 "Potentiometers:Potentiometer_Triwood_RM-065" H 14700 6975 60  0001 C CNN
F 3 "" H 14700 6975 60  0000 C CNN
	1    14700 6975
	0    -1   -1   0   
$EndComp
Text Label 9200 6600 0    60   ~ 0
A1
Text Label 11200 6600 0    60   ~ 0
A2
Text Label 13075 6600 0    60   ~ 0
A3
Text Label 14850 6600 0    60   ~ 0
A4
Text Label 2600 6000 0    60   ~ 0
C0T
Text Label 2750 6525 2    60   ~ 0
C1T
Text Label 2600 7475 0    60   ~ 0
C3T
Text Label 2600 6950 0    60   ~ 0
C2T
Text Label 2600 7950 0    60   ~ 0
C4T
Text Label 4825 6000 0    60   ~ 0
C5T
Text Label 4850 6525 0    60   ~ 0
C6T
Text Label 4825 6950 0    60   ~ 0
C7T
Text Label 4850 7475 0    60   ~ 0
C8T
Text Label 4825 7950 0    60   ~ 0
C9T
Text Label 925  6300 0    60   ~ 0
KA
Text Label 925  6400 0    60   ~ 0
KB
Text Label 925  6500 0    60   ~ 0
KC
Text Label 925  6600 0    60   ~ 0
KD
$Comp
L CONN_01X04 P13
U 1 1 573E4903
P 15425 6900
F 0 "P13" H 15425 7150 50  0000 C CNN
F 1 "CONN_01X04" V 15525 6900 50  0000 C CNN
F 2 "Socket_Strips:Socket_Strip_Straight_1x04" H 15425 6900 60  0001 C CNN
F 3 "" H 15425 6900 60  0000 C CNN
	1    15425 6900
	1    0    0    -1  
$EndComp
Text Label 15125 6750 0    60   ~ 0
A1
Text Label 15125 6850 0    60   ~ 0
A2
Text Label 15125 7050 0    60   ~ 0
A4
Text Label 15125 6950 0    60   ~ 0
A3
$Comp
L CONN_01X10 P6
U 1 1 573E845F
P 7400 9600
F 0 "P6" H 7400 10150 50  0000 C CNN
F 1 "CONN_01X10" V 7500 9600 50  0000 C CNN
F 2 "Socket_Strips:Socket_Strip_Straight_1x10" H 7400 9600 60  0001 C CNN
F 3 "" H 7400 9600 60  0000 C CNN
	1    7400 9600
	1    0    0    -1  
$EndComp
Text Label 3375 5700 0    60   ~ 0
C0
Text Label 4200 6150 0    60   ~ 0
C1
Text Label 3375 6625 0    60   ~ 0
C2
Text Label 4125 7125 0    60   ~ 0
C3
Text Label 3325 7675 0    60   ~ 0
C4
Text Label 5600 5700 0    60   ~ 0
C5
Text Label 6425 6150 0    60   ~ 0
C6
Text Label 5600 6625 0    60   ~ 0
C7
Text Label 6350 7125 0    60   ~ 0
C8
Text Label 5550 7675 0    60   ~ 0
C9
Text Label 7175 8350 0    60   ~ 0
C0
Text Label 7175 8425 0    60   ~ 0
C1
Text Label 7175 8500 0    60   ~ 0
C2
Text Label 7175 8575 0    60   ~ 0
C3
Text Label 7175 8650 0    60   ~ 0
C4
Text Label 7175 8725 0    60   ~ 0
C5
Text Label 7175 8800 0    60   ~ 0
C6
Text Label 7175 8875 0    60   ~ 0
C7
Text Label 7175 8950 0    60   ~ 0
C8
Text Label 7175 9025 0    60   ~ 0
C9
Text Label 7200 9150 2    60   ~ 0
C0
Text Label 7200 9250 2    60   ~ 0
C1
Text Label 7200 9350 2    60   ~ 0
C2
Text Label 7200 9550 2    60   ~ 0
C4
Text Label 7200 10050 0    60   ~ 0
C5
Text Label 7200 9950 0    60   ~ 0
C6
Text Label 7200 9850 0    60   ~ 0
C7
Text Label 7200 9750 0    60   ~ 0
C8
Text Label 7200 9650 0    60   ~ 0
C9
Text Label 7200 9450 2    60   ~ 0
C3
$Comp
L CONN_01X10 P5
U 1 1 5740072C
P 7150 6200
F 0 "P5" H 7150 6750 50  0000 C CNN
F 1 "CONN_01X10" V 7250 6200 50  0000 C CNN
F 2 "Socket_Strips:Socket_Strip_Straight_1x10" H 7150 6200 60  0001 C CNN
F 3 "" H 7150 6200 60  0000 C CNN
	1    7150 6200
	1    0    0    -1  
$EndComp
Text Label 6950 5950 2    60   ~ 0
C0
Text Label 6950 6550 2    60   ~ 0
C1
Text Label 6950 5850 2    60   ~ 0
C2
Text Label 6950 5750 2    60   ~ 0
C4
Text Label 6950 6250 2    60   ~ 0
C5
Text Label 6950 6350 2    60   ~ 0
C6
Text Label 6950 6050 2    60   ~ 0
C7
Text Label 6950 6650 2    60   ~ 0
C8
Text Label 6950 6150 2    60   ~ 0
C9
Text Label 6950 6450 2    60   ~ 0
C3
$Comp
L CONN_01X02 P12
U 1 1 5740311A
P 15375 8600
F 0 "P12" H 15375 8750 50  0000 C CNN
F 1 "CONN_01X02" V 15475 8600 50  0000 C CNN
F 2 "Socket_Strips:Socket_Strip_Straight_1x02" H 15375 8600 60  0001 C CNN
F 3 "" H 15375 8600 60  0000 C CNN
	1    15375 8600
	1    0    0    -1  
$EndComp
Text Label 15025 8650 0    60   ~ 0
SEP
$Comp
L CONN_01X02 P11
U 1 1 5740866C
P 15375 8075
F 0 "P11" H 15375 8225 50  0000 C CNN
F 1 "NEON2" V 15475 8075 50  0000 C CNN
F 2 "Socket_Strips:Socket_Strip_Straight_1x02" H 15375 8075 60  0001 C CNN
F 3 "" H 15375 8075 60  0000 C CNN
	1    15375 8075
	1    0    0    -1  
$EndComp
$Comp
L CONN_01X02 P10
U 1 1 574087B9
P 15375 7600
F 0 "P10" H 15375 7750 50  0000 C CNN
F 1 "NEON1" V 15475 7600 50  0000 C CNN
F 2 "Socket_Strips:Socket_Strip_Straight_1x02" H 15375 7600 60  0001 C CNN
F 3 "" H 15375 7600 60  0000 C CNN
	1    15375 7600
	1    0    0    -1  
$EndComp
Text Label 12025 4000 0    60   ~ 0
HVOUT
Text Label 15025 8550 0    60   ~ 0
HVOUT
$Comp
L POT RV6
U 1 1 5740E5CD
P 15250 8300
F 0 "RV6" H 15250 8200 50  0000 C CNN
F 1 "47k" H 15250 8300 50  0000 C CNN
F 2 "Potentiometers:Potentiometer_Triwood_RM-065" H 15250 8300 60  0001 C CNN
F 3 "" H 15250 8300 60  0000 C CNN
	1    15250 8300
	-1   0    0    1   
$EndComp
$Comp
L CONN_01X02 P14
U 1 1 57422304
P 15725 3425
F 0 "P14" H 15725 3575 50  0000 C CNN
F 1 "CONN_01X02" V 15825 3425 50  0000 C CNN
F 2 "Socket_Strips:Socket_Strip_Straight_1x02" H 15725 3425 60  0001 C CNN
F 3 "" H 15725 3425 60  0000 C CNN
	1    15725 3425
	1    0    0    -1  
$EndComp
Text Label 15425 3375 0    60   ~ 0
HVOUT
$Comp
L CONN_01X05 P15
U 1 1 5742922D
P 8650 3350
F 0 "P15" H 8650 3650 50  0000 C CNN
F 1 "CONN_01X05" V 8750 3350 50  0000 C CNN
F 2 "Socket_Strips:Socket_Strip_Straight_1x05" H 8650 3350 60  0001 C CNN
F 3 "" H 8650 3350 60  0000 C CNN
	1    8650 3350
	1    0    0    -1  
$EndComp
$Comp
L SW_PUSH SW4
U 1 1 574294DB
P 8050 3250
F 0 "SW4" H 8200 3360 50  0000 C CNN
F 1 "SW_PUSH" H 8050 3170 50  0000 C CNN
F 2 "Socket_Strips:Socket_Strip_Straight_1x02" H 8050 3250 60  0001 C CNN
F 3 "" H 8050 3250 60  0000 C CNN
	1    8050 3250
	1    0    0    -1  
$EndComp
$Comp
L SW_PUSH SW3
U 1 1 57429649
P 7925 3475
F 0 "SW3" H 8075 3585 50  0000 C CNN
F 1 "SW_PUSH" H 7925 3395 50  0000 C CNN
F 2 "Socket_Strips:Socket_Strip_Straight_1x02" H 7925 3475 60  0001 C CNN
F 3 "" H 7925 3475 60  0000 C CNN
	1    7925 3475
	1    0    0    -1  
$EndComp
$Comp
L SW_PUSH SW2
U 1 1 574297AD
P 7825 3700
F 0 "SW2" H 7975 3810 50  0000 C CNN
F 1 "SW_PUSH" H 7825 3620 50  0000 C CNN
F 2 "Socket_Strips:Socket_Strip_Straight_1x02" H 7825 3700 60  0001 C CNN
F 3 "" H 7825 3700 60  0000 C CNN
	1    7825 3700
	1    0    0    -1  
$EndComp
$Comp
L SW_PUSH SW1
U 1 1 574298FA
P 7725 3900
F 0 "SW1" H 7875 4010 50  0000 C CNN
F 1 "SW_PUSH" H 7725 3820 50  0000 C CNN
F 2 "Socket_Strips:Socket_Strip_Straight_1x02" H 7725 3900 60  0001 C CNN
F 3 "" H 7725 3900 60  0000 C CNN
	1    7725 3900
	1    0    0    -1  
$EndComp
$Comp
L GND #PWR043
U 1 1 5742AB22
P 7425 4050
F 0 "#PWR043" H 7425 3800 50  0001 C CNN
F 1 "GND" H 7425 3900 50  0000 C CNN
F 2 "" H 7425 4050 60  0000 C CNN
F 3 "" H 7425 4050 60  0000 C CNN
	1    7425 4050
	1    0    0    -1  
$EndComp
$Comp
L Led_Small D3
U 1 1 5742B0CD
P 7900 3050
F 0 "D3" H 7850 3175 50  0000 L CNN
F 1 "Led_Small" H 7725 2950 50  0000 L CNN
F 2 "LEDs:LED-3MM" V 7900 3050 60  0001 C CNN
F 3 "" V 7900 3050 60  0000 C CNN
	1    7900 3050
	1    0    0    -1  
$EndComp
$Comp
L D_Small D1
U 1 1 57378E59
P 8075 1125
F 0 "D1" H 8025 1205 50  0000 L CNN
F 1 "D_Small" H 7925 1045 50  0000 L CNN
F 2 "Diodes_SMD:DO-214AB" V 8075 1125 60  0001 C CNN
F 3 "" V 8075 1125 60  0000 C CNN
	1    8075 1125
	0    1    1    0   
$EndComp
$Comp
L D_Small D5
U 1 1 57378FDD
P 8350 1125
F 0 "D5" H 8300 1205 50  0000 L CNN
F 1 "D_Small" H 8200 1045 50  0000 L CNN
F 2 "Diodes_SMD:DO-214AB" V 8350 1125 60  0001 C CNN
F 3 "" V 8350 1125 60  0000 C CNN
	1    8350 1125
	0    1    1    0   
$EndComp
$Comp
L D_Small D4
U 1 1 57379133
P 8075 1475
F 0 "D4" H 8025 1555 50  0000 L CNN
F 1 "D_Small" H 7925 1395 50  0000 L CNN
F 2 "Diodes_SMD:DO-214AB" V 8075 1475 60  0001 C CNN
F 3 "" V 8075 1475 60  0000 C CNN
	1    8075 1475
	0    1    1    0   
$EndComp
$Comp
L D_Small D6
U 1 1 57379288
P 8350 1475
F 0 "D6" H 8300 1555 50  0000 L CNN
F 1 "D_Small" H 8200 1395 50  0000 L CNN
F 2 "Diodes_SMD:DO-214AB" V 8350 1475 60  0001 C CNN
F 3 "" V 8350 1475 60  0000 C CNN
	1    8350 1475
	0    1    1    0   
$EndComp
Text Label 2375 4250 0    60   ~ 0
GND
Text Label 6450 3300 0    60   ~ 0
GND
Text Label 2425 2450 0    60   ~ 0
AVCC
Text Label 2425 2750 0    60   ~ 0
AREF
$Comp
L NCP1117ST12T3G U3
U 1 1 5739B310
P 10625 875
F 0 "U3" H 10625 1125 40  0000 C CNN
F 1 "NCP1117ST12T3G" H 10625 1075 40  0000 C CNN
F 2 "misc:DPAK" H 10625 875 60  0000 C CNN
F 3 "" H 10625 875 60  0000 C CNN
	1    10625 875 
	1    0    0    -1  
$EndComp
$Comp
L SPX2920T-5.0 U4
U 1 1 57384CCB
P 13525 875
F 0 "U4" H 13525 1125 40  0000 C CNN
F 1 "7805D2PAK" H 13525 1075 40  0000 C CNN
F 2 "misc:D2PAK_1278xx" H 13525 975 35  0000 C CIN
F 3 "" H 13525 875 60  0000 C CNN
	1    13525 875 
	1    0    0    -1  
$EndComp
$Comp
L TRANSFO-RESCUE-nixeclock T1
U 1 1 5738D9A3
P 4675 975
F 0 "T1" H 4675 1225 50  0000 C CNN
F 1 "TRANSFO" H 4675 675 50  0000 C CNN
F 2 "Transformers_CHK:Trafo_CHK-EI48-8VA_1xSec" H 4675 975 60  0000 C CNN
F 3 "" H 4675 975 60  0000 C CNN
	1    4675 975 
	1    0    0    1   
$EndComp
$Comp
L CONN_01X02 P16
U 1 1 57390762
P 3275 950
F 0 "P16" H 3275 1100 50  0000 C CNN
F 1 "CONN_01X02" V 3375 950 50  0000 C CNN
F 2 "Socket_Strips:Socket_Strip_Straight_1x02" H 3275 950 60  0001 C CNN
F 3 "" H 3275 950 60  0000 C CNN
	1    3275 950 
	-1   0    0    1   
$EndComp
$Comp
L L_Small L3
U 1 1 57397EA8
P 14700 825
F 0 "L3" H 14730 865 50  0000 L CNN
F 1 "100uH" H 14730 785 50  0000 L CNN
F 2 "Choke_SMD:Choke_SMD_12x12mm_h8mm" H 14700 825 60  0001 C CNN
F 3 "" H 14700 825 60  0000 C CNN
	1    14700 825 
	0    1    1    0   
$EndComp
$Comp
L C_Small C17
U 1 1 57391093
P 11300 1950
F 0 "C17" H 11310 2020 50  0000 L CNN
F 1 "100nF" H 11310 1870 50  0000 L CNN
F 2 "Capacitors_SMD:c_elec_6.3x5.3" H 11300 1950 60  0001 C CNN
F 3 "" H 11300 1950 60  0000 C CNN
	1    11300 1950
	1    0    0    -1  
$EndComp
$Comp
L GND #PWR044
U 1 1 57393D17
P 11300 2075
F 0 "#PWR044" H 11300 1825 50  0001 C CNN
F 1 "GND" H 11300 1925 50  0000 C CNN
F 2 "" H 11300 2075 60  0000 C CNN
F 3 "" H 11300 2075 60  0000 C CNN
	1    11300 2075
	1    0    0    -1  
$EndComp
$Comp
L CONN_01X02 P3
U 1 1 5739CE65
P 15825 1875
F 0 "P3" H 15825 2025 50  0000 C CNN
F 1 "CONN_01X02" V 15925 1875 50  0000 C CNN
F 2 "Pin_Headers:Pin_Header_Angled_1x02" H 15825 1875 60  0001 C CNN
F 3 "" H 15825 1875 60  0000 C CNN
	1    15825 1875
	1    0    0    -1  
$EndComp
$Comp
L CONN_01X01 P17
U 1 1 5739F53E
P 15425 1500
F 0 "P17" H 15425 1600 50  0000 C CNN
F 1 "CONN_01X01" V 15525 1500 50  0000 C CNN
F 2 "Pin_Headers:Pin_Header_Straight_1x01" H 15425 1500 60  0001 C CNN
F 3 "" H 15425 1500 60  0000 C CNN
	1    15425 1500
	1    0    0    -1  
$EndComp
$Comp
L CONN_01X01 P7
U 1 1 5739F6E5
P 15425 825
F 0 "P7" H 15425 925 50  0000 C CNN
F 1 "CONN_01X01" V 15525 825 50  0000 C CNN
F 2 "Pin_Headers:Pin_Header_Straight_1x01" H 15425 825 60  0001 C CNN
F 3 "" H 15425 825 60  0000 C CNN
	1    15425 825 
	1    0    0    -1  
$EndComp
$Comp
L R_Small R27
U 1 1 573A7AD1
P 8325 5300
F 0 "R27" H 8355 5320 50  0000 L CNN
F 1 "10k" H 8355 5260 50  0000 L CNN
F 2 "Resistors_SMD:R_0805_HandSoldering" H 8325 5300 60  0001 C CNN
F 3 "" H 8325 5300 60  0000 C CNN
	1    8325 5300
	0    1    1    0   
$EndComp
$Comp
L R_Small R28
U 1 1 573A8719
P 10000 5300
F 0 "R28" H 10030 5320 50  0000 L CNN
F 1 "10k" H 10030 5260 50  0000 L CNN
F 2 "Resistors_SMD:R_0805_HandSoldering" H 10000 5300 60  0001 C CNN
F 3 "" H 10000 5300 60  0000 C CNN
	1    10000 5300
	0    1    1    0   
$EndComp
$Comp
L R_Small R29
U 1 1 573A8F95
P 11525 5275
F 0 "R29" H 11555 5295 50  0000 L CNN
F 1 "10k" H 11555 5235 50  0000 L CNN
F 2 "Resistors_SMD:R_0805_HandSoldering" H 11525 5275 60  0001 C CNN
F 3 "" H 11525 5275 60  0000 C CNN
	1    11525 5275
	0    1    1    0   
$EndComp
$Comp
L R_Small R30
U 1 1 573A911C
P 13225 5275
F 0 "R30" H 13255 5295 50  0000 L CNN
F 1 "10k" H 13255 5235 50  0000 L CNN
F 2 "Resistors_SMD:R_0805_HandSoldering" H 13225 5275 60  0001 C CNN
F 3 "" H 13225 5275 60  0000 C CNN
	1    13225 5275
	0    1    1    0   
$EndComp
Wire Wire Line
	5150 3725 5150 4150
Wire Wire Line
	5250 3725 5150 3725
Wire Wire Line
	5250 2850 5250 3725
Connection ~ 15250 8450
Wire Wire Line
	15500 8450 15500 8300
Connection ~ 8075 1300
Wire Wire Line
	7825 1300 8075 1300
Wire Wire Line
	7825 1125 7825 1300
Connection ~ 8350 1300
Wire Wire Line
	9000 1300 8350 1300
Connection ~ 8225 1625
Wire Wire Line
	8350 1625 8350 1575
Wire Wire Line
	8075 1625 8350 1625
Wire Wire Line
	8075 1575 8075 1625
Connection ~ 8225 1025
Wire Wire Line
	8075 1025 8350 1025
Wire Wire Line
	8350 1375 8350 1225
Wire Wire Line
	8075 1375 8075 1225
Connection ~ 7425 3250
Wire Wire Line
	7800 3050 7425 3050
Wire Wire Line
	8400 3050 8000 3050
Wire Wire Line
	8400 3150 8400 3050
Wire Wire Line
	8450 3150 8400 3150
Connection ~ 7425 3900
Connection ~ 7425 3700
Wire Wire Line
	7525 3700 7425 3700
Connection ~ 7425 3475
Wire Wire Line
	7625 3475 7425 3475
Wire Wire Line
	7425 3250 7750 3250
Wire Wire Line
	7425 3050 7425 4050
Wire Wire Line
	8400 3550 8450 3550
Wire Wire Line
	8400 3900 8400 3550
Wire Wire Line
	8025 3900 8400 3900
Wire Wire Line
	8350 3450 8450 3450
Wire Wire Line
	8350 3700 8350 3450
Wire Wire Line
	8125 3700 8350 3700
Wire Wire Line
	8300 3350 8450 3350
Wire Wire Line
	8300 3475 8300 3350
Wire Wire Line
	8225 3475 8300 3475
Wire Wire Line
	8350 3250 8450 3250
Wire Wire Line
	15525 3375 15425 3375
Wire Wire Line
	15300 3475 15525 3475
Wire Wire Line
	15300 3375 15300 3475
Wire Wire Line
	15000 8300 15000 8125
Wire Wire Line
	15025 8450 15500 8450
Wire Wire Line
	15025 8550 15025 8450
Wire Wire Line
	15000 8125 15175 8125
Wire Wire Line
	14900 7550 14900 8650
Wire Wire Line
	15175 7550 14900 7550
Wire Wire Line
	15075 8025 15175 8025
Wire Wire Line
	15075 7650 15075 8025
Wire Wire Line
	15175 7650 15075 7650
Wire Wire Line
	14900 8650 15175 8650
Wire Wire Line
	15175 8550 15025 8550
Wire Wire Line
	15225 7050 15125 7050
Wire Wire Line
	15225 6950 15125 6950
Wire Wire Line
	15225 6850 15125 6850
Wire Wire Line
	15225 6750 15125 6750
Connection ~ 8025 8350
Connection ~ 7875 8425
Connection ~ 7800 8500
Connection ~ 7750 8575
Connection ~ 7700 8650
Connection ~ 7650 8725
Connection ~ 7600 8800
Connection ~ 7550 8875
Connection ~ 7500 8950
Connection ~ 7450 9025
Connection ~ 11425 9025
Wire Wire Line
	11425 6925 11425 9025
Connection ~ 9550 9025
Wire Wire Line
	9550 6925 9550 9025
Wire Wire Line
	7450 9025 7450 6925
Wire Wire Line
	7175 9025 13150 9025
Wire Wire Line
	13150 9025 13150 6925
Connection ~ 11500 8950
Wire Wire Line
	11500 7025 11500 8950
Connection ~ 9600 8950
Wire Wire Line
	9600 7025 9600 8950
Wire Wire Line
	7500 8950 7500 7025
Wire Wire Line
	7175 8950 13200 8950
Wire Wire Line
	13200 8950 13200 7025
Connection ~ 11550 8875
Wire Wire Line
	11550 7125 11550 8875
Connection ~ 9650 8875
Wire Wire Line
	9650 7125 9650 8875
Wire Wire Line
	7550 8875 7550 7125
Wire Wire Line
	7175 8875 13250 8875
Wire Wire Line
	13250 8875 13250 7125
Connection ~ 9700 8800
Wire Wire Line
	9700 7225 9700 8800
Connection ~ 11600 8800
Wire Wire Line
	11600 7225 11600 8800
Wire Wire Line
	7600 8800 7600 7225
Wire Wire Line
	7175 8800 13300 8800
Wire Wire Line
	13300 8800 13300 7225
Connection ~ 11650 8725
Wire Wire Line
	13350 8725 13350 7325
Connection ~ 9750 8725
Wire Wire Line
	11650 8725 11650 7325
Wire Wire Line
	9750 8725 9750 7325
Wire Wire Line
	7175 8725 13350 8725
Wire Wire Line
	7650 7325 7650 8725
Connection ~ 11700 8650
Wire Wire Line
	13400 8650 13400 7425
Connection ~ 9800 8650
Wire Wire Line
	11700 8650 11700 7425
Wire Wire Line
	9800 8650 9800 7425
Wire Wire Line
	7175 8650 13400 8650
Wire Wire Line
	7700 7425 7700 8650
Connection ~ 11750 8575
Wire Wire Line
	13450 8575 13450 7525
Connection ~ 9850 8575
Wire Wire Line
	11750 8575 11750 7525
Wire Wire Line
	9850 8575 9850 7525
Wire Wire Line
	7175 8575 13450 8575
Wire Wire Line
	7750 7525 7750 8575
Connection ~ 11800 8500
Wire Wire Line
	13500 8500 13500 7625
Connection ~ 9900 8500
Wire Wire Line
	11800 8500 11800 7625
Wire Wire Line
	9900 8500 9900 7625
Wire Wire Line
	7175 8500 13500 8500
Wire Wire Line
	7800 7625 7800 8500
Connection ~ 13625 8350
Connection ~ 10000 8350
Connection ~ 11850 8425
Wire Wire Line
	13575 8425 13575 7725
Connection ~ 9950 8425
Wire Wire Line
	11850 8425 11850 7725
Wire Wire Line
	9950 8425 9950 7725
Wire Wire Line
	7175 8425 13575 8425
Wire Wire Line
	7875 7725 7875 8425
Wire Wire Line
	10000 7825 10000 8350
Connection ~ 11900 8350
Wire Wire Line
	11900 7825 11900 8350
Wire Wire Line
	13625 8350 13625 7825
Wire Wire Line
	7175 8350 13625 8350
Wire Wire Line
	8025 7825 8025 8350
Wire Wire Line
	8125 7825 8025 7825
Wire Wire Line
	7875 7725 8125 7725
Wire Wire Line
	7800 7625 8125 7625
Wire Wire Line
	7750 7525 8125 7525
Wire Wire Line
	7700 7425 8125 7425
Wire Wire Line
	7650 7325 8125 7325
Wire Wire Line
	7600 7225 8125 7225
Wire Wire Line
	7550 7125 8125 7125
Wire Wire Line
	7500 7025 8125 7025
Wire Wire Line
	7450 6925 8125 6925
Wire Wire Line
	10100 7825 10000 7825
Wire Wire Line
	9950 7725 10100 7725
Wire Wire Line
	9900 7625 10100 7625
Wire Wire Line
	9850 7525 10100 7525
Wire Wire Line
	9800 7425 10100 7425
Wire Wire Line
	9750 7325 10100 7325
Wire Wire Line
	9700 7225 10100 7225
Wire Wire Line
	9650 7125 10100 7125
Wire Wire Line
	9600 7025 10100 7025
Wire Wire Line
	9550 6925 10100 6925
Wire Wire Line
	12000 7825 11900 7825
Wire Wire Line
	11850 7725 12000 7725
Wire Wire Line
	11800 7625 12000 7625
Wire Wire Line
	11750 7525 12000 7525
Wire Wire Line
	11700 7425 12000 7425
Wire Wire Line
	11650 7325 12000 7325
Wire Wire Line
	11600 7225 12000 7225
Wire Wire Line
	11550 7125 12000 7125
Wire Wire Line
	11500 7025 12000 7025
Wire Wire Line
	11425 6925 12000 6925
Wire Wire Line
	13625 7825 13725 7825
Wire Wire Line
	13575 7725 13725 7725
Wire Wire Line
	13500 7625 13725 7625
Wire Wire Line
	13450 7525 13725 7525
Wire Wire Line
	13400 7425 13725 7425
Wire Wire Line
	13350 7325 13725 7325
Wire Wire Line
	13300 7225 13725 7225
Wire Wire Line
	13250 7125 13725 7125
Wire Wire Line
	13200 7025 13725 7025
Wire Wire Line
	13150 6925 13725 6925
Wire Wire Line
	14450 6600 14850 6600
Wire Wire Line
	14450 6975 14450 6600
Wire Wire Line
	14550 6975 14450 6975
Wire Wire Line
	12750 6600 13075 6600
Wire Wire Line
	12750 7000 12750 6600
Wire Wire Line
	12850 7000 12750 7000
Wire Wire Line
	10900 6600 11200 6600
Wire Wire Line
	10900 7025 10900 6600
Wire Wire Line
	10950 7025 10900 7025
Wire Wire Line
	8925 6600 9200 6600
Wire Wire Line
	8925 7050 8925 6600
Wire Wire Line
	9000 7050 8925 7050
Wire Wire Line
	9150 7425 9150 7300
Wire Wire Line
	9025 7425 9150 7425
Wire Wire Line
	11100 7425 11100 7275
Wire Wire Line
	11000 7425 11100 7425
Wire Wire Line
	13000 7425 13000 7250
Wire Wire Line
	12900 7425 13000 7425
Wire Wire Line
	14700 7425 14700 7225
Wire Wire Line
	14625 7425 14700 7425
Wire Wire Line
	2100 5350 2100 5425
Wire Wire Line
	1875 5450 1875 5350
Wire Wire Line
	1700 5450 1875 5450
Wire Wire Line
	1700 5350 1700 5450
Wire Wire Line
	5700 6525 4850 6525
Wire Wire Line
	5700 6450 5700 6525
Wire Wire Line
	5750 6450 5700 6450
Wire Wire Line
	4850 7475 5700 7475
Wire Wire Line
	5700 7475 5700 7400
Wire Wire Line
	4950 6000 4825 6000
Wire Wire Line
	4925 6950 4825 6950
Wire Wire Line
	4925 7950 4825 7950
Wire Wire Line
	5500 5700 5600 5700
Wire Wire Line
	5500 5800 5500 5700
Wire Wire Line
	5500 6625 5600 6625
Wire Wire Line
	5500 6750 5500 6625
Wire Wire Line
	6325 6150 6425 6150
Wire Wire Line
	6325 6250 6325 6150
Wire Wire Line
	6300 7125 6350 7125
Wire Wire Line
	6300 7200 6300 7125
Wire Wire Line
	5500 7675 5550 7675
Wire Wire Line
	5500 7750 5500 7675
Wire Wire Line
	5125 7950 5200 7950
Wire Wire Line
	5125 6950 5200 6950
Wire Wire Line
	5150 6000 5200 6000
Wire Wire Line
	5950 6450 6025 6450
Wire Wire Line
	5900 7400 6000 7400
Wire Wire Line
	5500 8225 5500 8150
Wire Wire Line
	6300 7600 6300 7675
Wire Wire Line
	5500 7150 5500 7225
Wire Wire Line
	6325 6650 6325 6725
Wire Wire Line
	5500 6200 5500 6300
Wire Wire Line
	3475 6525 2750 6525
Wire Wire Line
	3475 6450 3475 6525
Wire Wire Line
	3525 6450 3475 6450
Wire Wire Line
	2600 7475 3475 7475
Wire Wire Line
	3475 7475 3475 7400
Wire Wire Line
	2725 6000 2600 6000
Wire Wire Line
	2700 6950 2600 6950
Wire Wire Line
	2700 7950 2600 7950
Wire Wire Line
	3275 5700 3375 5700
Wire Wire Line
	3275 5800 3275 5700
Wire Wire Line
	3275 6625 3375 6625
Wire Wire Line
	3275 6750 3275 6625
Wire Wire Line
	4100 6150 4200 6150
Wire Wire Line
	4100 6250 4100 6150
Wire Wire Line
	4075 7125 4125 7125
Wire Wire Line
	4075 7200 4075 7125
Wire Wire Line
	3275 7675 3325 7675
Wire Wire Line
	3275 7750 3275 7675
Wire Wire Line
	2900 7950 2975 7950
Wire Wire Line
	2900 6950 2975 6950
Wire Wire Line
	2925 6000 2975 6000
Wire Wire Line
	3725 6450 3800 6450
Wire Wire Line
	3675 7400 3775 7400
Wire Wire Line
	3275 8225 3275 8150
Wire Wire Line
	4075 7600 4075 7675
Wire Wire Line
	3275 7150 3275 7225
Wire Wire Line
	4100 6650 4100 6725
Wire Wire Line
	3275 6200 3275 6300
Wire Wire Line
	1050 6600 925  6600
Wire Wire Line
	1050 6500 925  6500
Wire Wire Line
	1050 6400 925  6400
Wire Wire Line
	1050 6300 925  6300
Connection ~ 12025 4125
Connection ~ 12600 4125
Connection ~ 13825 4125
Connection ~ 11075 4150
Connection ~ 12125 4125
Wire Wire Line
	12025 3950 12025 4150
Connection ~ 9400 4150
Connection ~ 10600 4150
Wire Wire Line
	15125 5275 15025 5275
Wire Wire Line
	15125 5175 15025 5175
Wire Wire Line
	15125 5075 15025 5075
Wire Wire Line
	15125 4975 15025 4975
Wire Wire Line
	15175 3950 15175 4075
Wire Wire Line
	15175 3375 15300 3375
Wire Wire Line
	15175 3550 15175 3375
Wire Wire Line
	13675 3750 14550 3750
Wire Wire Line
	14875 3750 14750 3750
Wire Wire Line
	13525 5275 13325 5275
Wire Wire Line
	14300 4975 14550 4975
Wire Wire Line
	14300 4800 14300 4975
Wire Wire Line
	13825 5475 13825 5650
Wire Wire Line
	13825 4125 13825 4250
Wire Wire Line
	14300 4125 14300 4400
Connection ~ 13825 4600
Wire Wire Line
	14000 4600 13825 4600
Wire Wire Line
	13825 4450 13825 4725
Wire Wire Line
	13825 4925 13825 5075
Wire Wire Line
	11825 5275 11625 5275
Wire Wire Line
	12600 4975 12850 4975
Wire Wire Line
	12600 4800 12600 4975
Wire Wire Line
	12125 5475 12125 5650
Wire Wire Line
	12125 4125 12125 4250
Wire Wire Line
	12025 4125 14300 4125
Wire Wire Line
	12600 4125 12600 4400
Connection ~ 12125 4600
Wire Wire Line
	12300 4600 12125 4600
Wire Wire Line
	12125 4450 12125 4725
Wire Wire Line
	12125 4925 12125 5075
Wire Wire Line
	10300 5300 10100 5300
Wire Wire Line
	11075 5000 11325 5000
Wire Wire Line
	11075 4825 11075 5000
Wire Wire Line
	10600 5500 10600 5675
Wire Wire Line
	10600 4150 10600 4275
Wire Wire Line
	11075 4150 11075 4425
Connection ~ 10600 4625
Wire Wire Line
	10775 4625 10600 4625
Wire Wire Line
	10600 4475 10600 4750
Wire Wire Line
	10600 4950 10600 5100
Wire Wire Line
	8625 5300 8425 5300
Wire Wire Line
	9400 5000 9650 5000
Wire Wire Line
	9400 4825 9400 5000
Wire Wire Line
	8925 5500 8925 5675
Wire Wire Line
	8925 4150 8925 4275
Wire Wire Line
	12025 4150 8925 4150
Wire Wire Line
	9400 4150 9400 4425
Connection ~ 8925 4625
Wire Wire Line
	9100 4625 8925 4625
Wire Wire Line
	8925 4475 8925 4750
Wire Wire Line
	8925 4950 8925 5100
Wire Wire Line
	2350 2250 2350 2275
Connection ~ 2525 1950
Wire Wire Line
	2350 1950 2525 1950
Wire Wire Line
	2350 2050 2350 1950
Connection ~ 2525 2150
Wire Wire Line
	2600 2150 2525 2150
Wire Wire Line
	9550 1225 14450 1225
Connection ~ 14450 825 
Connection ~ 13525 1225
Connection ~ 14150 1225
Connection ~ 14150 825 
Wire Wire Line
	14450 1225 14450 1100
Wire Wire Line
	14150 1225 14150 1100
Wire Wire Line
	14450 825  14450 900 
Wire Wire Line
	14150 825  14150 900 
Connection ~ 12900 1225
Wire Wire Line
	13525 1225 13525 1125
Connection ~ 12900 825 
Connection ~ 12600 1225
Connection ~ 12275 1225
Wire Wire Line
	12900 1225 12900 1100
Wire Wire Line
	12600 1225 12600 1100
Connection ~ 12600 825 
Wire Wire Line
	12900 825  12900 900 
Wire Wire Line
	12600 825  12600 900 
Wire Wire Line
	11150 825  11150 875 
Connection ~ 11525 1225
Wire Wire Line
	12275 1225 12275 800 
Connection ~ 12175 825 
Connection ~ 11875 825 
Wire Wire Line
	12175 825  12175 800 
Wire Wire Line
	14850 2625 14850 2725
Connection ~ 14850 2250
Wire Wire Line
	14850 2250 14850 2425
Wire Wire Line
	15225 1925 15625 1925
Wire Wire Line
	15125 1850 15550 1850
Wire Wire Line
	15125 1925 15125 1850
Connection ~ 15125 2250
Wire Wire Line
	15225 2250 15225 2125
Wire Wire Line
	15125 2250 15125 2125
Connection ~ 15025 2250
Wire Wire Line
	15025 2250 15025 2475
Wire Wire Line
	14750 2250 15225 2250
Connection ~ 14600 1750
Wire Wire Line
	14600 2750 14600 2875
Wire Wire Line
	14600 2550 14600 2500
Wire Wire Line
	14600 2000 14600 1950
Connection ~ 14125 1750
Wire Wire Line
	14125 2025 14125 2450
Wire Wire Line
	14125 1750 14125 1825
Connection ~ 12950 1750
Wire Wire Line
	12950 2375 12950 1750
Wire Wire Line
	13400 1750 15050 1750
Wire Wire Line
	13100 1750 13100 1950
Wire Wire Line
	11900 1750 13100 1750
Connection ~ 12300 3125
Wire Wire Line
	12950 3125 12950 2775
Connection ~ 12300 2575
Connection ~ 12125 3125
Wire Wire Line
	12125 3125 12125 3200
Wire Wire Line
	11950 3125 11950 3075
Wire Wire Line
	11950 3125 12950 3125
Wire Wire Line
	12300 3125 12300 3025
Connection ~ 11950 2825
Wire Wire Line
	12200 2575 12650 2575
Wire Wire Line
	12300 2625 12300 2575
Wire Wire Line
	11950 2825 12000 2825
Connection ~ 11950 2575
Wire Wire Line
	11950 2575 11950 2875
Wire Wire Line
	11425 2575 12000 2575
Connection ~ 11550 1750
Connection ~ 11550 2325
Connection ~ 10975 1750
Wire Wire Line
	11550 2325 11425 2325
Wire Wire Line
	11550 1750 11550 2425
Wire Wire Line
	11550 2425 11425 2425
Wire Wire Line
	11425 2725 11525 2725
Wire Wire Line
	10975 2000 10975 2025
Connection ~ 10575 1975
Wire Wire Line
	10575 1750 11700 1750
Wire Wire Line
	10975 1800 10975 1750
Connection ~ 9725 3100
Wire Wire Line
	10575 3100 9725 3100
Wire Wire Line
	10575 3025 10575 3100
Wire Wire Line
	9725 3025 9725 3150
Wire Wire Line
	9725 2825 9725 2675
Wire Wire Line
	10575 1750 10575 2025
Wire Wire Line
	9600 1975 10575 1975
Wire Wire Line
	9600 2375 9600 1975
Wire Wire Line
	9725 2375 9600 2375
Wire Wire Line
	11875 825  11875 700 
Connection ~ 11525 825 
Connection ~ 11150 1225
Connection ~ 10625 1225
Connection ~ 11150 825 
Wire Wire Line
	11525 825  11525 875 
Wire Wire Line
	11025 825  13125 825 
Wire Wire Line
	11525 1225 11525 1075
Wire Wire Line
	11150 1225 11150 1075
Connection ~ 9925 1225
Wire Wire Line
	10625 1225 10625 1125
Connection ~ 9925 825 
Connection ~ 9750 1225
Wire Wire Line
	9750 1225 9750 1375
Wire Wire Line
	9925 1225 9925 1100
Wire Wire Line
	9550 1100 9550 1225
Connection ~ 9550 825 
Wire Wire Line
	9925 825  9925 900 
Wire Wire Line
	9550 825  9550 900 
Wire Wire Line
	8225 825  10225 825 
Wire Wire Line
	8225 825  8225 1025
Wire Wire Line
	8225 1625 8225 2550
Wire Wire Line
	9000 2400 9000 1300
Wire Wire Line
	7425 2400 9000 2400
Wire Wire Line
	7425 1225 7425 2400
Wire Wire Line
	7000 1125 7825 1125
Wire Wire Line
	7000 1225 7425 1225
Wire Wire Line
	5625 3950 5650 3950
Wire Wire Line
	5625 3825 5625 3950
Wire Wire Line
	5850 3950 5900 3950
Wire Wire Line
	5100 3825 5625 3825
Wire Wire Line
	4500 2150 5500 2150
Wire Wire Line
	5250 4050 5900 4050
Wire Wire Line
	4500 2850 5250 2850
Wire Wire Line
	5150 4150 5900 4150
Wire Wire Line
	4500 4250 5900 4250
Wire Wire Line
	4500 4350 5900 4350
Wire Wire Line
	4500 2250 4575 2250
Wire Wire Line
	4500 2350 4725 2350
Wire Wire Line
	4500 4450 5100 4450
Wire Wire Line
	4500 4150 4750 4150
Wire Wire Line
	4500 4050 4750 4050
Wire Wire Line
	4500 3950 4750 3950
Wire Wire Line
	4500 3850 4750 3850
Wire Wire Line
	4500 2750 5450 2750
Wire Wire Line
	4500 3300 4725 3300
Wire Wire Line
	4500 3200 4725 3200
Wire Wire Line
	4500 3100 4725 3100
Wire Wire Line
	4500 3000 4725 3000
Wire Wire Line
	6200 775  6200 925 
Wire Wire Line
	6650 3400 6400 3400
Wire Wire Line
	5900 1750 5900 1900
Wire Wire Line
	5500 1750 5500 1900
Wire Wire Line
	4900 3600 5025 3600
Wire Wire Line
	4500 3600 4700 3600
Wire Wire Line
	6575 4650 6575 4725
Connection ~ 6575 3800
Wire Wire Line
	6475 4050 6475 3800
Wire Wire Line
	6475 3800 6650 3800
Wire Wire Line
	6575 4050 6575 3800
Wire Wire Line
	6375 3300 6650 3300
Wire Wire Line
	6375 3025 6375 3300
Wire Wire Line
	5925 3025 6375 3025
Connection ~ 5925 3025
Wire Wire Line
	5925 3025 5925 3250
Connection ~ 6450 2500
Wire Wire Line
	5925 2500 5925 2825
Wire Wire Line
	6450 2500 5925 2500
Wire Wire Line
	6450 2375 6450 3200
Wire Wire Line
	6450 3200 6650 3200
Wire Wire Line
	5400 3400 4500 3400
Wire Wire Line
	5400 3600 5400 3400
Wire Wire Line
	6650 3600 5400 3600
Wire Wire Line
	5325 3500 4500 3500
Wire Wire Line
	5325 3700 5325 3500
Wire Wire Line
	6650 3700 5325 3700
Connection ~ 2275 1825
Wire Wire Line
	2275 1825 2275 1675
Wire Wire Line
	2075 1825 2075 1925
Wire Wire Line
	2075 1825 2525 1825
Wire Wire Line
	2525 1825 2525 2250
Wire Wire Line
	2525 2250 2600 2250
Connection ~ 2350 3025
Wire Wire Line
	2075 3025 2350 3025
Wire Wire Line
	2075 2725 2075 3025
Connection ~ 2075 2450
Wire Wire Line
	2075 2425 2075 2525
Wire Wire Line
	2600 2450 2075 2450
Wire Wire Line
	2350 2775 2350 2750
Wire Wire Line
	2350 2975 2350 3050
Wire Wire Line
	2350 2750 2600 2750
Connection ~ 2375 4450
Connection ~ 2375 4350
Wire Wire Line
	2375 4450 2600 4450
Wire Wire Line
	2375 4350 2600 4350
Wire Wire Line
	2375 4250 2375 4600
Wire Wire Line
	2600 4250 2375 4250
Wire Wire Line
	5400 1850 5400 1750
Wire Wire Line
	5600 2450 5600 1750
Wire Wire Line
	4500 2450 5600 2450
Wire Wire Line
	5700 2550 5700 1750
Wire Wire Line
	4500 2550 5700 2550
Wire Wire Line
	5800 2650 5800 1750
Wire Wire Line
	4500 2650 5800 2650
Wire Wire Line
	5250 4050 5250 3775
Wire Wire Line
	5250 3775 5450 3775
Wire Wire Line
	5450 3775 5450 2750
Wire Wire Line
	5100 4450 5100 3825
Wire Wire Line
	4275 775  3975 775 
Wire Wire Line
	3975 775  3975 900 
Wire Wire Line
	4275 1175 3500 1175
Wire Wire Line
	3475 1000 3500 1000
Wire Wire Line
	3500 1000 3500 1175
Wire Wire Line
	7025 1125 7025 775 
Wire Wire Line
	7025 775  5075 775 
Connection ~ 7025 1125
Wire Wire Line
	7050 1225 7050 1450
Wire Wire Line
	7050 1450 6250 1450
Wire Wire Line
	6250 1450 6250 1175
Wire Wire Line
	6250 1175 5075 1175
Connection ~ 7050 1225
Wire Wire Line
	3975 900  3475 900 
Wire Wire Line
	13925 825  14600 825 
Wire Wire Line
	14800 825  15000 825 
Wire Wire Line
	11900 825  11875 825 
Connection ~ 11900 825 
Wire Wire Line
	11650 1750 11650 1375
Wire Wire Line
	11650 1375 11900 1375
Wire Wire Line
	11900 1375 11900 825 
Connection ~ 11650 1750
Wire Wire Line
	11300 1850 11300 1750
Connection ~ 11300 1750
Wire Wire Line
	11300 2050 11300 2075
Wire Wire Line
	15550 1850 15550 1825
Wire Wire Line
	15550 1825 15625 1825
Wire Wire Line
	15225 825  15225 625 
Wire Wire Line
	15225 625  14900 625 
Wire Wire Line
	14900 625  14900 825 
Connection ~ 14900 825 
Wire Wire Line
	15225 1500 15225 1400
Wire Wire Line
	15225 1400 14975 1400
Wire Wire Line
	14975 1400 14975 1750
Connection ~ 14975 1750
Wire Wire Line
	8225 5300 8100 5300
Wire Wire Line
	9900 5300 9750 5300
Wire Wire Line
	9750 5300 9750 5275
Wire Wire Line
	11425 5275 11325 5275
Wire Wire Line
	11325 5275 11325 5200
Wire Wire Line
	13125 5275 13050 5275
Wire Wire Line
	13050 5275 13050 5250
$EndSCHEMATC
