(export (version D)
  (design
    (source "C:\\Users\\Maciej\\Desktop\\KICAD WORKSPACE\\NIXIE\\nixeclock.sch")
    (date "15/05/2016 23:06:59")
    (tool "Eeschema 4.0.0-rc1-stable")
    (sheet (number 1) (name /) (tstamps /)
      (title_block
        (title)
        (company)
        (rev)
        (date)
        (source nixeclock.sch)
        (comment (number 1) (value ""))
        (comment (number 2) (value ""))
        (comment (number 3) (value ""))
        (comment (number 4) (value "")))))
  (components
    (comp (ref IC1)
      (value ATMEGA168PA-A)
      (footprint Housings_QFP:TQFP-32_7x7mm_Pitch0.8mm)
      (libsource (lib atmel) (part ATMEGA168PA-A))
      (sheetpath (names /) (tstamps /))
      (tstamp 5737025A))
    (comp (ref C3)
      (value 100nF)
      (footprint Capacitors_SMD:C_0805_HandSoldering)
      (libsource (lib device) (part C_Small))
      (sheetpath (names /) (tstamps /))
      (tstamp 5737053D))
    (comp (ref L1)
      (value 10uH)
      (footprint SMD_Packages:SMD-1210_Pol)
      (libsource (lib device) (part INDUCTOR_SMALL))
      (sheetpath (names /) (tstamps /))
      (tstamp 5737078D))
    (comp (ref C1)
      (value 100nF)
      (footprint Capacitors_SMD:C_0805_HandSoldering)
      (libsource (lib device) (part C_Small))
      (sheetpath (names /) (tstamps /))
      (tstamp 57370858))
    (comp (ref P4)
      (value CONN_01X07)
      (footprint Socket_Strips:Socket_Strip_Straight_1x07)
      (libsource (lib conn) (part CONN_01X07))
      (sheetpath (names /) (tstamps /))
      (tstamp 57370B29))
    (comp (ref C4)
      (value 100nF)
      (footprint Capacitors_SMD:C_0805_HandSoldering)
      (libsource (lib device) (part C_Small))
      (sheetpath (names /) (tstamps /))
      (tstamp 5737101F))
    (comp (ref BT1)
      (value BATTERY_CR2032)
      (footprint CR2032:BATT_CR2032_TE)
      (libsource (lib cr2023) (part BATTERY_CR2032))
      (sheetpath (names /) (tstamps /))
      (tstamp 57370EB6))
    (comp (ref R6)
      (value 10k)
      (footprint Resistors_SMD:R_0805_HandSoldering)
      (libsource (lib device) (part R_Small))
      (sheetpath (names /) (tstamps /))
      (tstamp 57371ABB))
    (comp (ref P1)
      (value CONN_01X06)
      (footprint Socket_Strips:Socket_Strip_Straight_1x06)
      (libsource (lib conn) (part CONN_01X06))
      (sheetpath (names /) (tstamps /))
      (tstamp 57371DA6))
    (comp (ref P2)
      (value CONN_01X05)
      (footprint Socket_Strips:Socket_Strip_Straight_1x05)
      (libsource (lib conn) (part CONN_01X05))
      (sheetpath (names /) (tstamps /))
      (tstamp 573756D4))
    (comp (ref R10)
      (value 1k)
      (footprint Resistors_SMD:R_0805_HandSoldering)
      (libsource (lib device) (part R_Small))
      (sheetpath (names /) (tstamps /))
      (tstamp 573758AF))
    (comp (ref C5)
      (value 100nF)
      (footprint Capacitors_SMD:C_0805_HandSoldering)
      (libsource (lib device) (part C_Small))
      (sheetpath (names /) (tstamps /))
      (tstamp 573766D9))
    (comp (ref C7)
      (value 100uF)
      (footprint Capacitors_SMD:c_elec_6.3x5.3)
      (libsource (lib device) (part CP_Small))
      (sheetpath (names /) (tstamps /))
      (tstamp 5737671C))
    (comp (ref C10)
      (value 100uF)
      (footprint Capacitors_SMD:c_elec_6.3x5.3)
      (libsource (lib device) (part CP_Small))
      (sheetpath (names /) (tstamps /))
      (tstamp 57376C37))
    (comp (ref U2)
      (value MC34063)
      (footprint SMD_Packages:SOIC-8-N)
      (libsource (lib regul) (part MC34063))
      (sheetpath (names /) (tstamps /))
      (tstamp 573770E7))
    (comp (ref C6)
      (value 1nF)
      (footprint Capacitors_SMD:C_0805_HandSoldering)
      (libsource (lib device) (part C_Small))
      (sheetpath (names /) (tstamps /))
      (tstamp 57377868))
    (comp (ref C8)
      (value 100uF)
      (footprint Capacitors_SMD:c_elec_6.3x5.3)
      (libsource (lib device) (part CP_Small))
      (sheetpath (names /) (tstamps /))
      (tstamp 57377D09))
    (comp (ref L2)
      (value 3,3mH)
      (footprint Choke_Radial_ThroughHole:Choke_Radial_27mm_2,8mm-Drills_CD_Bobin_Type_No1410311)
      (libsource (lib device) (part L_Small))
      (sheetpath (names /) (tstamps /))
      (tstamp 573782A5))
    (comp (ref D2)
      (value 1n4148)
      (footprint Diodes_SMD:MiniMELF_Handsoldering)
      (libsource (lib device) (part D_Schottky_Small))
      (sheetpath (names /) (tstamps /))
      (tstamp 5737C78F))
    (comp (ref Q16)
      (value BC807-40)
      (footprint TO_SOT_Packages_SMD:SOT-23)
      (libsource (lib transistors) (part BC807-40))
      (sheetpath (names /) (tstamps /))
      (tstamp 5737C8B1))
    (comp (ref R17)
      (value 10k)
      (footprint Resistors_SMD:R_0805_HandSoldering)
      (libsource (lib device) (part R_Small))
      (sheetpath (names /) (tstamps /))
      (tstamp 5737CBCC))
    (comp (ref Q18)
      (value Q_NMOS_GDS)
      (footprint misc:DPAK)
      (libsource (lib device) (part Q_NMOS_GDS))
      (sheetpath (names /) (tstamps /))
      (tstamp 5737CE74))
    (comp (ref Q19)
      (value BAS23DIODA)
      (footprint TO_SOT_Packages_SMD:SOT-23)
      (libsource (lib transistors) (part BC807-40))
      (sheetpath (names /) (tstamps /))
      (tstamp 5737D2F7))
    (comp (ref C13)
      (value 4.7uF)
      (footprint Capacitors_ThroughHole:C_Radial_D8_L11.5_P3.5)
      (libsource (lib device) (part CP_Small))
      (sheetpath (names /) (tstamps /))
      (tstamp 5737DDEB))
    (comp (ref R22)
      (value 680k)
      (footprint Resistors_SMD:R_0805_HandSoldering)
      (libsource (lib device) (part R_Small))
      (sheetpath (names /) (tstamps /))
      (tstamp 5737E026))
    (comp (ref R23)
      (value 4k7)
      (footprint Resistors_SMD:R_0805_HandSoldering)
      (libsource (lib device) (part R_Small))
      (sheetpath (names /) (tstamps /))
      (tstamp 5737E0C8))
    (comp (ref RV4)
      (value 5k)
      (footprint Potentiometers:Potentiometer_Triwood_RM-065)
      (libsource (lib device) (part POT))
      (sheetpath (names /) (tstamps /))
      (tstamp 5737E1C7))
    (comp (ref R25)
      (value 470k)
      (footprint Resistors_SMD:R_0805_HandSoldering)
      (libsource (lib device) (part R_Small))
      (sheetpath (names /) (tstamps /))
      (tstamp 5737F76B))
    (comp (ref R26)
      (value 220k)
      (footprint Resistors_SMD:R_0805_HandSoldering)
      (libsource (lib device) (part R_Small))
      (sheetpath (names /) (tstamps /))
      (tstamp 5737F9B8))
    (comp (ref C16)
      (value 100nF)
      (footprint Capacitors_SMD:C_0805_HandSoldering)
      (libsource (lib device) (part C_Small))
      (sheetpath (names /) (tstamps /))
      (tstamp 57380C89))
    (comp (ref C9)
      (value 100nF)
      (footprint Capacitors_SMD:c_elec_6.3x5.3)
      (libsource (lib device) (part C_Small))
      (sheetpath (names /) (tstamps /))
      (tstamp 57376C31))
    (comp (ref C11)
      (value 100nF)
      (footprint Capacitors_SMD:c_elec_6.3x5.3)
      (libsource (lib device) (part C_Small))
      (sheetpath (names /) (tstamps /))
      (tstamp 5738411D))
    (comp (ref C12)
      (value 100uF)
      (footprint Capacitors_SMD:c_elec_6.3x5.3)
      (libsource (lib device) (part CP_Small))
      (sheetpath (names /) (tstamps /))
      (tstamp 5738468B))
    (comp (ref C14)
      (value 100nF)
      (footprint Capacitors_SMD:C_0805_HandSoldering)
      (libsource (lib device) (part C_Small))
      (sheetpath (names /) (tstamps /))
      (tstamp 573852A7))
    (comp (ref C15)
      (value 100uF)
      (footprint Capacitors_SMD:c_elec_6.3x5.3)
      (libsource (lib device) (part CP_Small))
      (sheetpath (names /) (tstamps /))
      (tstamp 573852AD))
    (comp (ref C2)
      (value 100nF)
      (footprint Capacitors_SMD:C_0805_HandSoldering)
      (libsource (lib device) (part C_Small))
      (sheetpath (names /) (tstamps /))
      (tstamp 5738A4EC))
    (comp (ref Q11)
      (value MMBTA42)
      (footprint TO_SOT_Packages_SMD:SOT-23)
      (libsource (lib transistors) (part MMBT3904))
      (sheetpath (names /) (tstamps /))
      (tstamp 5738C365))
    (comp (ref Q12)
      (value MMBTA92)
      (footprint TO_SOT_Packages_SMD:SOT-23)
      (libsource (lib transistors) (part MMBT3906))
      (sheetpath (names /) (tstamps /))
      (tstamp 5738C406))
    (comp (ref R14)
      (value 470k)
      (footprint Resistors_SMD:R_0805_HandSoldering)
      (libsource (lib device) (part R_Small))
      (sheetpath (names /) (tstamps /))
      (tstamp 5738C5D5))
    (comp (ref R13)
      (value 100k)
      (footprint Resistors_SMD:R_0805_HandSoldering)
      (libsource (lib device) (part R_Small))
      (sheetpath (names /) (tstamps /))
      (tstamp 5738C68D))
    (comp (ref Q13)
      (value MMBTA42)
      (footprint TO_SOT_Packages_SMD:SOT-23)
      (libsource (lib transistors) (part MMBT3904))
      (sheetpath (names /) (tstamps /))
      (tstamp 5738D628))
    (comp (ref Q14)
      (value MMBTA92)
      (footprint TO_SOT_Packages_SMD:SOT-23)
      (libsource (lib transistors) (part MMBT3906))
      (sheetpath (names /) (tstamps /))
      (tstamp 5738D62E))
    (comp (ref R16)
      (value 470k)
      (footprint Resistors_SMD:R_0805_HandSoldering)
      (libsource (lib device) (part R_Small))
      (sheetpath (names /) (tstamps /))
      (tstamp 5738D634))
    (comp (ref R15)
      (value 100k)
      (footprint Resistors_SMD:R_0805_HandSoldering)
      (libsource (lib device) (part R_Small))
      (sheetpath (names /) (tstamps /))
      (tstamp 5738D63A))
    (comp (ref Q15)
      (value MMBTA42)
      (footprint TO_SOT_Packages_SMD:SOT-23)
      (libsource (lib transistors) (part MMBT3904))
      (sheetpath (names /) (tstamps /))
      (tstamp 5738D7E1))
    (comp (ref Q17)
      (value MMBTA92)
      (footprint TO_SOT_Packages_SMD:SOT-23)
      (libsource (lib transistors) (part MMBT3906))
      (sheetpath (names /) (tstamps /))
      (tstamp 5738D7E7))
    (comp (ref R19)
      (value 470k)
      (footprint Resistors_SMD:R_0805_HandSoldering)
      (libsource (lib device) (part R_Small))
      (sheetpath (names /) (tstamps /))
      (tstamp 5738D7ED))
    (comp (ref R18)
      (value 100k)
      (footprint Resistors_SMD:R_0805_HandSoldering)
      (libsource (lib device) (part R_Small))
      (sheetpath (names /) (tstamps /))
      (tstamp 5738D7F3))
    (comp (ref Q20)
      (value MMBTA42)
      (footprint TO_SOT_Packages_SMD:SOT-23)
      (libsource (lib transistors) (part MMBT3904))
      (sheetpath (names /) (tstamps /))
      (tstamp 5738E4F8))
    (comp (ref Q21)
      (value MMBTA92)
      (footprint TO_SOT_Packages_SMD:SOT-23)
      (libsource (lib transistors) (part MMBT3906))
      (sheetpath (names /) (tstamps /))
      (tstamp 5738E4FE))
    (comp (ref R21)
      (value 470k)
      (footprint Resistors_SMD:R_0805_HandSoldering)
      (libsource (lib device) (part R_Small))
      (sheetpath (names /) (tstamps /))
      (tstamp 5738E504))
    (comp (ref R20)
      (value 100k)
      (footprint Resistors_SMD:R_0805_HandSoldering)
      (libsource (lib device) (part R_Small))
      (sheetpath (names /) (tstamps /))
      (tstamp 5738E50A))
    (comp (ref Q22)
      (value MMBTA42)
      (footprint TO_SOT_Packages_SMD:SOT-23)
      (libsource (lib transistors) (part MMBT3904))
      (sheetpath (names /) (tstamps /))
      (tstamp 573943A3))
    (comp (ref R24)
      (value 10k)
      (footprint Resistors_SMD:R_0805_HandSoldering)
      (libsource (lib device) (part R_Small))
      (sheetpath (names /) (tstamps /))
      (tstamp 5739486F))
    (comp (ref P9)
      (value CONN_01X04)
      (footprint Socket_Strips:Socket_Strip_Straight_1x04)
      (libsource (lib conn) (part CONN_01X04))
      (sheetpath (names /) (tstamps /))
      (tstamp 5739D0AE))
    (comp (ref Q1)
      (value MMBTA42)
      (footprint TO_SOT_Packages_SMD:SOT-23)
      (libsource (lib transistors) (part MMBT3904))
      (sheetpath (names /) (tstamps /))
      (tstamp 573A3908))
    (comp (ref U1)
      (value 4028)
      (footprint SMD_Packages:SO-16-N)
      (libsource (lib cmos4000) (part 4028))
      (sheetpath (names /) (tstamps /))
      (tstamp 573A4130))
    (comp (ref Q5)
      (value MMBTA42)
      (footprint TO_SOT_Packages_SMD:SOT-23)
      (libsource (lib transistors) (part MMBT3904))
      (sheetpath (names /) (tstamps /))
      (tstamp 573A5B53))
    (comp (ref Q2)
      (value MMBTA42)
      (footprint TO_SOT_Packages_SMD:SOT-23)
      (libsource (lib transistors) (part MMBT3904))
      (sheetpath (names /) (tstamps /))
      (tstamp 573A5C3C))
    (comp (ref Q4)
      (value MMBTA42)
      (footprint TO_SOT_Packages_SMD:SOT-23)
      (libsource (lib transistors) (part MMBT3904))
      (sheetpath (names /) (tstamps /))
      (tstamp 573A6250))
    (comp (ref Q3)
      (value MMBTA42)
      (footprint TO_SOT_Packages_SMD:SOT-23)
      (libsource (lib transistors) (part MMBT3904))
      (sheetpath (names /) (tstamps /))
      (tstamp 573A6337))
    (comp (ref R3)
      (value 10k)
      (footprint Resistors_SMD:R_0805_HandSoldering)
      (libsource (lib device) (part R_Small))
      (sheetpath (names /) (tstamps /))
      (tstamp 573A863A))
    (comp (ref R5)
      (value 10k)
      (footprint Resistors_SMD:R_0805_HandSoldering)
      (libsource (lib device) (part R_Small))
      (sheetpath (names /) (tstamps /))
      (tstamp 573A9887))
    (comp (ref R1)
      (value 10k)
      (footprint Resistors_SMD:R_0805_HandSoldering)
      (libsource (lib device) (part R_Small))
      (sheetpath (names /) (tstamps /))
      (tstamp 573A9981))
    (comp (ref R2)
      (value 10k)
      (footprint Resistors_SMD:R_0805_HandSoldering)
      (libsource (lib device) (part R_Small))
      (sheetpath (names /) (tstamps /))
      (tstamp 573A9EAB))
    (comp (ref R4)
      (value 10k)
      (footprint Resistors_SMD:R_0805_HandSoldering)
      (libsource (lib device) (part R_Small))
      (sheetpath (names /) (tstamps /))
      (tstamp 573A9FBF))
    (comp (ref Q6)
      (value MMBTA42)
      (footprint TO_SOT_Packages_SMD:SOT-23)
      (libsource (lib transistors) (part MMBT3904))
      (sheetpath (names /) (tstamps /))
      (tstamp 573AE0C9))
    (comp (ref Q10)
      (value MMBTA42)
      (footprint TO_SOT_Packages_SMD:SOT-23)
      (libsource (lib transistors) (part MMBT3904))
      (sheetpath (names /) (tstamps /))
      (tstamp 573AE0CF))
    (comp (ref Q7)
      (value MMBTA42)
      (footprint TO_SOT_Packages_SMD:SOT-23)
      (libsource (lib transistors) (part MMBT3904))
      (sheetpath (names /) (tstamps /))
      (tstamp 573AE0D5))
    (comp (ref Q9)
      (value MMBTA42)
      (footprint TO_SOT_Packages_SMD:SOT-23)
      (libsource (lib transistors) (part MMBT3904))
      (sheetpath (names /) (tstamps /))
      (tstamp 573AE0DB))
    (comp (ref Q8)
      (value MMBTA42)
      (footprint TO_SOT_Packages_SMD:SOT-23)
      (libsource (lib transistors) (part MMBT3904))
      (sheetpath (names /) (tstamps /))
      (tstamp 573AE0E1))
    (comp (ref R9)
      (value 10k)
      (footprint Resistors_SMD:R_0805_HandSoldering)
      (libsource (lib device) (part R_Small))
      (sheetpath (names /) (tstamps /))
      (tstamp 573AE10A))
    (comp (ref R12)
      (value 10k)
      (footprint Resistors_SMD:R_0805_HandSoldering)
      (libsource (lib device) (part R_Small))
      (sheetpath (names /) (tstamps /))
      (tstamp 573AE110))
    (comp (ref R7)
      (value 10k)
      (footprint Resistors_SMD:R_0805_HandSoldering)
      (libsource (lib device) (part R_Small))
      (sheetpath (names /) (tstamps /))
      (tstamp 573AE116))
    (comp (ref R8)
      (value 10k)
      (footprint Resistors_SMD:R_0805_HandSoldering)
      (libsource (lib device) (part R_Small))
      (sheetpath (names /) (tstamps /))
      (tstamp 573AE11C))
    (comp (ref R11)
      (value 10k)
      (footprint Resistors_SMD:R_0805_HandSoldering)
      (libsource (lib device) (part R_Small))
      (sheetpath (names /) (tstamps /))
      (tstamp 573AE122))
    (comp (ref N1)
      (value IN-12A)
      (footprint nixie:mopsiok_nixie_IN-12A)
      (libsource (lib mopsiok_nixie) (part IN-12A))
      (sheetpath (names /) (tstamps /))
      (tstamp 573B58A7))
    (comp (ref N2)
      (value IN-12A)
      (footprint nixie:mopsiok_nixie_IN-12A)
      (libsource (lib mopsiok_nixie) (part IN-12A))
      (sheetpath (names /) (tstamps /))
      (tstamp 573B5A30))
    (comp (ref N3)
      (value IN-12A)
      (footprint nixie:mopsiok_nixie_IN-12A)
      (libsource (lib mopsiok_nixie) (part IN-12A))
      (sheetpath (names /) (tstamps /))
      (tstamp 573B5B7F))
    (comp (ref N4)
      (value IN-12A)
      (footprint nixie:mopsiok_nixie_IN-12A)
      (libsource (lib mopsiok_nixie) (part IN-12A))
      (sheetpath (names /) (tstamps /))
      (tstamp 573B5CB1))
    (comp (ref RV1)
      (value 47k)
      (footprint Potentiometers:Potentiometer_Triwood_RM-065)
      (libsource (lib device) (part POT))
      (sheetpath (names /) (tstamps /))
      (tstamp 573B8212))
    (comp (ref RV2)
      (value 47k)
      (footprint Potentiometers:Potentiometer_Triwood_RM-065)
      (libsource (lib device) (part POT))
      (sheetpath (names /) (tstamps /))
      (tstamp 573B83AB))
    (comp (ref RV3)
      (value 47k)
      (footprint Potentiometers:Potentiometer_Triwood_RM-065)
      (libsource (lib device) (part POT))
      (sheetpath (names /) (tstamps /))
      (tstamp 573B84E8))
    (comp (ref RV5)
      (value 47k)
      (footprint Potentiometers:Potentiometer_Triwood_RM-065)
      (libsource (lib device) (part POT))
      (sheetpath (names /) (tstamps /))
      (tstamp 573B9F42))
    (comp (ref P13)
      (value CONN_01X04)
      (footprint Socket_Strips:Socket_Strip_Straight_1x04)
      (libsource (lib conn) (part CONN_01X04))
      (sheetpath (names /) (tstamps /))
      (tstamp 573E4903))
    (comp (ref P6)
      (value CONN_01X10)
      (footprint Socket_Strips:Socket_Strip_Straight_1x10)
      (libsource (lib conn) (part CONN_01X10))
      (sheetpath (names /) (tstamps /))
      (tstamp 573E845F))
    (comp (ref P5)
      (value CONN_01X10)
      (footprint Socket_Strips:Socket_Strip_Straight_1x10)
      (libsource (lib conn) (part CONN_01X10))
      (sheetpath (names /) (tstamps /))
      (tstamp 5740072C))
    (comp (ref P12)
      (value CONN_01X02)
      (footprint Socket_Strips:Socket_Strip_Straight_1x02)
      (libsource (lib conn) (part CONN_01X02))
      (sheetpath (names /) (tstamps /))
      (tstamp 5740311A))
    (comp (ref P11)
      (value NEON2)
      (footprint Socket_Strips:Socket_Strip_Straight_1x02)
      (libsource (lib conn) (part CONN_01X02))
      (sheetpath (names /) (tstamps /))
      (tstamp 5740866C))
    (comp (ref P10)
      (value NEON1)
      (footprint Socket_Strips:Socket_Strip_Straight_1x02)
      (libsource (lib conn) (part CONN_01X02))
      (sheetpath (names /) (tstamps /))
      (tstamp 574087B9))
    (comp (ref RV6)
      (value 47k)
      (footprint Potentiometers:Potentiometer_Triwood_RM-065)
      (libsource (lib device) (part POT))
      (sheetpath (names /) (tstamps /))
      (tstamp 5740E5CD))
    (comp (ref P14)
      (value CONN_01X02)
      (footprint Socket_Strips:Socket_Strip_Straight_1x02)
      (libsource (lib conn) (part CONN_01X02))
      (sheetpath (names /) (tstamps /))
      (tstamp 57422304))
    (comp (ref P15)
      (value CONN_01X05)
      (footprint Socket_Strips:Socket_Strip_Straight_1x05)
      (libsource (lib conn) (part CONN_01X05))
      (sheetpath (names /) (tstamps /))
      (tstamp 5742922D))
    (comp (ref SW4)
      (value SW_PUSH)
      (footprint Socket_Strips:Socket_Strip_Straight_1x02)
      (libsource (lib device) (part SW_PUSH))
      (sheetpath (names /) (tstamps /))
      (tstamp 574294DB))
    (comp (ref SW3)
      (value SW_PUSH)
      (footprint Socket_Strips:Socket_Strip_Straight_1x02)
      (libsource (lib device) (part SW_PUSH))
      (sheetpath (names /) (tstamps /))
      (tstamp 57429649))
    (comp (ref SW2)
      (value SW_PUSH)
      (footprint Socket_Strips:Socket_Strip_Straight_1x02)
      (libsource (lib device) (part SW_PUSH))
      (sheetpath (names /) (tstamps /))
      (tstamp 574297AD))
    (comp (ref SW1)
      (value SW_PUSH)
      (footprint Socket_Strips:Socket_Strip_Straight_1x02)
      (libsource (lib device) (part SW_PUSH))
      (sheetpath (names /) (tstamps /))
      (tstamp 574298FA))
    (comp (ref D3)
      (value Led_Small)
      (footprint LEDs:LED-3MM)
      (libsource (lib device) (part Led_Small))
      (sheetpath (names /) (tstamps /))
      (tstamp 5742B0CD))
    (comp (ref D1)
      (value D_Small)
      (footprint Diodes_SMD:DO-214AB)
      (libsource (lib device) (part D_Small))
      (sheetpath (names /) (tstamps /))
      (tstamp 57378E59))
    (comp (ref D5)
      (value D_Small)
      (footprint Diodes_SMD:DO-214AB)
      (libsource (lib device) (part D_Small))
      (sheetpath (names /) (tstamps /))
      (tstamp 57378FDD))
    (comp (ref D4)
      (value D_Small)
      (footprint Diodes_SMD:DO-214AB)
      (libsource (lib device) (part D_Small))
      (sheetpath (names /) (tstamps /))
      (tstamp 57379133))
    (comp (ref D6)
      (value D_Small)
      (footprint Diodes_SMD:DO-214AB)
      (libsource (lib device) (part D_Small))
      (sheetpath (names /) (tstamps /))
      (tstamp 57379288))
    (comp (ref U3)
      (value NCP1117ST12T3G)
      (footprint misc:DPAK)
      (libsource (lib regul) (part NCP1117ST12T3G))
      (sheetpath (names /) (tstamps /))
      (tstamp 5739B310))
    (comp (ref U4)
      (value 7805D2PAK)
      (footprint misc:D2PAK_1278xx)
      (libsource (lib regul) (part SPX2920T-5.0))
      (sheetpath (names /) (tstamps /))
      (tstamp 57384CCB))
    (comp (ref T1)
      (value TRANSFO)
      (footprint Transformers_CHK:Trafo_CHK-EI48-8VA_1xSec)
      (libsource (lib nixeclock-rescue) (part TRANSFO-RESCUE-nixeclock))
      (sheetpath (names /) (tstamps /))
      (tstamp 5738D9A3))
    (comp (ref P16)
      (value CONN_01X02)
      (footprint Socket_Strips:Socket_Strip_Straight_1x02)
      (libsource (lib conn) (part CONN_01X02))
      (sheetpath (names /) (tstamps /))
      (tstamp 57390762))
    (comp (ref L3)
      (value 100uH)
      (footprint Choke_SMD:Choke_SMD_12x12mm_h8mm)
      (libsource (lib device) (part L_Small))
      (sheetpath (names /) (tstamps /))
      (tstamp 57397EA8))
    (comp (ref C17)
      (value 100nF)
      (footprint Capacitors_SMD:c_elec_6.3x5.3)
      (libsource (lib device) (part C_Small))
      (sheetpath (names /) (tstamps /))
      (tstamp 57391093))
    (comp (ref P3)
      (value CONN_01X02)
      (footprint Pin_Headers:Pin_Header_Angled_1x02)
      (libsource (lib conn) (part CONN_01X02))
      (sheetpath (names /) (tstamps /))
      (tstamp 5739CE65))
    (comp (ref P17)
      (value CONN_01X01)
      (footprint Pin_Headers:Pin_Header_Straight_1x01)
      (libsource (lib conn) (part CONN_01X01))
      (sheetpath (names /) (tstamps /))
      (tstamp 5739F53E))
    (comp (ref P7)
      (value CONN_01X01)
      (footprint Pin_Headers:Pin_Header_Straight_1x01)
      (libsource (lib conn) (part CONN_01X01))
      (sheetpath (names /) (tstamps /))
      (tstamp 5739F6E5))
    (comp (ref R27)
      (value 10k)
      (footprint Resistors_SMD:R_0805_HandSoldering)
      (libsource (lib device) (part R_Small))
      (sheetpath (names /) (tstamps /))
      (tstamp 573A7AD1))
    (comp (ref R28)
      (value 10k)
      (footprint Resistors_SMD:R_0805_HandSoldering)
      (libsource (lib device) (part R_Small))
      (sheetpath (names /) (tstamps /))
      (tstamp 573A8719))
    (comp (ref R29)
      (value 10k)
      (footprint Resistors_SMD:R_0805_HandSoldering)
      (libsource (lib device) (part R_Small))
      (sheetpath (names /) (tstamps /))
      (tstamp 573A8F95))
    (comp (ref R30)
      (value 10k)
      (footprint Resistors_SMD:R_0805_HandSoldering)
      (libsource (lib device) (part R_Small))
      (sheetpath (names /) (tstamps /))
      (tstamp 573A911C)))
  (libparts
    (libpart (lib transistors) (part BC807-40)
      (aliases
        (alias BC808-40))
      (description "45V Vce, 0.8A Ic, PNP, SOT-23")
      (docs http://www.fairchildsemi.com/ds/BC/BC807.pdf)
      (footprints
        (fp SOT-23*))
      (fields
        (field (name Reference) Q)
        (field (name Value) BC807-40)
        (field (name Footprint) SOT-23))
      (pins
        (pin (num 1) (name B) (type input))
        (pin (num 2) (name E) (type passive))
        (pin (num 3) (name C) (type passive))))
    (libpart (lib device) (part R_Small)
      (description Resistor)
      (footprints
        (fp Resistor_*)
        (fp R_*))
      (fields
        (field (name Reference) R)
        (field (name Value) R_Small))
      (pins
        (pin (num 1) (name ~) (type passive))
        (pin (num 2) (name ~) (type passive))))
    (libpart (lib device) (part SW_PUSH)
      (description Button)
      (fields
        (field (name Reference) SW)
        (field (name Value) SW_PUSH))
      (pins
        (pin (num 1) (name 1) (type passive))
        (pin (num 2) (name 2) (type passive))))
    (libpart (lib transistors) (part MMBT3904)
      (description "40V Vce, 0.2A Ic, NPN, Small Signal Transistor, SOT-23")
      (docs http://www.nxp.com/documents/data_sheet/MMBT3904.pdf)
      (footprints
        (fp SOT-23*))
      (fields
        (field (name Reference) Q)
        (field (name Value) MMBT3904)
        (field (name Footprint) SOT-23))
      (pins
        (pin (num 1) (name B) (type input))
        (pin (num 2) (name E) (type passive))
        (pin (num 3) (name C) (type passive))))
    (libpart (lib transistors) (part MMBT3906)
      (description "40V Vce, 0.2A Ic, PNP, Small Signal Transistor, SOT-23")
      (docs http://www.nxp.com/documents/data_sheet/MMBT3906.pdf)
      (footprints
        (fp SOT-23*))
      (fields
        (field (name Reference) Q)
        (field (name Value) MMBT3906)
        (field (name Footprint) SOT-23))
      (pins
        (pin (num 1) (name B) (type input))
        (pin (num 2) (name E) (type passive))
        (pin (num 3) (name C) (type passive))))
    (libpart (lib regul) (part MC34063)
      (description "1.5A step up/down/inverting switching regulator")
      (docs regulator/mc34063.pdf)
      (fields
        (field (name Reference) U)
        (field (name Value) MC34063))
      (pins
        (pin (num 1) (name Sw_Coll) (type input))
        (pin (num 2) (name Sw_Emit) (type input))
        (pin (num 3) (name Tim_Cap) (type input))
        (pin (num 4) (name GND) (type power_in))
        (pin (num 5) (name V_Sense) (type input))
        (pin (num 6) (name VCC) (type power_in))
        (pin (num 7) (name I_Sense) (type input))
        (pin (num 8) (name Drv_Coll) (type input))))
    (libpart (lib regul) (part NCP1117ST50T3G)
      (aliases
        (alias NCP1117ST12T3G)
        (alias NCP1117ST15T3G)
        (alias NCP1117ST18T3G)
        (alias NCP1117ST20T3G)
        (alias NCP1117ST25T3G)
        (alias NCP1117ST285T3G)
        (alias NCP1117ST33T3G))
      (description "1A Low drop-out regulator, Fixed Output 5V, SOT223")
      (docs http://www.onsemi.com/pub_link/Collateral/NCP1117-D.PDF)
      (footprints
        (fp SOT223))
      (fields
        (field (name Reference) U)
        (field (name Value) NCP1117ST50T3G))
      (pins
        (pin (num 1) (name GND) (type power_in))
        (pin (num 2) (name VO) (type power_out))
        (pin (num 3) (name VI) (type power_in))))
    (libpart (lib regul) (part SPX2920T-3.3)
      (aliases
        (alias SPX2920T-5.0))
      (description "400mA Low drop-out regulator, Fixed Output 3.3V, TO-263")
      (footprints
        (fp TO*))
      (fields
        (field (name Reference) U)
        (field (name Value) SPX2920T-3.3)
        (field (name Footprint) TO-263))
      (pins
        (pin (num 1) (name VI) (type power_in))
        (pin (num 2) (name GND) (type power_in))
        (pin (num 3) (name VO) (type power_out))))
    (libpart (lib atmel) (part ATMEGA168A-A)
      (aliases
        (alias ATMEGA48A-A)
        (alias ATMEGA48PA-A)
        (alias ATMEGA88A-A)
        (alias ATMEGA88PA-A)
        (alias ATMEGA168PA-A)
        (alias ATMEGA328-A)
        (alias ATMEGA328P-A))
      (description "TQFP32, 16k Flash, 1kB SRAM, 512B EEPROM")
      (docs http://www.atmel.com/images/atmel-8271-8-bit-avr-microcontroller-atmega48a-48pa-88a-88pa-168a-168pa-328-328p_datasheet.pdf)
      (fields
        (field (name Reference) IC)
        (field (name Value) ATMEGA168A-A)
        (field (name Footprint) TQFP32))
      (pins
        (pin (num 1) (name "(PCINT19/OC2B/INT1)PD3") (type BiDi))
        (pin (num 2) (name "(PCINT20/XCK/T0)PD4") (type BiDi))
        (pin (num 3) (name GND) (type power_in))
        (pin (num 4) (name VCC) (type power_in))
        (pin (num 5) (name GND) (type power_in))
        (pin (num 6) (name VCC) (type power_in))
        (pin (num 7) (name "(PCINT6/XTAL1/TOSC1)PB6") (type BiDi))
        (pin (num 8) (name "(PCINT7/XTAL2/TOSC2)PB7") (type BiDi))
        (pin (num 9) (name "(PCINT21/OC0B/T1)PD5") (type BiDi))
        (pin (num 10) (name "(PCINT22/OC0A/AIN0)PD6") (type BiDi))
        (pin (num 11) (name "(PCINT23/AIN1)PD7") (type BiDi))
        (pin (num 12) (name "(PCINT0/CLKO/ICP1)PB0") (type BiDi))
        (pin (num 13) (name "(PCINT1/OC1A)PB1") (type BiDi))
        (pin (num 14) (name "(PCINT2/OC1B/~SS~)PB2") (type BiDi))
        (pin (num 15) (name "(PCINT3/OC2A/MOSI)PB3") (type BiDi))
        (pin (num 16) (name "(PCINT4/MISO)PB4") (type BiDi))
        (pin (num 17) (name "(PCINT5/SCK)PB5") (type BiDi))
        (pin (num 18) (name AVCC) (type power_in))
        (pin (num 19) (name ADC6) (type input))
        (pin (num 20) (name AREF) (type BiDi))
        (pin (num 21) (name GND) (type power_in))
        (pin (num 22) (name ADC7) (type input))
        (pin (num 23) (name "(PCINT8/ADC0)PC0") (type BiDi))
        (pin (num 24) (name "(PCINT9/ADC1)PC1") (type BiDi))
        (pin (num 25) (name "(PCINT10/ADC2)PC2") (type BiDi))
        (pin (num 26) (name "(PCINT11/ADC3)PC3") (type BiDi))
        (pin (num 27) (name "(PCINT12/SDA/ADC4)PC4") (type BiDi))
        (pin (num 28) (name "(PCINT13/SCL/ADC5)PC5") (type BiDi))
        (pin (num 29) (name "(PCINT14/~RESET~)PC6") (type BiDi))
        (pin (num 30) (name "(PCINT16/RXD)PD0") (type BiDi))
        (pin (num 31) (name "(PCINT17/TXD)PD1") (type BiDi))
        (pin (num 32) (name "(PCINT18/INT0)PD2") (type BiDi))))
    (libpart (lib device) (part Q_NMOS_GDS)
      (description "Transistor N-MOSFET (general)")
      (fields
        (field (name Reference) Q)
        (field (name Value) Q_NMOS_GDS))
      (pins
        (pin (num 1) (name G) (type input))
        (pin (num 2) (name D) (type passive))
        (pin (num 3) (name S) (type passive))))
    (libpart (lib device) (part POT)
      (description Potentionmetre)
      (fields
        (field (name Reference) RV)
        (field (name Value) POT))
      (pins
        (pin (num 1) (name 1) (type passive))
        (pin (num 2) (name 2) (type passive))
        (pin (num 3) (name 3) (type passive))))
    (libpart (lib device) (part Led_Small)
      (description Led)
      (footprints
        (fp CP*)
        (fp SM*))
      (fields
        (field (name Reference) D)
        (field (name Value) Led_Small))
      (pins
        (pin (num 1) (name K) (type passive))
        (pin (num 2) (name A) (type passive))))
    (libpart (lib device) (part L_Small)
      (description Inductor)
      (footprints
        (fp CP*)
        (fp SM*))
      (fields
        (field (name Reference) L)
        (field (name Value) L_Small))
      (pins
        (pin (num 1) (name ~) (type passive))
        (pin (num 2) (name ~) (type passive))))
    (libpart (lib device) (part INDUCTOR_SMALL)
      (fields
        (field (name Reference) L)
        (field (name Value) INDUCTOR_SMALL))
      (pins
        (pin (num 1) (name 1) (type input))
        (pin (num 2) (name 2) (type input))))
    (libpart (lib device) (part D_Small)
      (description Diode)
      (footprints
        (fp Diode_*)
        (fp D-Pak_TO252AA)
        (fp *SingleDiode)
        (fp *SingleDiode*)
        (fp *_Diode_*))
      (fields
        (field (name Reference) D)
        (field (name Value) D_Small))
      (pins
        (pin (num 1) (name K) (type passive))
        (pin (num 2) (name A) (type passive))))
    (libpart (lib device) (part D_Schottky_Small)
      (description "Diode Schottky")
      (footprints
        (fp Diode_*)
        (fp D-Pak_TO252AA)
        (fp *SingleDiode)
        (fp *SingleDiode*)
        (fp *_Diode_*))
      (fields
        (field (name Reference) D)
        (field (name Value) D_Schottky_Small))
      (pins
        (pin (num 1) (name K) (type passive))
        (pin (num 2) (name A) (type passive))))
    (libpart (lib device) (part C_Small)
      (description "Unpolarized capacitor")
      (footprints
        (fp C?)
        (fp C_????_*)
        (fp C_????)
        (fp SMD*_c)
        (fp Capacitor*))
      (fields
        (field (name Reference) C)
        (field (name Value) C_Small))
      (pins
        (pin (num 1) (name ~) (type passive))
        (pin (num 2) (name ~) (type passive))))
    (libpart (lib device) (part CP_Small)
      (description "Polarised capacitor")
      (footprints
        (fp CP*)
        (fp Elko*)
        (fp TantalC*)
        (fp C*elec)
        (fp c_elec*)
        (fp SMD*_Pol))
      (fields
        (field (name Reference) C)
        (field (name Value) CP_Small))
      (pins
        (pin (num 1) (name ~) (type passive))
        (pin (num 2) (name ~) (type passive))))
    (libpart (lib nixeclock-rescue) (part TRANSFO-RESCUE-nixeclock)
      (fields
        (field (name Reference) T)
        (field (name Value) TRANSFO-RESCUE-nixeclock))
      (pins
        (pin (num 1) (name AA) (type passive))
        (pin (num 6) (name AB) (type passive))
        (pin (num 8) (name SB) (type passive))
        (pin (num 11) (name SA) (type passive))))
    (libpart (lib cmos4000) (part 4028)
      (description "Decoder 4 to 10 lines")
      (fields
        (field (name Reference) U)
        (field (name Value) 4028))
      (pins
        (pin (num 1) (name S4) (type output))
        (pin (num 2) (name S2) (type output))
        (pin (num 3) (name S0) (type output))
        (pin (num 4) (name S7) (type output))
        (pin (num 5) (name S9) (type output))
        (pin (num 6) (name S5) (type output))
        (pin (num 7) (name S6) (type output))
        (pin (num 8) (name VSS) (type power_in))
        (pin (num 9) (name S8) (type output))
        (pin (num 10) (name A) (type input))
        (pin (num 11) (name D) (type input))
        (pin (num 12) (name C) (type input))
        (pin (num 13) (name B) (type input))
        (pin (num 14) (name S1) (type output))
        (pin (num 15) (name S3) (type output))
        (pin (num 16) (name VDD) (type power_in))))
    (libpart (lib mopsiok_nixie) (part IN-12A)
      (fields
        (field (name Reference) N)
        (field (name Value) IN-12A)
        (field (name Footprint) mopsiok_nixie_IN-12A))
      (pins
        (pin (num 0) (name 0) (type BiDi))
        (pin (num 1) (name 1) (type BiDi))
        (pin (num 2) (name 2) (type BiDi))
        (pin (num 3) (name 3) (type BiDi))
        (pin (num 4) (name 4) (type BiDi))
        (pin (num 5) (name 5) (type BiDi))
        (pin (num 6) (name 6) (type BiDi))
        (pin (num 7) (name 7) (type BiDi))
        (pin (num 8) (name 8) (type BiDi))
        (pin (num 9) (name 9) (type BiDi))
        (pin (num A) (name A) (type BiDi))))
    (libpart (lib cr2023) (part BATTERY_CR2032)
      (fields
        (field (name Reference) BT)
        (field (name Value) BATTERY_CR2032))
      (pins
        (pin (num 0) (name +) (type passive))
        (pin (num 1) (name +) (type passive))
        (pin (num 2) (name -) (type passive))))
    (libpart (lib conn) (part CONN_01X01)
      (footprints
        (fp Pin_Header_Straight_1X01)
        (fp Pin_Header_Angled_1X01)
        (fp Socket_Strip_Straight_1X01)
        (fp Socket_Strip_Angled_1X01))
      (fields
        (field (name Reference) P)
        (field (name Value) CONN_01X01))
      (pins
        (pin (num 1) (name P1) (type passive))))
    (libpart (lib conn) (part CONN_01X02)
      (footprints
        (fp Pin_Header_Straight_1X02)
        (fp Pin_Header_Angled_1X02)
        (fp Socket_Strip_Straight_1X02)
        (fp Socket_Strip_Angled_1X02))
      (fields
        (field (name Reference) P)
        (field (name Value) CONN_01X02))
      (pins
        (pin (num 1) (name P1) (type passive))
        (pin (num 2) (name P2) (type passive))))
    (libpart (lib conn) (part CONN_01X04)
      (footprints
        (fp Pin_Header_Straight_1X04)
        (fp Pin_Header_Angled_1X04)
        (fp Socket_Strip_Straight_1X04)
        (fp Socket_Strip_Angled_1X04))
      (fields
        (field (name Reference) P)
        (field (name Value) CONN_01X04))
      (pins
        (pin (num 1) (name P1) (type passive))
        (pin (num 2) (name P2) (type passive))
        (pin (num 3) (name P3) (type passive))
        (pin (num 4) (name P4) (type passive))))
    (libpart (lib conn) (part CONN_01X05)
      (footprints
        (fp Pin_Header_Straight_1X05)
        (fp Pin_Header_Angled_1X05)
        (fp Socket_Strip_Straight_1X05)
        (fp Socket_Strip_Angled_1X05))
      (fields
        (field (name Reference) P)
        (field (name Value) CONN_01X05))
      (pins
        (pin (num 1) (name P1) (type passive))
        (pin (num 2) (name P2) (type passive))
        (pin (num 3) (name P3) (type passive))
        (pin (num 4) (name P4) (type passive))
        (pin (num 5) (name P5) (type passive))))
    (libpart (lib conn) (part CONN_01X06)
      (footprints
        (fp Pin_Header_Straight_1X06)
        (fp Pin_Header_Angled_1X06)
        (fp Socket_Strip_Straight_1X06)
        (fp Socket_Strip_Angled_1X06))
      (fields
        (field (name Reference) P)
        (field (name Value) CONN_01X06))
      (pins
        (pin (num 1) (name P1) (type passive))
        (pin (num 2) (name P2) (type passive))
        (pin (num 3) (name P3) (type passive))
        (pin (num 4) (name P4) (type passive))
        (pin (num 5) (name P5) (type passive))
        (pin (num 6) (name P6) (type passive))))
    (libpart (lib conn) (part CONN_01X07)
      (footprints
        (fp Pin_Header_Straight_1X07)
        (fp Pin_Header_Angled_1X07)
        (fp Socket_Strip_Straight_1X07)
        (fp Socket_Strip_Angled_1X07))
      (fields
        (field (name Reference) P)
        (field (name Value) CONN_01X07))
      (pins
        (pin (num 1) (name P1) (type passive))
        (pin (num 2) (name P2) (type passive))
        (pin (num 3) (name P3) (type passive))
        (pin (num 4) (name P4) (type passive))
        (pin (num 5) (name P5) (type passive))
        (pin (num 6) (name P6) (type passive))
        (pin (num 7) (name P7) (type passive))))
    (libpart (lib conn) (part CONN_01X10)
      (footprints
        (fp Pin_Header_Straight_1X10)
        (fp Pin_Header_Angled_1X10)
        (fp Socket_Strip_Straight_1X10)
        (fp Socket_Strip_Angled_1X10))
      (fields
        (field (name Reference) P)
        (field (name Value) CONN_01X10))
      (pins
        (pin (num 1) (name P1) (type passive))
        (pin (num 2) (name P2) (type passive))
        (pin (num 3) (name P3) (type passive))
        (pin (num 4) (name P4) (type passive))
        (pin (num 5) (name P5) (type passive))
        (pin (num 6) (name P6) (type passive))
        (pin (num 7) (name P7) (type passive))
        (pin (num 8) (name P8) (type passive))
        (pin (num 9) (name P9) (type passive))
        (pin (num 10) (name P10) (type passive)))))
  (libraries
    (library (logical regul)
      (uri "C:\\Program Files\\KiCad\\share\\kicad\\library\\regul.lib"))
    (library (logical atmel)
      (uri "C:\\Program Files\\KiCad\\share\\kicad\\library\\atmel.lib"))
    (library (logical cr2023)
      (uri "C:\\Users\\Maciej\\Desktop\\KICAD WORKSPACE\\KiCad-Libraries-master\\KiCad-Libraries-master\\modules\\cr2023\\cr2023.lib"))
    (library (logical conn)
      (uri "C:\\Program Files\\KiCad\\share\\kicad\\library\\conn.lib"))
    (library (logical transistors)
      (uri "C:\\Program Files\\KiCad\\share\\kicad\\library\\transistors.lib"))
    (library (logical nixeclock-rescue)
      (uri "C:\\Users\\Maciej\\Desktop\\KICAD WORKSPACE\\NIXIE\\nixeclock-rescue.lib"))
    (library (logical device)
      (uri "C:\\Program Files\\KiCad\\share\\kicad\\library\\device.lib"))
    (library (logical mopsiok_nixie)
      (uri "C:\\Users\\Maciej\\Desktop\\KICAD WORKSPACE\\NIXIE\\nixie_kicad_2015-02-12\\zegar\\mopsiok_nixie.lib"))
    (library (logical cmos4000)
      (uri "C:\\Program Files\\KiCad\\share\\kicad\\library\\cmos4000.lib")))
  (nets
    (net (code 1) (name /C7)
      (node (ref N2) (pin 3))
      (node (ref Q7) (pin 3))
      (node (ref N4) (pin 3))
      (node (ref P6) (pin 8))
      (node (ref P5) (pin 4))
      (node (ref N1) (pin 3))
      (node (ref N3) (pin 3)))
    (net (code 2) (name "Net-(N1-PadA)")
      (node (ref RV1) (pin 1))
      (node (ref N1) (pin A)))
    (net (code 3) (name "Net-(N4-PadA)")
      (node (ref RV5) (pin 1))
      (node (ref N4) (pin A)))
    (net (code 4) (name "Net-(N3-PadA)")
      (node (ref N3) (pin A))
      (node (ref RV3) (pin 1)))
    (net (code 5) (name "Net-(N2-PadA)")
      (node (ref N2) (pin A))
      (node (ref RV2) (pin 1)))
    (net (code 6) (name /C5)
      (node (ref N4) (pin 5))
      (node (ref P5) (pin 6))
      (node (ref N2) (pin 5))
      (node (ref N3) (pin 5))
      (node (ref P6) (pin 10))
      (node (ref N1) (pin 5))
      (node (ref Q6) (pin 3)))
    (net (code 7) (name /C4)
      (node (ref P6) (pin 5))
      (node (ref N4) (pin 6))
      (node (ref Q3) (pin 3))
      (node (ref N3) (pin 6))
      (node (ref N2) (pin 6))
      (node (ref N1) (pin 6))
      (node (ref P5) (pin 1)))
    (net (code 8) (name /C3)
      (node (ref P5) (pin 8))
      (node (ref N3) (pin 7))
      (node (ref N1) (pin 7))
      (node (ref N2) (pin 7))
      (node (ref Q4) (pin 3))
      (node (ref P6) (pin 4))
      (node (ref N4) (pin 7)))
    (net (code 9) (name /C2)
      (node (ref Q2) (pin 3))
      (node (ref P6) (pin 3))
      (node (ref P5) (pin 2))
      (node (ref N1) (pin 8))
      (node (ref N2) (pin 8))
      (node (ref N4) (pin 8))
      (node (ref N3) (pin 8)))
    (net (code 10) (name /C1)
      (node (ref N2) (pin 9))
      (node (ref N4) (pin 9))
      (node (ref P6) (pin 2))
      (node (ref N1) (pin 9))
      (node (ref N3) (pin 9))
      (node (ref Q5) (pin 3))
      (node (ref P5) (pin 9)))
    (net (code 11) (name /C0)
      (node (ref N1) (pin 0))
      (node (ref N4) (pin 0))
      (node (ref P5) (pin 3))
      (node (ref Q1) (pin 3))
      (node (ref N2) (pin 0))
      (node (ref P6) (pin 1))
      (node (ref N3) (pin 0)))
    (net (code 12) (name /C6)
      (node (ref N1) (pin 4))
      (node (ref N4) (pin 4))
      (node (ref N2) (pin 4))
      (node (ref P5) (pin 7))
      (node (ref P6) (pin 9))
      (node (ref Q10) (pin 3))
      (node (ref N3) (pin 4)))
    (net (code 13) (name "Net-(Q4-Pad1)")
      (node (ref R4) (pin 1))
      (node (ref Q4) (pin 1)))
    (net (code 14) (name "Net-(Q5-Pad1)")
      (node (ref Q5) (pin 1))
      (node (ref R5) (pin 1)))
    (net (code 15) (name "Net-(Q1-Pad1)")
      (node (ref R3) (pin 1))
      (node (ref Q1) (pin 1)))
    (net (code 16) (name "Net-(Q2-Pad1)")
      (node (ref R1) (pin 1))
      (node (ref Q2) (pin 1)))
    (net (code 17) (name "Net-(Q3-Pad1)")
      (node (ref Q3) (pin 1))
      (node (ref R2) (pin 1)))
    (net (code 18) (name /C4T)
      (node (ref U1) (pin 1))
      (node (ref R2) (pin 2)))
    (net (code 19) (name /A3)
      (node (ref Q17) (pin 3))
      (node (ref P9) (pin 3))
      (node (ref RV3) (pin 2))
      (node (ref P13) (pin 3)))
    (net (code 20) (name /A4)
      (node (ref P9) (pin 4))
      (node (ref RV5) (pin 2))
      (node (ref P13) (pin 4))
      (node (ref Q21) (pin 3)))
    (net (code 21) (name /C2T)
      (node (ref R1) (pin 2))
      (node (ref U1) (pin 2)))
    (net (code 22) (name /C9T)
      (node (ref R8) (pin 2))
      (node (ref U1) (pin 5)))
    (net (code 23) (name /C8)
      (node (ref N2) (pin 2))
      (node (ref N1) (pin 2))
      (node (ref P6) (pin 7))
      (node (ref P5) (pin 10))
      (node (ref Q9) (pin 3))
      (node (ref N4) (pin 2))
      (node (ref N3) (pin 2)))
    (net (code 24) (name /C9)
      (node (ref P6) (pin 6))
      (node (ref P5) (pin 5))
      (node (ref Q8) (pin 3))
      (node (ref N4) (pin 1))
      (node (ref N3) (pin 1))
      (node (ref N1) (pin 1))
      (node (ref N2) (pin 1)))
    (net (code 25) (name /C7T)
      (node (ref U1) (pin 4))
      (node (ref R7) (pin 2)))
    (net (code 26) (name /C5T)
      (node (ref U1) (pin 6))
      (node (ref R9) (pin 2)))
    (net (code 27) (name /C8T)
      (node (ref R11) (pin 2))
      (node (ref U1) (pin 9)))
    (net (code 28) (name /C6T)
      (node (ref R12) (pin 2))
      (node (ref U1) (pin 7)))
    (net (code 29) (name /C0T)
      (node (ref U1) (pin 3))
      (node (ref R3) (pin 2)))
    (net (code 30) (name /C3T)
      (node (ref U1) (pin 15))
      (node (ref R4) (pin 2)))
    (net (code 31) (name /C1T)
      (node (ref R5) (pin 2))
      (node (ref U1) (pin 14)))
    (net (code 32) (name "Net-(Q9-Pad1)")
      (node (ref Q9) (pin 1))
      (node (ref R11) (pin 1)))
    (net (code 33) (name "Net-(Q10-Pad1)")
      (node (ref R12) (pin 1))
      (node (ref Q10) (pin 1)))
    (net (code 34) (name "Net-(Q6-Pad1)")
      (node (ref Q6) (pin 1))
      (node (ref R9) (pin 1)))
    (net (code 35) (name "Net-(Q7-Pad1)")
      (node (ref R7) (pin 1))
      (node (ref Q7) (pin 1)))
    (net (code 36) (name "Net-(Q8-Pad1)")
      (node (ref Q8) (pin 1))
      (node (ref R8) (pin 1)))
    (net (code 37) (name "Net-(P15-Pad3)")
      (node (ref P15) (pin 3))
      (node (ref SW3) (pin 2)))
    (net (code 38) (name "Net-(P15-Pad4)")
      (node (ref P15) (pin 4))
      (node (ref SW2) (pin 2)))
    (net (code 39) (name "Net-(P15-Pad5)")
      (node (ref P15) (pin 5))
      (node (ref SW1) (pin 2)))
    (net (code 40) (name "Net-(D3-Pad2)")
      (node (ref P15) (pin 1))
      (node (ref D3) (pin 2)))
    (net (code 41) (name "Net-(P10-Pad2)")
      (node (ref P11) (pin 1))
      (node (ref P10) (pin 2)))
    (net (code 42) (name "Net-(P11-Pad2)")
      (node (ref RV6) (pin 3))
      (node (ref P11) (pin 2)))
    (net (code 43) (name "Net-(P15-Pad2)")
      (node (ref P15) (pin 2))
      (node (ref SW4) (pin 2)))
    (net (code 44) (name /A1T)
      (node (ref R27) (pin 2))
      (node (ref IC1) (pin 31)))
    (net (code 45) (name "Net-(Q20-Pad1)")
      (node (ref R30) (pin 1))
      (node (ref Q20) (pin 1)))
    (net (code 46) (name "Net-(Q15-Pad1)")
      (node (ref R29) (pin 1))
      (node (ref Q15) (pin 1)))
    (net (code 47) (name "Net-(Q13-Pad1)")
      (node (ref Q13) (pin 1))
      (node (ref R28) (pin 1)))
    (net (code 48) (name "Net-(Q11-Pad1)")
      (node (ref Q11) (pin 1))
      (node (ref R27) (pin 1)))
    (net (code 49) (name /A2)
      (node (ref P9) (pin 2))
      (node (ref Q14) (pin 3))
      (node (ref RV2) (pin 2))
      (node (ref P13) (pin 2)))
    (net (code 50) (name "Net-(BT1-Pad0)")
      (node (ref P4) (pin 7))
      (node (ref BT1) (pin 1))
      (node (ref BT1) (pin 0)))
    (net (code 51) (name /KB)
      (node (ref U1) (pin 13))
      (node (ref IC1) (pin 23)))
    (net (code 52) (name /KC)
      (node (ref U1) (pin 12))
      (node (ref IC1) (pin 24)))
    (net (code 53) (name /KD)
      (node (ref U1) (pin 11))
      (node (ref IC1) (pin 25)))
    (net (code 54) (name /KA)
      (node (ref IC1) (pin 26))
      (node (ref U1) (pin 10)))
    (net (code 55) (name "Net-(C5-Pad1)")
      (node (ref D1) (pin 1))
      (node (ref D5) (pin 1))
      (node (ref C7) (pin 1))
      (node (ref U3) (pin 3))
      (node (ref C5) (pin 1)))
    (net (code 56) (name /INT)
      (node (ref P4) (pin 3))
      (node (ref IC1) (pin 13)))
    (net (code 57) (name "Net-(P2-Pad1)")
      (node (ref P2) (pin 1))
      (node (ref R10) (pin 2)))
    (net (code 58) (name "Net-(P16-Pad2)")
      (node (ref P16) (pin 2))
      (node (ref T1) (pin 6)))
    (net (code 59) (name "Net-(D5-Pad2)")
      (node (ref T1) (pin 8))
      (node (ref D5) (pin 2))
      (node (ref D6) (pin 1)))
    (net (code 60) (name /A4T)
      (node (ref R30) (pin 2))
      (node (ref IC1) (pin 2)))
    (net (code 61) (name /A3T)
      (node (ref R29) (pin 2))
      (node (ref IC1) (pin 1)))
    (net (code 62) (name /A2T)
      (node (ref IC1) (pin 32))
      (node (ref R28) (pin 2)))
    (net (code 63) (name "Net-(D1-Pad2)")
      (node (ref T1) (pin 11))
      (node (ref D4) (pin 1))
      (node (ref D1) (pin 2)))
    (net (code 64) (name "Net-(P16-Pad1)")
      (node (ref T1) (pin 1))
      (node (ref P16) (pin 1)))
    (net (code 65) (name "Net-(IC1-Pad17)")
      (node (ref P1) (pin 5))
      (node (ref IC1) (pin 17)))
    (net (code 66) (name "Net-(IC1-Pad16)")
      (node (ref P1) (pin 4))
      (node (ref IC1) (pin 16)))
    (net (code 67) (name "Net-(IC1-Pad15)")
      (node (ref P1) (pin 3))
      (node (ref IC1) (pin 15)))
    (net (code 68) (name "Net-(Q12-Pad1)")
      (node (ref R14) (pin 1))
      (node (ref R13) (pin 2))
      (node (ref Q12) (pin 1)))
    (net (code 69) (name "Net-(Q11-Pad3)")
      (node (ref R14) (pin 2))
      (node (ref Q11) (pin 3)))
    (net (code 70) (name "Net-(Q13-Pad3)")
      (node (ref Q13) (pin 3))
      (node (ref R16) (pin 2)))
    (net (code 71) (name "Net-(C14-Pad1)")
      (node (ref U4) (pin 3))
      (node (ref C14) (pin 1))
      (node (ref C15) (pin 1))
      (node (ref L3) (pin 2)))
    (net (code 72) (name "Net-(Q20-Pad3)")
      (node (ref R21) (pin 2))
      (node (ref Q20) (pin 3)))
    (net (code 73) (name "Net-(Q21-Pad1)")
      (node (ref R21) (pin 1))
      (node (ref Q21) (pin 1))
      (node (ref R20) (pin 2)))
    (net (code 74) (name "Net-(Q22-Pad1)")
      (node (ref R24) (pin 1))
      (node (ref Q22) (pin 1)))
    (net (code 75) (name /SEPT)
      (node (ref R24) (pin 2))
      (node (ref IC1) (pin 30)))
    (net (code 76) (name /A1)
      (node (ref P13) (pin 1))
      (node (ref RV1) (pin 2))
      (node (ref Q12) (pin 3))
      (node (ref P9) (pin 1)))
    (net (code 77) (name "Net-(Q15-Pad3)")
      (node (ref Q15) (pin 3))
      (node (ref R19) (pin 2)))
    (net (code 78) (name "Net-(Q14-Pad1)")
      (node (ref R16) (pin 1))
      (node (ref R15) (pin 2))
      (node (ref Q14) (pin 1)))
    (net (code 79) (name "Net-(Q17-Pad1)")
      (node (ref R18) (pin 2))
      (node (ref Q17) (pin 1))
      (node (ref R19) (pin 1)))
    (net (code 80) (name "Net-(D2-Pad2)")
      (node (ref U2) (pin 2))
      (node (ref R17) (pin 1))
      (node (ref Q16) (pin 1))
      (node (ref D2) (pin 2)))
    (net (code 81) (name "Net-(D2-Pad1)")
      (node (ref Q16) (pin 2))
      (node (ref D2) (pin 1))
      (node (ref Q18) (pin 1)))
    (net (code 82) (name "Net-(C6-Pad1)")
      (node (ref C6) (pin 1))
      (node (ref U2) (pin 3)))
    (net (code 83) (name /SENS)
      (node (ref U2) (pin 5))
      (node (ref RV4) (pin 2))
      (node (ref R25) (pin 2))
      (node (ref R26) (pin 2))
      (node (ref C16) (pin 1)))
    (net (code 84) (name +12VA)
      (node (ref C11) (pin 1))
      (node (ref U2) (pin 6))
      (node (ref C12) (pin 1))
      (node (ref U2) (pin 1))
      (node (ref U2) (pin 7))
      (node (ref C17) (pin 1))
      (node (ref C10) (pin 1))
      (node (ref C9) (pin 1))
      (node (ref U4) (pin 1))
      (node (ref U2) (pin 8))
      (node (ref U3) (pin 2))
      (node (ref C8) (pin 1))
      (node (ref L2) (pin 1)))
    (net (code 85) (name "Net-(L2-Pad2)")
      (node (ref L2) (pin 2))
      (node (ref Q18) (pin 2))
      (node (ref Q19) (pin 1)))
    (net (code 86) (name "Net-(R22-Pad2)")
      (node (ref RV4) (pin 1))
      (node (ref R22) (pin 2)))
    (net (code 87) (name "Net-(R23-Pad1)")
      (node (ref RV4) (pin 3))
      (node (ref R23) (pin 1)))
    (net (code 88) (name VAA)
      (node (ref R20) (pin 1))
      (node (ref P14) (pin 1))
      (node (ref RV6) (pin 2))
      (node (ref RV6) (pin 1))
      (node (ref P12) (pin 1))
      (node (ref P17) (pin 1))
      (node (ref Q14) (pin 2))
      (node (ref R18) (pin 1))
      (node (ref Q21) (pin 2))
      (node (ref Q12) (pin 2))
      (node (ref R15) (pin 1))
      (node (ref R13) (pin 1))
      (node (ref Q19) (pin 3))
      (node (ref R22) (pin 1))
      (node (ref C13) (pin 1))
      (node (ref Q17) (pin 2)))
    (net (code 89) (name "Net-(Q19-Pad2)")
      (node (ref Q19) (pin 2)))
    (net (code 90) (name /HVC1)
      (node (ref P3) (pin 2))
      (node (ref IC1) (pin 14))
      (node (ref R26) (pin 1)))
    (net (code 91) (name /HVC0)
      (node (ref IC1) (pin 12))
      (node (ref P3) (pin 1))
      (node (ref R25) (pin 1)))
    (net (code 92) (name /SEP)
      (node (ref Q22) (pin 3))
      (node (ref P10) (pin 1))
      (node (ref P14) (pin 2))
      (node (ref P12) (pin 2)))
    (net (code 93) (name +5VD)
      (node (ref L3) (pin 1))
      (node (ref P7) (pin 1))
      (node (ref C2) (pin 1))
      (node (ref L1) (pin 1))
      (node (ref IC1) (pin 6))
      (node (ref P1) (pin 2))
      (node (ref IC1) (pin 4))
      (node (ref P4) (pin 1))
      (node (ref U1) (pin 16))
      (node (ref C4) (pin 1))
      (node (ref R6) (pin 1)))
    (net (code 94) (name GND)
      (node (ref D6) (pin 2))
      (node (ref SW4) (pin 1))
      (node (ref SW3) (pin 1))
      (node (ref Q8) (pin 2))
      (node (ref BT1) (pin 2))
      (node (ref Q2) (pin 2))
      (node (ref Q6) (pin 2))
      (node (ref Q4) (pin 2))
      (node (ref Q3) (pin 2))
      (node (ref SW1) (pin 1))
      (node (ref SW2) (pin 1))
      (node (ref Q10) (pin 2))
      (node (ref U3) (pin 1))
      (node (ref U4) (pin 2))
      (node (ref Q9) (pin 2))
      (node (ref D4) (pin 2))
      (node (ref Q7) (pin 2))
      (node (ref D3) (pin 1))
      (node (ref Q5) (pin 2))
      (node (ref C9) (pin 2))
      (node (ref Q13) (pin 2))
      (node (ref C11) (pin 2))
      (node (ref C12) (pin 2))
      (node (ref C14) (pin 2))
      (node (ref C15) (pin 2))
      (node (ref C2) (pin 2))
      (node (ref Q11) (pin 2))
      (node (ref C16) (pin 2))
      (node (ref Q20) (pin 2))
      (node (ref Q1) (pin 2))
      (node (ref U1) (pin 8))
      (node (ref R17) (pin 2))
      (node (ref Q18) (pin 3))
      (node (ref C13) (pin 2))
      (node (ref R23) (pin 2))
      (node (ref U2) (pin 4))
      (node (ref Q16) (pin 3))
      (node (ref C5) (pin 2))
      (node (ref C7) (pin 2))
      (node (ref C10) (pin 2))
      (node (ref IC1) (pin 3))
      (node (ref IC1) (pin 5))
      (node (ref C17) (pin 2))
      (node (ref Q15) (pin 2))
      (node (ref C6) (pin 2))
      (node (ref C8) (pin 2))
      (node (ref P1) (pin 1))
      (node (ref C3) (pin 2))
      (node (ref Q22) (pin 2))
      (node (ref C4) (pin 2))
      (node (ref C1) (pin 2))
      (node (ref P4) (pin 2))
      (node (ref IC1) (pin 21)))
    (net (code 95) (name "Net-(P4-Pad4)")
      (node (ref P4) (pin 4)))
    (net (code 96) (name /SCL)
      (node (ref IC1) (pin 28))
      (node (ref P4) (pin 6)))
    (net (code 97) (name /SDA)
      (node (ref P4) (pin 5))
      (node (ref IC1) (pin 27)))
    (net (code 98) (name "Net-(IC1-Pad22)")
      (node (ref IC1) (pin 22)))
    (net (code 99) (name "Net-(IC1-Pad19)")
      (node (ref IC1) (pin 19)))
    (net (code 100) (name /RST)
      (node (ref R6) (pin 2))
      (node (ref P1) (pin 6))
      (node (ref IC1) (pin 29)))
    (net (code 101) (name /DECREMENT)
      (node (ref IC1) (pin 10))
      (node (ref P2) (pin 5)))
    (net (code 102) (name /SETUP_LED_ACTIVE)
      (node (ref R10) (pin 1))
      (node (ref IC1) (pin 11)))
    (net (code 103) (name /INCREMENT)
      (node (ref P2) (pin 4))
      (node (ref IC1) (pin 9)))
    (net (code 104) (name /SHOW_MOD)
      (node (ref IC1) (pin 8))
      (node (ref P2) (pin 3)))
    (net (code 105) (name /SETUP)
      (node (ref IC1) (pin 7))
      (node (ref P2) (pin 2)))
    (net (code 106) (name /AREF)
      (node (ref IC1) (pin 20))
      (node (ref C3) (pin 1)))
    (net (code 107) (name /AVCC)
      (node (ref C1) (pin 1))
      (node (ref L1) (pin 2))
      (node (ref IC1) (pin 18)))
    (net (code 108) (name "Net-(RV5-Pad3)")
      (node (ref RV5) (pin 3)))
    (net (code 109) (name "Net-(RV1-Pad3)")
      (node (ref RV1) (pin 3)))
    (net (code 110) (name "Net-(RV3-Pad3)")
      (node (ref RV3) (pin 3)))
    (net (code 111) (name "Net-(RV2-Pad3)")
      (node (ref RV2) (pin 3)))))