EESchema Schematic File Version 2
LIBS:_moje
LIBS:power
LIBS:device
LIBS:transistors
LIBS:conn
LIBS:linear
LIBS:regul
LIBS:74xx
LIBS:cmos4000
LIBS:adc-dac
LIBS:memory
LIBS:xilinx
LIBS:special
LIBS:microcontrollers
LIBS:dsp
LIBS:microchip
LIBS:analog_switches
LIBS:motorola
LIBS:texas
LIBS:intel
LIBS:audio
LIBS:interface
LIBS:digital-audio
LIBS:philips
LIBS:display
LIBS:cypress
LIBS:siliconi
LIBS:opto
LIBS:atmel
LIBS:contrib
LIBS:valves
LIBS:uln-udn
LIBS:i2c
LIBS:tech-thing
LIBS:pilot-cache
EELAYER 27 0
EELAYER END
$Descr A4 11693 8268
encoding utf-8
Sheet 1 1
Title ""
Date "10 feb 2015"
Rev ""
Comp ""
Comment1 ""
Comment2 ""
Comment3 ""
Comment4 ""
$EndDescr
$Comp
L ATTINY13 IC1
U 1 1 53D17FF6
P 7300 4400
F 0 "IC1" H 7400 4450 60  0000 C CNN
F 1 "ATTINY13" H 8600 3650 60  0000 C CNN
F 2 "DIP8" H 7400 3650 60  0001 C CNN
F 3 "" H 7300 4400 60  0000 C CNN
	1    7300 4400
	1    0    0    -1  
$EndComp
$Comp
L R R3
U 1 1 53D18465
P 5650 4750
F 0 "R3" V 5735 4740 50  0000 C CNN
F 1 "330" V 5655 4750 50  0000 C CNN
F 2 "~" H 5650 4750 60  0000 C CNN
F 3 "~" H 5650 4750 60  0000 C CNN
	1    5650 4750
	0    -1   -1   0   
$EndComp
Text Label 5200 4750 0    60   ~ 0
MOD
$Comp
L GND #PWR01
U 1 1 53D1847D
P 6250 5150
F 0 "#PWR01" H 6250 5150 30  0001 C CNN
F 1 "GND" H 6250 5080 30  0001 C CNN
F 2 "" H 6250 5150 60  0000 C CNN
F 3 "" H 6250 5150 60  0000 C CNN
	1    6250 5150
	1    0    0    -1  
$EndComp
$Comp
L LED D2
U 1 1 53D1848C
P 6250 4350
F 0 "D2" H 6250 4450 50  0000 C CNN
F 1 "L-934F3C" H 6250 4200 40  0000 C CNN
F 2 "~" H 6250 4350 60  0000 C CNN
F 3 "~" H 6250 4350 60  0000 C CNN
	1    6250 4350
	0    -1   1    0   
$EndComp
$Comp
L R R5
U 1 1 53D184D3
P 6250 4050
F 0 "R5" V 6335 4040 50  0000 C CNN
F 1 "47" V 6255 4050 50  0000 C CNN
F 2 "~" H 6250 4050 60  0000 C CNN
F 3 "~" H 6250 4050 60  0000 C CNN
	1    6250 4050
	1    0    0    -1  
$EndComp
$Comp
L VCC #PWR02
U 1 1 53D184EF
P 6250 3750
F 0 "#PWR02" H 6250 3850 30  0001 C CNN
F 1 "VCC" H 6250 3850 30  0000 C CNN
F 2 "" H 6250 3750 60  0000 C CNN
F 3 "" H 6250 3750 60  0000 C CNN
	1    6250 3750
	1    0    0    -1  
$EndComp
Text Label 6850 4500 0    60   ~ 0
MOD
$Comp
L C C1
U 1 1 53D185F6
P 9250 4750
F 0 "C1" H 9300 4850 50  0000 L CNN
F 1 "100n" H 9300 4650 50  0000 L CNN
F 2 "~" H 9250 4750 60  0000 C CNN
F 3 "~" H 9250 4750 60  0000 C CNN
	1    9250 4750
	1    0    0    -1  
$EndComp
$Comp
L BATTERY BT1
U 1 1 53D18667
P 9550 4750
F 0 "BT1" V 9500 4900 50  0000 C CNN
F 1 "CR2032" V 9650 4900 50  0000 C CNN
F 2 "~" H 9550 4750 60  0000 C CNN
F 3 "~" H 9550 4750 60  0000 C CNN
	1    9550 4750
	0    1    1    0   
$EndComp
$Comp
L VCC #PWR03
U 1 1 53D186CE
P 9550 4400
F 0 "#PWR03" H 9550 4500 30  0001 C CNN
F 1 "VCC" H 9550 4500 30  0000 C CNN
F 2 "" H 9550 4400 60  0000 C CNN
F 3 "" H 9550 4400 60  0000 C CNN
	1    9550 4400
	1    0    0    -1  
$EndComp
$Comp
L GND #PWR04
U 1 1 53D186F6
P 9550 5150
F 0 "#PWR04" H 9550 5150 30  0001 C CNN
F 1 "GND" H 9550 5080 30  0001 C CNN
F 2 "" H 9550 5150 60  0000 C CNN
F 3 "" H 9550 5150 60  0000 C CNN
	1    9550 5150
	1    0    0    -1  
$EndComp
Text Label 6850 4900 0    60   ~ 0
LED
$Comp
L R R1
U 1 1 53D187A1
P 7250 5200
F 0 "R1" V 7335 5190 50  0000 C CNN
F 1 "10k" V 7255 5200 50  0000 C CNN
F 2 "~" H 7250 5200 60  0000 C CNN
F 3 "~" H 7250 5200 60  0000 C CNN
	1    7250 5200
	0    1    1    0   
$EndComp
$Comp
L VCC #PWR05
U 1 1 53D187B5
P 7450 5200
F 0 "#PWR05" H 7450 5300 30  0001 C CNN
F 1 "VCC" H 7450 5300 30  0000 C CNN
F 2 "" H 7450 5200 60  0000 C CNN
F 3 "" H 7450 5200 60  0000 C CNN
	1    7450 5200
	0    1    1    0   
$EndComp
$Comp
L SW_PUSH SW1
U 1 1 53D18A25
P 2650 3350
F 0 "SW1" H 2800 3460 50  0000 C CNN
F 1 "set time" H 2650 3270 50  0000 C CNN
F 2 "~" H 2650 3350 60  0000 C CNN
F 3 "~" H 2650 3350 60  0000 C CNN
	1    2650 3350
	1    0    0    -1  
$EndComp
$Comp
L SW_PUSH SW2
U 1 1 53D18A5A
P 3450 3350
F 0 "SW2" H 3600 3460 50  0000 C CNN
F 1 "set date" H 3450 3270 50  0000 C CNN
F 2 "~" H 3450 3350 60  0000 C CNN
F 3 "~" H 3450 3350 60  0000 C CNN
	1    3450 3350
	1    0    0    -1  
$EndComp
$Comp
L SW_PUSH SW3
U 1 1 53D18A66
P 4250 3350
F 0 "SW3" H 4400 3460 50  0000 C CNN
F 1 "on/off" H 4250 3270 50  0000 C CNN
F 2 "~" H 4250 3350 60  0000 C CNN
F 3 "~" H 4250 3350 60  0000 C CNN
	1    4250 3350
	1    0    0    -1  
$EndComp
$Comp
L SW_PUSH SW4
U 1 1 53D18A72
P 2650 3850
F 0 "SW4" H 2800 3960 50  0000 C CNN
F 1 "view" H 2650 3770 50  0000 C CNN
F 2 "~" H 2650 3850 60  0000 C CNN
F 3 "~" H 2650 3850 60  0000 C CNN
	1    2650 3850
	1    0    0    -1  
$EndComp
$Comp
L LED D1
U 1 1 53D19073
P 5350 2700
F 0 "D1" H 5300 2600 50  0000 C CNN
F 1 "working" H 5350 2800 40  0000 C CNN
F 2 "~" H 5350 2700 60  0000 C CNN
F 3 "~" H 5350 2700 60  0000 C CNN
	1    5350 2700
	0    1    1    0   
$EndComp
$Comp
L R R2
U 1 1 53D19082
P 5350 3000
F 0 "R2" V 5435 2990 50  0000 C CNN
F 1 "4k7" V 5355 3000 50  0000 C CNN
F 2 "~" H 5350 3000 60  0000 C CNN
F 3 "~" H 5350 3000 60  0000 C CNN
	1    5350 3000
	1    0    0    -1  
$EndComp
$Comp
L GND #PWR06
U 1 1 53D19091
P 5350 3200
F 0 "#PWR06" H 5350 3200 30  0001 C CNN
F 1 "GND" H 5350 3130 30  0001 C CNN
F 2 "" H 5350 3200 60  0000 C CNN
F 3 "" H 5350 3200 60  0000 C CNN
	1    5350 3200
	1    0    0    -1  
$EndComp
Text Label 5650 2500 2    60   ~ 0
LED
$Comp
L SW_PUSH SW9
U 1 1 53D195BB
P 4250 4350
F 0 "SW9" H 4400 4460 50  0000 C CNN
F 1 "cancel" H 4250 4270 50  0000 C CNN
F 2 "~" H 4250 4350 60  0000 C CNN
F 3 "~" H 4250 4350 60  0000 C CNN
	1    4250 4350
	1    0    0    -1  
$EndComp
$Comp
L SW_PUSH SW10
U 1 1 53D195C7
P 2650 4850
F 0 "SW10" H 2800 4960 50  0000 C CNN
F 1 "\\/" H 2650 4770 50  0000 C CNN
F 2 "~" H 2650 4850 60  0000 C CNN
F 3 "~" H 2650 4850 60  0000 C CNN
	1    2650 4850
	1    0    0    -1  
$EndComp
$Comp
L SW_PUSH SW11
U 1 1 53D195D3
P 3450 4850
F 0 "SW11" H 3600 4960 50  0000 C CNN
F 1 "OK" H 3450 4770 50  0000 C CNN
F 2 "~" H 3450 4850 60  0000 C CNN
F 3 "~" H 3450 4850 60  0000 C CNN
	1    3450 4850
	1    0    0    -1  
$EndComp
$Comp
L SW_PUSH SW12
U 1 1 53D195DF
P 4250 4850
F 0 "SW12" H 4400 4960 50  0000 C CNN
F 1 ">" H 4250 4770 50  0000 C CNN
F 2 "~" H 4250 4850 60  0000 C CNN
F 3 "~" H 4250 4850 60  0000 C CNN
	1    4250 4850
	1    0    0    -1  
$EndComp
$Comp
L IRLML2502 Q1
U 1 1 53D25149
P 6100 4750
F 0 "Q1" H 6100 4940 60  0000 R CNN
F 1 "IRLML2502" V 6350 4600 40  0000 L CNN
F 2 "IRLML2502" V 6400 4600 40  0001 L CNN
F 3 "" H 6100 4750 60  0000 C CNN
	1    6100 4750
	1    0    0    -1  
$EndComp
$Comp
L R R4
U 1 1 53D254D7
P 5850 4950
F 0 "R4" V 5935 4940 50  0000 C CNN
F 1 "10k" V 5855 4950 50  0000 C CNN
F 2 "~" H 5850 4950 60  0000 C CNN
F 3 "~" H 5850 4950 60  0000 C CNN
	1    5850 4950
	1    0    0    -1  
$EndComp
$Comp
L GND #PWR07
U 1 1 53D2562F
P 5850 5150
F 0 "#PWR07" H 5850 5150 30  0001 C CNN
F 1 "GND" H 5850 5080 30  0001 C CNN
F 2 "" H 5850 5150 60  0000 C CNN
F 3 "" H 5850 5150 60  0000 C CNN
	1    5850 5150
	1    0    0    -1  
$EndComp
$Comp
L R R101
U 1 1 53D4AAF2
P 2100 3700
F 0 "R101" V 2185 3690 50  0000 C CNN
F 1 "1k" V 2105 3700 50  0000 C CNN
F 2 "~" H 2100 3700 60  0000 C CNN
F 3 "~" H 2100 3700 60  0000 C CNN
	1    2100 3700
	1    0    0    -1  
$EndComp
$Comp
L R R102
U 1 1 53D4ADD6
P 2100 4200
F 0 "R102" V 2185 4190 50  0000 C CNN
F 1 "1k" V 2105 4200 50  0000 C CNN
F 2 "~" H 2100 4200 60  0000 C CNN
F 3 "~" H 2100 4200 60  0000 C CNN
	1    2100 4200
	1    0    0    -1  
$EndComp
$Comp
L SW_PUSH SW5
U 1 1 53D4ADE0
P 3450 3850
F 0 "SW5" H 3600 3960 50  0000 C CNN
F 1 "timer" H 3450 3770 50  0000 C CNN
F 2 "~" H 3450 3850 60  0000 C CNN
F 3 "~" H 3450 3850 60  0000 C CNN
	1    3450 3850
	1    0    0    -1  
$EndComp
$Comp
L SW_PUSH SW6
U 1 1 53D4ADE6
P 4250 3850
F 0 "SW6" H 4400 3960 50  0000 C CNN
F 1 "set alarm" H 4250 3770 50  0000 C CNN
F 2 "~" H 4250 3850 60  0000 C CNN
F 3 "~" H 4250 3850 60  0000 C CNN
	1    4250 3850
	1    0    0    -1  
$EndComp
$Comp
L SW_PUSH SW7
U 1 1 53D4ADEC
P 2650 4350
F 0 "SW7" H 2800 4460 50  0000 C CNN
F 1 "<" H 2650 4270 50  0000 C CNN
F 2 "~" H 2650 4350 60  0000 C CNN
F 3 "~" H 2650 4350 60  0000 C CNN
	1    2650 4350
	1    0    0    -1  
$EndComp
$Comp
L SW_PUSH SW8
U 1 1 53D4ADF2
P 3450 4350
F 0 "SW8" H 3600 4460 50  0000 C CNN
F 1 "/\\" H 3450 4270 50  0000 C CNN
F 2 "~" H 3450 4350 60  0000 C CNN
F 3 "~" H 3450 4350 60  0000 C CNN
	1    3450 4350
	1    0    0    -1  
$EndComp
$Comp
L GND #PWR08
U 1 1 53D4AFA9
P 2100 5100
F 0 "#PWR08" H 2100 5100 30  0001 C CNN
F 1 "GND" H 2100 5030 30  0001 C CNN
F 2 "" H 2100 5100 60  0000 C CNN
F 3 "" H 2100 5100 60  0000 C CNN
	1    2100 5100
	1    0    0    -1  
$EndComp
$Comp
L R R201
U 1 1 53D4B44A
P 3450 3000
F 0 "R201" V 3535 2990 50  0000 C CNN
F 1 "330" V 3455 3000 50  0000 C CNN
F 2 "~" H 3450 3000 60  0000 C CNN
F 3 "~" H 3450 3000 60  0000 C CNN
	1    3450 3000
	0    -1   -1   0   
$EndComp
$Comp
L R R301
U 1 1 53D4B9EC
P 4650 2750
F 0 "R301" V 4735 2740 50  0000 C CNN
F 1 "10k" V 4655 2750 50  0000 C CNN
F 2 "~" H 4650 2750 60  0000 C CNN
F 3 "~" H 4650 2750 60  0000 C CNN
	1    4650 2750
	-1   0    0    1   
$EndComp
$Comp
L VCC #PWR09
U 1 1 53D4BA14
P 4650 2600
F 0 "#PWR09" H 4650 2700 30  0001 C CNN
F 1 "VCC" H 4650 2700 30  0000 C CNN
F 2 "" H 4650 2600 60  0000 C CNN
F 3 "" H 4650 2600 60  0000 C CNN
	1    4650 2600
	1    0    0    -1  
$EndComp
Text Label 4950 3000 2    60   ~ 0
BTNS
Text Label 6850 4800 0    60   ~ 0
BTNS
$Comp
L R R202
U 1 1 53D4B452
P 4250 3000
F 0 "R202" V 4335 2990 50  0000 C CNN
F 1 "330" V 4255 3000 50  0000 C CNN
F 2 "~" H 4250 3000 60  0000 C CNN
F 3 "~" H 4250 3000 60  0000 C CNN
	1    4250 3000
	0    -1   -1   0   
$EndComp
$Comp
L R R103
U 1 1 53D4C150
P 2100 4700
F 0 "R103" V 2185 4690 50  0000 C CNN
F 1 "1k" V 2105 4700 50  0000 C CNN
F 2 "~" H 2100 4700 60  0000 C CNN
F 3 "~" H 2100 4700 60  0000 C CNN
	1    2100 4700
	1    0    0    -1  
$EndComp
Text Notes 5150 3550 0    60   ~ 0
nadawanie sygnału
Text Notes 5150 2250 0    60   ~ 0
dioda \nsygnalizacyjna
Text Notes 1950 2350 0    60   ~ 0
klawiatura
Text Notes 6950 3550 0    150  ~ 30
Pilot do zegara nixie
Text Notes 7450 4000 0    100  Italic 20
v.1.0 by mopsiok (2014)
$Comp
L VCC #PWR010
U 1 1 53D6833D
P 6050 2900
F 0 "#PWR010" H 6050 3000 30  0001 C CNN
F 1 "VCC" H 6050 3000 30  0000 C CNN
F 2 "" H 6050 2900 60  0000 C CNN
F 3 "" H 6050 2900 60  0000 C CNN
	1    6050 2900
	0    -1   -1   0   
$EndComp
$Comp
L GND #PWR011
U 1 1 53D6834C
P 6050 3100
F 0 "#PWR011" H 6050 3100 30  0001 C CNN
F 1 "GND" H 6050 3030 30  0001 C CNN
F 2 "" H 6050 3100 60  0000 C CNN
F 3 "" H 6050 3100 60  0000 C CNN
	1    6050 3100
	1    0    0    -1  
$EndComp
Text Label 5850 2500 0    60   ~ 0
MOD
Text Label 6850 4600 0    60   ~ 0
MISO
Text Label 6850 4700 0    60   ~ 0
SCK
Text Label 5850 2600 0    60   ~ 0
MISO
Text Label 5850 2700 0    60   ~ 0
SCK
Text Label 5850 2800 0    60   ~ 0
RST
Text Label 6850 5000 0    60   ~ 0
RST
$Comp
L CONN_1 P1
U 1 1 53D689BF
P 6250 2500
F 0 "P1" H 6330 2500 40  0000 L CNN
F 1 "MOSI" H 6250 2555 30  0001 C CNN
F 2 "" H 6250 2500 60  0000 C CNN
F 3 "" H 6250 2500 60  0000 C CNN
	1    6250 2500
	1    0    0    -1  
$EndComp
$Comp
L CONN_1 P2
U 1 1 53D689CC
P 6250 2600
F 0 "P2" H 6330 2600 40  0000 L CNN
F 1 "MISO" H 6250 2655 30  0001 C CNN
F 2 "" H 6250 2600 60  0000 C CNN
F 3 "" H 6250 2600 60  0000 C CNN
	1    6250 2600
	1    0    0    -1  
$EndComp
$Comp
L CONN_1 P3
U 1 1 53D689D2
P 6250 2700
F 0 "P3" H 6330 2700 40  0000 L CNN
F 1 "SCK" H 6250 2755 30  0001 C CNN
F 2 "" H 6250 2700 60  0000 C CNN
F 3 "" H 6250 2700 60  0000 C CNN
	1    6250 2700
	1    0    0    -1  
$EndComp
$Comp
L CONN_1 P4
U 1 1 53D689D8
P 6250 2800
F 0 "P4" H 6330 2800 40  0000 L CNN
F 1 "RST" H 6250 2855 30  0001 C CNN
F 2 "" H 6250 2800 60  0000 C CNN
F 3 "" H 6250 2800 60  0000 C CNN
	1    6250 2800
	1    0    0    -1  
$EndComp
$Comp
L CONN_1 P5
U 1 1 53D689DE
P 6250 2900
F 0 "P5" H 6330 2900 40  0000 L CNN
F 1 "VCC" H 6250 2955 30  0001 C CNN
F 2 "" H 6250 2900 60  0000 C CNN
F 3 "" H 6250 2900 60  0000 C CNN
	1    6250 2900
	1    0    0    -1  
$EndComp
$Comp
L CONN_1 P6
U 1 1 53D689E4
P 6250 3000
F 0 "P6" H 6330 3000 40  0000 L CNN
F 1 "GND" H 6250 3055 30  0001 C CNN
F 2 "" H 6250 3000 60  0000 C CNN
F 3 "" H 6250 3000 60  0000 C CNN
	1    6250 3000
	1    0    0    -1  
$EndComp
Text Notes 6450 2550 0    65   ~ 0
MOSI\nMISO\nSCK\nRST\nVCC\nGND
Wire Wire Line
	6850 4700 7100 4700
Wire Wire Line
	7100 4600 6850 4600
Wire Wire Line
	6100 2900 6050 2900
Wire Wire Line
	6050 3000 6050 3050
Wire Wire Line
	6100 3000 6050 3000
Wire Wire Line
	5850 2800 6100 2800
Wire Wire Line
	5850 2700 6100 2700
Wire Wire Line
	6100 2600 5850 2600
Wire Wire Line
	6100 2500 5850 2500
Wire Notes Line
	1950 2350 1950 5250
Wire Notes Line
	5100 2350 1950 2350
Wire Notes Line
	5100 5250 5100 2350
Wire Notes Line
	1950 5250 5100 5250
Wire Notes Line
	5800 2350 5150 2350
Wire Notes Line
	5800 3400 5800 2350
Wire Notes Line
	5150 3400 5800 3400
Wire Notes Line
	5150 2350 5150 3400
Wire Notes Line
	5150 5250 5150 3550
Wire Notes Line
	6500 5250 5150 5250
Wire Notes Line
	6500 3550 6500 5250
Wire Notes Line
	5150 3550 6500 3550
Wire Wire Line
	6850 4900 7100 4900
Wire Wire Line
	2100 4950 3950 4950
Wire Wire Line
	2100 4450 3950 4450
Wire Wire Line
	2100 3950 3950 3950
Wire Wire Line
	2100 3450 3950 3450
Connection ~ 2100 4950
Wire Wire Line
	2100 4850 2100 5050
Wire Wire Line
	4650 4850 4550 4850
Wire Wire Line
	3850 4850 3750 4850
Wire Wire Line
	3050 4850 2950 4850
Connection ~ 2350 4950
Wire Wire Line
	2350 4850 2350 4950
Connection ~ 3150 4950
Wire Wire Line
	3150 4950 3150 4850
Wire Wire Line
	3950 4950 3950 4850
Wire Wire Line
	3300 3000 3050 3000
Connection ~ 4650 3000
Connection ~ 3850 3000
Wire Wire Line
	4400 3000 4950 3000
Wire Wire Line
	3600 3000 4100 3000
Connection ~ 2100 4450
Wire Wire Line
	2100 4350 2100 4550
Connection ~ 2100 3950
Wire Wire Line
	2100 3850 2100 4050
Wire Wire Line
	2100 3450 2100 3550
Connection ~ 4650 4350
Wire Wire Line
	4650 4350 4550 4350
Connection ~ 3850 4350
Wire Wire Line
	3850 4350 3750 4350
Connection ~ 3050 4350
Wire Wire Line
	3050 4350 2950 4350
Connection ~ 2350 4450
Wire Wire Line
	2350 4350 2350 4450
Connection ~ 3150 4450
Wire Wire Line
	3150 4450 3150 4350
Wire Wire Line
	3950 4450 3950 4350
Wire Wire Line
	4650 2900 4650 4850
Wire Wire Line
	3850 3000 3850 4850
Wire Wire Line
	3050 3000 3050 4850
Connection ~ 4650 3850
Wire Wire Line
	4650 3850 4550 3850
Connection ~ 3850 3850
Wire Wire Line
	3850 3850 3750 3850
Connection ~ 3050 3850
Wire Wire Line
	3050 3850 2950 3850
Connection ~ 2350 3950
Wire Wire Line
	2350 3850 2350 3950
Connection ~ 3150 3950
Wire Wire Line
	3150 3950 3150 3850
Wire Wire Line
	3950 3950 3950 3850
Connection ~ 4650 3350
Wire Wire Line
	4650 3350 4550 3350
Connection ~ 3850 3350
Wire Wire Line
	3750 3350 3850 3350
Connection ~ 3050 3350
Wire Wire Line
	2950 3350 3050 3350
Connection ~ 2350 3450
Wire Wire Line
	2350 3350 2350 3450
Connection ~ 3150 3450
Wire Wire Line
	3150 3450 3150 3350
Wire Wire Line
	3950 3450 3950 3350
Wire Wire Line
	6250 4950 6250 5100
Connection ~ 5850 4750
Wire Wire Line
	5850 4750 5850 4800
Wire Wire Line
	5800 4750 5900 4750
Wire Wire Line
	5350 2600 5350 2500
Wire Wire Line
	5350 2800 5350 2850
Wire Wire Line
	6250 4200 6250 4250
Wire Wire Line
	6250 4450 6250 4550
Wire Wire Line
	7400 5200 7450 5200
Connection ~ 9550 5000
Connection ~ 9550 4500
Connection ~ 9250 5000
Connection ~ 9250 4500
Wire Wire Line
	9250 5000 9250 4850
Wire Wire Line
	9250 4650 9250 4500
Wire Wire Line
	7100 4800 6850 4800
Wire Wire Line
	7100 4500 6850 4500
Wire Wire Line
	6850 5000 7100 5000
Wire Wire Line
	7050 5000 7050 5200
Wire Wire Line
	7050 5200 7100 5200
Connection ~ 7050 5000
Wire Wire Line
	9550 4400 9550 4650
Wire Wire Line
	9550 4850 9550 5100
Wire Wire Line
	9100 5000 9550 5000
Wire Wire Line
	9100 4500 9550 4500
$Comp
L JUMPER_SMD0805 JP3
U 1 1 53EF3458
P 6250 3900
F 0 "JP3" H 6300 3850 30  0000 C CNN
F 1 "JUMPER_SMD0805" H 6250 3800 30  0001 C CNN
F 2 "SM0805" H 6250 3750 30  0001 C CNN
F 3 "~" H 6500 3800 60  0000 C CNN
	1    6250 3900
	0    -1   -1   0   
$EndComp
$Comp
L JUMPER_SMD0805 JP2
U 1 1 53EF34F2
P 5350 4750
F 0 "JP2" H 5400 4700 30  0000 C CNN
F 1 "JUMPER_SMD0805" H 5350 4650 30  0001 C CNN
F 2 "SM0805" H 5350 4600 30  0001 C CNN
F 3 "~" H 5600 4650 60  0000 C CNN
	1    5350 4750
	1    0    0    -1  
$EndComp
Wire Wire Line
	5200 4750 5350 4750
$Comp
L JUMPER_SMD0805 JP1
U 1 1 53EF35A2
P 5350 2500
F 0 "JP1" H 5400 2450 30  0000 C CNN
F 1 "JUMPER_SMD0805" H 5350 2400 30  0001 C CNN
F 2 "SM0805" H 5350 2350 30  0001 C CNN
F 3 "~" H 5600 2400 60  0000 C CNN
	1    5350 2500
	1    0    0    -1  
$EndComp
Wire Wire Line
	5500 2500 5650 2500
Text Notes 7250 3750 0    100  ~ 20
(zmodyfikowany Sony SIRC)
$EndSCHEMATC
