(kicad_pcb (version 4) (host pcbnew 4.0.0-rc1-stable)

  (general
    (links 10)
    (no_connects 0)
    (area 15.924999 15.924999 115.525001 40.825001)
    (thickness 1.6)
    (drawings 6)
    (tracks 51)
    (zones 0)
    (modules 8)
    (nets 7)
  )

  (page A4)
  (layers
    (0 F.Cu signal)
    (31 B.Cu signal)
    (32 B.Adhes user)
    (33 F.Adhes user)
    (34 B.Paste user)
    (35 F.Paste user)
    (36 B.SilkS user)
    (37 F.SilkS user)
    (38 B.Mask user)
    (39 F.Mask user)
    (40 Dwgs.User user)
    (41 Cmts.User user)
    (42 Eco1.User user)
    (43 Eco2.User user)
    (44 Edge.Cuts user)
    (45 Margin user)
    (46 B.CrtYd user)
    (47 F.CrtYd user)
    (48 B.Fab user)
    (49 F.Fab user)
  )

  (setup
    (last_trace_width 0.6096)
    (user_trace_width 0.3556)
    (user_trace_width 0.4064)
    (user_trace_width 0.6096)
    (user_trace_width 0.8128)
    (user_trace_width 1.6256)
    (user_trace_width 3.2512)
    (trace_clearance 0.2)
    (zone_clearance 0.27)
    (zone_45_only no)
    (trace_min 0.2)
    (segment_width 0.2)
    (edge_width 0.15)
    (via_size 0.6)
    (via_drill 0.4)
    (via_min_size 0.4)
    (via_min_drill 0.3)
    (user_via 1.4 0.8)
    (uvia_size 0.3)
    (uvia_drill 0.1)
    (uvias_allowed no)
    (uvia_min_size 0.2)
    (uvia_min_drill 0.1)
    (pcb_text_width 0.3)
    (pcb_text_size 1.5 1.5)
    (mod_edge_width 0.15)
    (mod_text_size 1 1)
    (mod_text_width 0.15)
    (pad_size 1.00076 1.00076)
    (pad_drill 0.6)
    (pad_to_mask_clearance 0.2)
    (aux_axis_origin 0 0)
    (visible_elements 7FFFFFFF)
    (pcbplotparams
      (layerselection 0x00030_80000001)
      (usegerberextensions false)
      (excludeedgelayer true)
      (linewidth 0.100000)
      (plotframeref false)
      (viasonmask false)
      (mode 1)
      (useauxorigin false)
      (hpglpennumber 1)
      (hpglpenspeed 20)
      (hpglpendiameter 15)
      (hpglpenoverlay 2)
      (psnegative false)
      (psa4output false)
      (plotreference true)
      (plotvalue true)
      (plotinvisibletext false)
      (padsonsilk false)
      (subtractmaskfromsilk false)
      (outputformat 1)
      (mirror false)
      (drillshape 1)
      (scaleselection 1)
      (outputdirectory ""))
  )

  (net 0 "")
  (net 1 GND)
  (net 2 "Net-(D3-Pad2)")
  (net 3 "Net-(P15-Pad2)")
  (net 4 "Net-(P15-Pad3)")
  (net 5 "Net-(P15-Pad4)")
  (net 6 "Net-(P15-Pad5)")

  (net_class Default "This is the default net class."
    (clearance 0.2)
    (trace_width 0.25)
    (via_dia 0.6)
    (via_drill 0.4)
    (uvia_dia 0.3)
    (uvia_drill 0.1)
    (add_net GND)
    (add_net "Net-(D3-Pad2)")
    (add_net "Net-(P15-Pad2)")
    (add_net "Net-(P15-Pad3)")
    (add_net "Net-(P15-Pad4)")
    (add_net "Net-(P15-Pad5)")
  )

  (module Socket_Strips:Socket_Strip_Straight_1x02 (layer F.Cu) (tedit 54E9F75E) (tstamp 57379E31)
    (at 36.2 30.15 180)
    (descr "Through hole socket strip")
    (tags "socket strip")
    (path /574297AD)
    (fp_text reference SW2 (at 0 -5.1 180) (layer F.SilkS)
      (effects (font (size 1 1) (thickness 0.15)))
    )
    (fp_text value SW_PUSH (at 0 -3.1 180) (layer F.Fab)
      (effects (font (size 1 1) (thickness 0.15)))
    )
    (fp_line (start -1.55 1.55) (end 0 1.55) (layer F.SilkS) (width 0.15))
    (fp_line (start 3.81 1.27) (end 1.27 1.27) (layer F.SilkS) (width 0.15))
    (fp_line (start -1.75 -1.75) (end -1.75 1.75) (layer F.CrtYd) (width 0.05))
    (fp_line (start 4.3 -1.75) (end 4.3 1.75) (layer F.CrtYd) (width 0.05))
    (fp_line (start -1.75 -1.75) (end 4.3 -1.75) (layer F.CrtYd) (width 0.05))
    (fp_line (start -1.75 1.75) (end 4.3 1.75) (layer F.CrtYd) (width 0.05))
    (fp_line (start 1.27 1.27) (end 1.27 -1.27) (layer F.SilkS) (width 0.15))
    (fp_line (start 0 -1.55) (end -1.55 -1.55) (layer F.SilkS) (width 0.15))
    (fp_line (start -1.55 -1.55) (end -1.55 1.55) (layer F.SilkS) (width 0.15))
    (fp_line (start 1.27 -1.27) (end 3.81 -1.27) (layer F.SilkS) (width 0.15))
    (fp_line (start 3.81 -1.27) (end 3.81 1.27) (layer F.SilkS) (width 0.15))
    (pad 1 thru_hole rect (at 0 0 180) (size 2.032 2.032) (drill 1.016) (layers *.Cu *.Mask F.SilkS)
      (net 1 GND))
    (pad 2 thru_hole oval (at 2.54 0 180) (size 2.032 2.032) (drill 1.016) (layers *.Cu *.Mask F.SilkS)
      (net 5 "Net-(P15-Pad4)"))
    (model Socket_Strips.3dshapes/Socket_Strip_Straight_1x02.wrl
      (at (xyz 0.05 0 0))
      (scale (xyz 1 1 1))
      (rotate (xyz 0 0 180))
    )
  )

  (module LEDs:LED-3MM (layer F.Cu) (tedit 559B82F6) (tstamp 57379BC0)
    (at 28.24 22.15 180)
    (descr "LED 3mm round vertical")
    (tags "LED  3mm round vertical")
    (path /5742B0CD)
    (fp_text reference D3 (at 1.91 3.06 180) (layer F.SilkS)
      (effects (font (size 1 1) (thickness 0.15)))
    )
    (fp_text value Led_Small (at 1.3 -2.9 180) (layer F.Fab)
      (effects (font (size 1 1) (thickness 0.15)))
    )
    (fp_line (start -1.2 2.3) (end 3.8 2.3) (layer F.CrtYd) (width 0.05))
    (fp_line (start 3.8 2.3) (end 3.8 -2.2) (layer F.CrtYd) (width 0.05))
    (fp_line (start 3.8 -2.2) (end -1.2 -2.2) (layer F.CrtYd) (width 0.05))
    (fp_line (start -1.2 -2.2) (end -1.2 2.3) (layer F.CrtYd) (width 0.05))
    (fp_line (start -0.199 1.314) (end -0.199 1.114) (layer F.SilkS) (width 0.15))
    (fp_line (start -0.199 -1.28) (end -0.199 -1.1) (layer F.SilkS) (width 0.15))
    (fp_arc (start 1.301 0.034) (end -0.199 -1.286) (angle 108.5) (layer F.SilkS) (width 0.15))
    (fp_arc (start 1.301 0.034) (end 0.25 -1.1) (angle 85.7) (layer F.SilkS) (width 0.15))
    (fp_arc (start 1.311 0.034) (end 3.051 0.994) (angle 110) (layer F.SilkS) (width 0.15))
    (fp_arc (start 1.301 0.034) (end 2.335 1.094) (angle 87.5) (layer F.SilkS) (width 0.15))
    (fp_text user K (at -1.69 1.74 180) (layer F.SilkS)
      (effects (font (size 1 1) (thickness 0.15)))
    )
    (pad 1 thru_hole rect (at 0 0 270) (size 2 2) (drill 1.00076) (layers *.Cu *.Mask F.SilkS)
      (net 1 GND))
    (pad 2 thru_hole circle (at 2.54 0 180) (size 2 2) (drill 1.00076) (layers *.Cu *.Mask F.SilkS)
      (net 2 "Net-(D3-Pad2)"))
    (model LEDs.3dshapes/LED-3MM.wrl
      (at (xyz 0.05 0 0))
      (scale (xyz 1 1 1))
      (rotate (xyz 0 0 90))
    )
  )

  (module Socket_Strips:Socket_Strip_Straight_1x02 (layer F.Cu) (tedit 54E9F75E) (tstamp 57379E3D)
    (at 36.2 21.95 180)
    (descr "Through hole socket strip")
    (tags "socket strip")
    (path /574294DB)
    (fp_text reference SW4 (at 0 -5.1 180) (layer F.SilkS)
      (effects (font (size 1 1) (thickness 0.15)))
    )
    (fp_text value SW_PUSH (at 0 -3.1 180) (layer F.Fab)
      (effects (font (size 1 1) (thickness 0.15)))
    )
    (fp_line (start -1.55 1.55) (end 0 1.55) (layer F.SilkS) (width 0.15))
    (fp_line (start 3.81 1.27) (end 1.27 1.27) (layer F.SilkS) (width 0.15))
    (fp_line (start -1.75 -1.75) (end -1.75 1.75) (layer F.CrtYd) (width 0.05))
    (fp_line (start 4.3 -1.75) (end 4.3 1.75) (layer F.CrtYd) (width 0.05))
    (fp_line (start -1.75 -1.75) (end 4.3 -1.75) (layer F.CrtYd) (width 0.05))
    (fp_line (start -1.75 1.75) (end 4.3 1.75) (layer F.CrtYd) (width 0.05))
    (fp_line (start 1.27 1.27) (end 1.27 -1.27) (layer F.SilkS) (width 0.15))
    (fp_line (start 0 -1.55) (end -1.55 -1.55) (layer F.SilkS) (width 0.15))
    (fp_line (start -1.55 -1.55) (end -1.55 1.55) (layer F.SilkS) (width 0.15))
    (fp_line (start 1.27 -1.27) (end 3.81 -1.27) (layer F.SilkS) (width 0.15))
    (fp_line (start 3.81 -1.27) (end 3.81 1.27) (layer F.SilkS) (width 0.15))
    (pad 1 thru_hole rect (at 0 0 180) (size 2.032 2.032) (drill 1.016) (layers *.Cu *.Mask F.SilkS)
      (net 1 GND))
    (pad 2 thru_hole oval (at 2.54 0 180) (size 2.032 2.032) (drill 1.016) (layers *.Cu *.Mask F.SilkS)
      (net 3 "Net-(P15-Pad2)"))
    (model Socket_Strips.3dshapes/Socket_Strip_Straight_1x02.wrl
      (at (xyz 0.05 0 0))
      (scale (xyz 1 1 1))
      (rotate (xyz 0 0 180))
    )
  )

  (module Socket_Strips:Socket_Strip_Straight_1x02 (layer F.Cu) (tedit 54E9F75E) (tstamp 57379E2B)
    (at 36.14 34.25 180)
    (descr "Through hole socket strip")
    (tags "socket strip")
    (path /574298FA)
    (fp_text reference SW1 (at 0 -5.1 180) (layer F.SilkS)
      (effects (font (size 1 1) (thickness 0.15)))
    )
    (fp_text value SW_PUSH (at 2.38 3.546 180) (layer F.Fab)
      (effects (font (size 1 1) (thickness 0.15)))
    )
    (fp_line (start -1.55 1.55) (end 0 1.55) (layer F.SilkS) (width 0.15))
    (fp_line (start 3.81 1.27) (end 1.27 1.27) (layer F.SilkS) (width 0.15))
    (fp_line (start -1.75 -1.75) (end -1.75 1.75) (layer F.CrtYd) (width 0.05))
    (fp_line (start 4.3 -1.75) (end 4.3 1.75) (layer F.CrtYd) (width 0.05))
    (fp_line (start -1.75 -1.75) (end 4.3 -1.75) (layer F.CrtYd) (width 0.05))
    (fp_line (start -1.75 1.75) (end 4.3 1.75) (layer F.CrtYd) (width 0.05))
    (fp_line (start 1.27 1.27) (end 1.27 -1.27) (layer F.SilkS) (width 0.15))
    (fp_line (start 0 -1.55) (end -1.55 -1.55) (layer F.SilkS) (width 0.15))
    (fp_line (start -1.55 -1.55) (end -1.55 1.55) (layer F.SilkS) (width 0.15))
    (fp_line (start 1.27 -1.27) (end 3.81 -1.27) (layer F.SilkS) (width 0.15))
    (fp_line (start 3.81 -1.27) (end 3.81 1.27) (layer F.SilkS) (width 0.15))
    (pad 1 thru_hole rect (at 0 0 180) (size 2.032 2.032) (drill 1.016) (layers *.Cu *.Mask F.SilkS)
      (net 1 GND))
    (pad 2 thru_hole oval (at 2.54 0 180) (size 2.032 2.032) (drill 1.016) (layers *.Cu *.Mask F.SilkS)
      (net 6 "Net-(P15-Pad5)"))
    (model Socket_Strips.3dshapes/Socket_Strip_Straight_1x02.wrl
      (at (xyz 0.05 0 0))
      (scale (xyz 1 1 1))
      (rotate (xyz 0 0 180))
    )
  )

  (module Socket_Strips:Socket_Strip_Straight_1x05 (layer F.Cu) (tedit 0) (tstamp 57379CC5)
    (at 19.5 23.45 270)
    (descr "Through hole socket strip")
    (tags "socket strip")
    (path /5742922D)
    (fp_text reference P15 (at 0 -5.1 270) (layer F.SilkS)
      (effects (font (size 1 1) (thickness 0.15)))
    )
    (fp_text value CONN_01X05 (at 0 -3.1 270) (layer F.Fab)
      (effects (font (size 1 1) (thickness 0.15)))
    )
    (fp_line (start -1.75 -1.75) (end -1.75 1.75) (layer F.CrtYd) (width 0.05))
    (fp_line (start 11.95 -1.75) (end 11.95 1.75) (layer F.CrtYd) (width 0.05))
    (fp_line (start -1.75 -1.75) (end 11.95 -1.75) (layer F.CrtYd) (width 0.05))
    (fp_line (start -1.75 1.75) (end 11.95 1.75) (layer F.CrtYd) (width 0.05))
    (fp_line (start 1.27 1.27) (end 11.43 1.27) (layer F.SilkS) (width 0.15))
    (fp_line (start 11.43 1.27) (end 11.43 -1.27) (layer F.SilkS) (width 0.15))
    (fp_line (start 11.43 -1.27) (end 1.27 -1.27) (layer F.SilkS) (width 0.15))
    (fp_line (start -1.55 1.55) (end 0 1.55) (layer F.SilkS) (width 0.15))
    (fp_line (start 1.27 1.27) (end 1.27 -1.27) (layer F.SilkS) (width 0.15))
    (fp_line (start 0 -1.55) (end -1.55 -1.55) (layer F.SilkS) (width 0.15))
    (fp_line (start -1.55 -1.55) (end -1.55 1.55) (layer F.SilkS) (width 0.15))
    (pad 1 thru_hole rect (at 0 0 270) (size 1.7272 2.032) (drill 1.016) (layers *.Cu *.Mask F.SilkS)
      (net 2 "Net-(D3-Pad2)"))
    (pad 2 thru_hole oval (at 2.54 0 270) (size 1.7272 2.032) (drill 1.016) (layers *.Cu *.Mask F.SilkS)
      (net 3 "Net-(P15-Pad2)"))
    (pad 3 thru_hole oval (at 5.08 0 270) (size 1.7272 2.032) (drill 1.016) (layers *.Cu *.Mask F.SilkS)
      (net 4 "Net-(P15-Pad3)"))
    (pad 4 thru_hole oval (at 7.62 0 270) (size 1.7272 2.032) (drill 1.016) (layers *.Cu *.Mask F.SilkS)
      (net 5 "Net-(P15-Pad4)"))
    (pad 5 thru_hole oval (at 10.16 0 270) (size 1.7272 2.032) (drill 1.016) (layers *.Cu *.Mask F.SilkS)
      (net 6 "Net-(P15-Pad5)"))
    (model Socket_Strips.3dshapes/Socket_Strip_Straight_1x05.wrl
      (at (xyz 0.2 0 0))
      (scale (xyz 1 1 1))
      (rotate (xyz 0 0 180))
    )
  )

  (module Socket_Strips:Socket_Strip_Straight_1x02 (layer F.Cu) (tedit 54E9F75E) (tstamp 57379E37)
    (at 36.2 26.05 180)
    (descr "Through hole socket strip")
    (tags "socket strip")
    (path /57429649)
    (fp_text reference SW3 (at 0 -5.1 180) (layer F.SilkS)
      (effects (font (size 1 1) (thickness 0.15)))
    )
    (fp_text value SW_PUSH (at 0 -3.1 180) (layer F.Fab)
      (effects (font (size 1 1) (thickness 0.15)))
    )
    (fp_line (start -1.55 1.55) (end 0 1.55) (layer F.SilkS) (width 0.15))
    (fp_line (start 3.81 1.27) (end 1.27 1.27) (layer F.SilkS) (width 0.15))
    (fp_line (start -1.75 -1.75) (end -1.75 1.75) (layer F.CrtYd) (width 0.05))
    (fp_line (start 4.3 -1.75) (end 4.3 1.75) (layer F.CrtYd) (width 0.05))
    (fp_line (start -1.75 -1.75) (end 4.3 -1.75) (layer F.CrtYd) (width 0.05))
    (fp_line (start -1.75 1.75) (end 4.3 1.75) (layer F.CrtYd) (width 0.05))
    (fp_line (start 1.27 1.27) (end 1.27 -1.27) (layer F.SilkS) (width 0.15))
    (fp_line (start 0 -1.55) (end -1.55 -1.55) (layer F.SilkS) (width 0.15))
    (fp_line (start -1.55 -1.55) (end -1.55 1.55) (layer F.SilkS) (width 0.15))
    (fp_line (start 1.27 -1.27) (end 3.81 -1.27) (layer F.SilkS) (width 0.15))
    (fp_line (start 3.81 -1.27) (end 3.81 1.27) (layer F.SilkS) (width 0.15))
    (pad 1 thru_hole rect (at 0 0 180) (size 2.032 2.032) (drill 1.016) (layers *.Cu *.Mask F.SilkS)
      (net 1 GND))
    (pad 2 thru_hole oval (at 2.54 0 180) (size 2.032 2.032) (drill 1.016) (layers *.Cu *.Mask F.SilkS)
      (net 4 "Net-(P15-Pad3)"))
    (model Socket_Strips.3dshapes/Socket_Strip_Straight_1x02.wrl
      (at (xyz 0.05 0 0))
      (scale (xyz 1 1 1))
      (rotate (xyz 0 0 180))
    )
  )

  (module TO_SOT_Packages_THT:TO-92_Molded_Narrow (layer F.Cu) (tedit 573C7187) (tstamp 573CB87C)
    (at 25.7 39.1 90)
    (descr "TO-92 leads molded, narrow, drill 0.6mm (see NXP sot054_po.pdf)")
    (tags "to-92 sc-43 sc-43a sot54 PA33 transistor")
    (fp_text reference REF** (at 0 -4 90) (layer F.SilkS)
      (effects (font (size 1 1) (thickness 0.15)))
    )
    (fp_text value TO-92_Molded_Narrow (at 0 3 90) (layer F.Fab)
      (effects (font (size 1 1) (thickness 0.15)))
    )
    (fp_line (start -1.4 1.95) (end -1.4 -2.65) (layer F.CrtYd) (width 0.05))
    (fp_line (start -1.4 1.95) (end 3.9 1.95) (layer F.CrtYd) (width 0.05))
    (fp_line (start -0.43 1.7) (end 2.97 1.7) (layer F.SilkS) (width 0.15))
    (fp_arc (start 1.27 0) (end 1.27 -2.4) (angle -135) (layer F.SilkS) (width 0.15))
    (fp_arc (start 1.27 0) (end 1.27 -2.4) (angle 135) (layer F.SilkS) (width 0.15))
    (fp_line (start -1.4 -2.65) (end 3.9 -2.65) (layer F.CrtYd) (width 0.05))
    (fp_line (start 3.9 1.95) (end 3.9 -2.65) (layer F.CrtYd) (width 0.05))
    (pad 2 thru_hole circle (at 1.27 -1.27 180) (size 1.00076 1.00076) (drill 0.6) (layers *.Cu *.Mask F.SilkS))
    (pad 3 thru_hole circle (at 2.54 0 180) (size 1.00076 1.00076) (drill 0.6) (layers *.Cu *.Mask F.SilkS)
      (net 1 GND))
    (pad 1 thru_hole circle (at 0 0 180) (size 1.00076 1.00076) (drill 0.6) (layers *.Cu *.Mask F.SilkS))
    (model TO_SOT_Packages_THT.3dshapes/TO-92_Molded_Narrow.wrl
      (at (xyz 0.05 0 0))
      (scale (xyz 1 1 1))
      (rotate (xyz 0 0 -90))
    )
  )

  (module Pin_Headers:Pin_Header_Straight_2x01 (layer F.Cu) (tedit 0) (tstamp 57458C13)
    (at 32.25 38.45)
    (descr "Through hole pin header")
    (tags "pin header")
    (fp_text reference REF** (at 0 -5.1) (layer F.SilkS)
      (effects (font (size 1 1) (thickness 0.15)))
    )
    (fp_text value Pin_Header_Straight_2x01 (at 0 -3.1) (layer F.Fab)
      (effects (font (size 1 1) (thickness 0.15)))
    )
    (fp_line (start -1.75 -1.75) (end -1.75 1.75) (layer F.CrtYd) (width 0.05))
    (fp_line (start 4.3 -1.75) (end 4.3 1.75) (layer F.CrtYd) (width 0.05))
    (fp_line (start -1.75 -1.75) (end 4.3 -1.75) (layer F.CrtYd) (width 0.05))
    (fp_line (start -1.75 1.75) (end 4.3 1.75) (layer F.CrtYd) (width 0.05))
    (fp_line (start -1.55 0) (end -1.55 -1.55) (layer F.SilkS) (width 0.15))
    (fp_line (start 0 -1.55) (end -1.55 -1.55) (layer F.SilkS) (width 0.15))
    (fp_line (start -1.27 1.27) (end 1.27 1.27) (layer F.SilkS) (width 0.15))
    (fp_line (start 3.81 -1.27) (end 1.27 -1.27) (layer F.SilkS) (width 0.15))
    (fp_line (start 1.27 -1.27) (end 1.27 1.27) (layer F.SilkS) (width 0.15))
    (fp_line (start 1.27 1.27) (end 3.81 1.27) (layer F.SilkS) (width 0.15))
    (fp_line (start 3.81 1.27) (end 3.81 -1.27) (layer F.SilkS) (width 0.15))
    (pad 1 thru_hole rect (at 0 0) (size 1.7272 1.7272) (drill 1.016) (layers *.Cu *.Mask F.SilkS))
    (pad 2 thru_hole oval (at 2.54 0) (size 1.7272 1.7272) (drill 1.016) (layers *.Cu *.Mask F.SilkS))
    (model Pin_Headers.3dshapes/Pin_Header_Straight_2x01.wrl
      (at (xyz 0.05 0 0))
      (scale (xyz 1 1 1))
      (rotate (xyz 0 0 90))
    )
  )

  (gr_text "NixieClock @ Macck Layout\n\n" (at 86.75 19.5) (layer B.Cu)
    (effects (font (size 1.5 1.5) (thickness 0.3)))
  )
  (gr_line (start 16 16) (end 16 16) (layer Edge.Cuts) (width 0.15) (tstamp 5739E7FE))
  (gr_line (start 115.45 16) (end 16 16) (layer Edge.Cuts) (width 0.15))
  (gr_line (start 115.45 40.75) (end 115.45 16) (layer Edge.Cuts) (width 0.15))
  (gr_line (start 16 40.75) (end 115.45 40.75) (layer Edge.Cuts) (width 0.15))
  (gr_line (start 16 16) (end 16 40.75) (layer Edge.Cuts) (width 0.15))

  (segment (start 25.7 39.1) (end 31.6 39.1) (width 0.6096) (layer B.Cu) (net 0))
  (segment (start 31.6 39.1) (end 32.25 38.45) (width 0.6096) (layer B.Cu) (net 0))
  (segment (start 34.35 36.6) (end 34.79 37.04) (width 0.6096) (layer B.Cu) (net 0))
  (segment (start 34.79 37.04) (end 34.79 38.45) (width 0.6096) (layer B.Cu) (net 0))
  (segment (start 30.7 36.6) (end 34.35 36.6) (width 0.6096) (layer B.Cu) (net 0))
  (segment (start 29.47 37.83) (end 30.7 36.6) (width 0.6096) (layer B.Cu) (net 0))
  (segment (start 24.43 37.83) (end 29.47 37.83) (width 0.6096) (layer B.Cu) (net 0))
  (segment (start 18.35 17.95) (end 19.95 17.95) (width 0.25) (layer B.Cu) (net 0) (tstamp 5739E800))
  (segment (start 17.9 19.35) (end 17.9 18.35) (width 0.25) (layer B.Cu) (net 0))
  (segment (start 17.9 19.85) (end 17.9 19.95) (width 0.25) (layer B.Cu) (net 0))
  (segment (start 17.9 19.35) (end 17.9 19.85) (width 0.25) (layer B.Cu) (net 0))
  (via (at 95.35 31.1) (size 8) (drill 7.5) (layers F.Cu B.Cu) (net 0) (tstamp 5740651E))
  (via (at 105.35 31.1) (size 4) (drill 3) (layers F.Cu B.Cu) (net 0) (tstamp 57406672))
  (via (at 113.35 18) (size 3) (drill 2) (layers F.Cu B.Cu) (net 0) (tstamp 574065A6))
  (via (at 112.85 38.6) (size 3) (drill 2) (layers F.Cu B.Cu) (net 0))
  (via (at 80.35 31.1) (size 8) (drill 7.5) (layers F.Cu B.Cu) (net 0) (tstamp 5740651D))
  (via (at 18.1 38.65) (size 3) (drill 2) (layers F.Cu B.Cu) (net 0) (tstamp 57402E00))
  (via (at 38.9 18.05) (size 3) (drill 2) (layers F.Cu B.Cu) (net 0))
  (via (at 38.85 38.65) (size 3) (drill 2) (layers F.Cu B.Cu) (net 0) (tstamp 57406674))
  (via (at 43.85 38.6) (size 3) (drill 2) (layers F.Cu B.Cu) (net 0) (tstamp 574065A4))
  (via (at 65.35 31.1) (size 8) (drill 7.5) (layers F.Cu B.Cu) (net 0) (tstamp 5740651C))
  (via (at 64.8 38.6) (size 3) (drill 2) (layers F.Cu B.Cu) (net 0) (tstamp 5739D3B0))
  (via (at 64.6 18) (size 3) (drill 2) (layers F.Cu B.Cu) (net 0))
  (via (at 50.35 31.1) (size 8) (drill 7.5) (layers F.Cu B.Cu) (net 0))
  (via (at 65.35 31.1) (size 8) (drill 7.5) (layers F.Cu B.Cu) (net 0) (tstamp 57406519))
  (via (at 43.85 18.1) (size 3) (drill 2) (layers F.Cu B.Cu) (net 0) (tstamp 57406670))
  (segment (start 18.4 20.45) (end 20 20.45) (width 0.25) (layer B.Cu) (net 0))
  (segment (start 17.9 19.95) (end 18.4 20.45) (width 0.25) (layer B.Cu) (net 0))
  (segment (start 17.9 18.35) (end 18.3 17.95) (width 0.25) (layer B.Cu) (net 0))
  (segment (start 36.2 21.95) (end 49.25 21.95) (width 0.25) (layer B.Cu) (net 1))
  (segment (start 49.25 21.95) (end 49.65 21.55) (width 0.25) (layer B.Cu) (net 1))
  (via (at 49.65 21.55) (size 1.5) (drill 1) (layers F.Cu B.Cu) (net 1))
  (via (at 19.4 19.25) (size 1.5) (drill 1) (layers F.Cu B.Cu) (net 1))
  (segment (start 28.24 22.15) (end 28.24 20.5404) (width 0.6096) (layer B.Cu) (net 1))
  (segment (start 28.24 20.5404) (end 26.9496 19.25) (width 0.6096) (layer B.Cu) (net 1))
  (segment (start 26.9496 19.25) (end 19.4 19.25) (width 0.25) (layer B.Cu) (net 1))
  (segment (start 19.5 23.45) (end 24.4 23.45) (width 0.6096) (layer B.Cu) (net 2))
  (segment (start 24.4 23.45) (end 25.7 22.15) (width 0.6096) (layer B.Cu) (net 2))
  (segment (start 28.18316 25.99) (end 21.1256 25.99) (width 0.6096) (layer B.Cu) (net 3))
  (segment (start 32.22316 21.95) (end 28.18316 25.99) (width 0.6096) (layer B.Cu) (net 3))
  (segment (start 33.66 21.95) (end 32.22316 21.95) (width 0.6096) (layer B.Cu) (net 3))
  (segment (start 21.1256 25.99) (end 19.5 25.99) (width 0.6096) (layer B.Cu) (net 3))
  (segment (start 32.22316 26.05) (end 29.74316 28.53) (width 0.6096) (layer B.Cu) (net 4))
  (segment (start 33.66 26.05) (end 32.22316 26.05) (width 0.6096) (layer B.Cu) (net 4))
  (segment (start 29.74316 28.53) (end 21.1256 28.53) (width 0.6096) (layer B.Cu) (net 4))
  (segment (start 21.1256 28.53) (end 19.5 28.53) (width 0.6096) (layer B.Cu) (net 4))
  (segment (start 33.66 30.15) (end 24.8 30.15) (width 0.6096) (layer B.Cu) (net 5))
  (segment (start 23.88 31.07) (end 19.5 31.07) (width 0.6096) (layer B.Cu) (net 5))
  (segment (start 24.8 30.15) (end 23.88 31.07) (width 0.6096) (layer B.Cu) (net 5))
  (segment (start 33.6 34.25) (end 20.14 34.25) (width 0.6096) (layer B.Cu) (net 6))
  (segment (start 20.14 34.25) (end 19.5 33.61) (width 0.6096) (layer B.Cu) (net 6))

  (zone (net 1) (net_name GND) (layer B.Cu) (tstamp 5740661A) (hatch edge 0.508)
    (connect_pads (clearance 0.3))
    (min_thickness 0.254)
    (fill yes (arc_segments 16) (thermal_gap 0.508) (thermal_bridge_width 0.508))
    (polygon
      (pts
        (xy 41.85 16.1) (xy 41.85 40.6) (xy 115.35 40.65) (xy 115.35 16.1)
      )
    )
    (filled_polygon
      (pts
        (xy 62.967322 16.907017) (xy 62.673335 17.615014) (xy 62.672666 18.381622) (xy 62.965416 19.090132) (xy 63.507017 19.632678)
        (xy 64.215014 19.926665) (xy 64.981622 19.927334) (xy 65.690132 19.634584) (xy 66.232678 19.092983) (xy 66.526665 18.384986)
        (xy 66.527334 17.618378) (xy 66.234584 16.909868) (xy 65.827426 16.502) (xy 70.601571 16.502) (xy 70.601571 22.327)
        (xy 102.898429 22.327) (xy 102.898429 16.502) (xy 112.123046 16.502) (xy 111.717322 16.907017) (xy 111.423335 17.615014)
        (xy 111.422666 18.381622) (xy 111.715416 19.090132) (xy 112.257017 19.632678) (xy 112.965014 19.926665) (xy 113.731622 19.927334)
        (xy 114.440132 19.634584) (xy 114.948 19.127601) (xy 114.948 40.248) (xy 113.907663 40.248) (xy 113.940132 40.234584)
        (xy 114.482678 39.692983) (xy 114.776665 38.984986) (xy 114.777334 38.218378) (xy 114.484584 37.509868) (xy 113.942983 36.967322)
        (xy 113.234986 36.673335) (xy 112.468378 36.672666) (xy 111.759868 36.965416) (xy 111.217322 37.507017) (xy 110.923335 38.215014)
        (xy 110.922666 38.981622) (xy 111.215416 39.690132) (xy 111.757017 40.232678) (xy 111.793916 40.248) (xy 65.857663 40.248)
        (xy 65.890132 40.234584) (xy 66.432678 39.692983) (xy 66.726665 38.984986) (xy 66.727334 38.218378) (xy 66.434584 37.509868)
        (xy 65.892983 36.967322) (xy 65.184986 36.673335) (xy 64.418378 36.672666) (xy 63.709868 36.965416) (xy 63.167322 37.507017)
        (xy 62.873335 38.215014) (xy 62.872666 38.981622) (xy 63.165416 39.690132) (xy 63.707017 40.232678) (xy 63.743916 40.248)
        (xy 44.907663 40.248) (xy 44.940132 40.234584) (xy 45.482678 39.692983) (xy 45.776665 38.984986) (xy 45.777334 38.218378)
        (xy 45.484584 37.509868) (xy 44.942983 36.967322) (xy 44.234986 36.673335) (xy 43.468378 36.672666) (xy 42.759868 36.965416)
        (xy 42.217322 37.507017) (xy 41.977 38.085775) (xy 41.977 31.976721) (xy 45.922233 31.976721) (xy 46.594784 33.604418)
        (xy 47.839032 34.85084) (xy 49.465552 35.52623) (xy 51.226721 35.527767) (xy 52.854418 34.855216) (xy 54.10084 33.610968)
        (xy 54.77623 31.984448) (xy 54.776236 31.976721) (xy 60.922233 31.976721) (xy 61.594784 33.604418) (xy 62.839032 34.85084)
        (xy 64.465552 35.52623) (xy 66.226721 35.527767) (xy 67.854418 34.855216) (xy 69.10084 33.610968) (xy 69.77623 31.984448)
        (xy 69.776236 31.976721) (xy 75.922233 31.976721) (xy 76.594784 33.604418) (xy 77.839032 34.85084) (xy 79.465552 35.52623)
        (xy 81.226721 35.527767) (xy 82.854418 34.855216) (xy 84.10084 33.610968) (xy 84.77623 31.984448) (xy 84.776236 31.976721)
        (xy 90.922233 31.976721) (xy 91.594784 33.604418) (xy 92.839032 34.85084) (xy 94.465552 35.52623) (xy 96.226721 35.527767)
        (xy 97.854418 34.855216) (xy 99.10084 33.610968) (xy 99.77623 31.984448) (xy 99.776582 31.580642) (xy 102.922579 31.580642)
        (xy 103.29129 32.472989) (xy 103.97342 33.156311) (xy 104.865122 33.526578) (xy 105.830642 33.527421) (xy 106.722989 33.15871)
        (xy 107.406311 32.47658) (xy 107.776578 31.584878) (xy 107.777421 30.619358) (xy 107.40871 29.727011) (xy 106.72658 29.043689)
        (xy 105.834878 28.673422) (xy 104.869358 28.672579) (xy 103.977011 29.04129) (xy 103.293689 29.72342) (xy 102.923422 30.615122)
        (xy 102.922579 31.580642) (xy 99.776582 31.580642) (xy 99.777767 30.223279) (xy 99.105216 28.595582) (xy 97.860968 27.34916)
        (xy 96.234448 26.67377) (xy 94.473279 26.672233) (xy 92.845582 27.344784) (xy 91.59916 28.589032) (xy 90.92377 30.215552)
        (xy 90.922233 31.976721) (xy 84.776236 31.976721) (xy 84.777767 30.223279) (xy 84.105216 28.595582) (xy 82.860968 27.34916)
        (xy 81.234448 26.67377) (xy 79.473279 26.672233) (xy 77.845582 27.344784) (xy 76.59916 28.589032) (xy 75.92377 30.215552)
        (xy 75.922233 31.976721) (xy 69.776236 31.976721) (xy 69.777767 30.223279) (xy 69.105216 28.595582) (xy 67.860968 27.34916)
        (xy 66.234448 26.67377) (xy 64.473279 26.672233) (xy 62.845582 27.344784) (xy 61.59916 28.589032) (xy 60.92377 30.215552)
        (xy 60.922233 31.976721) (xy 54.776236 31.976721) (xy 54.777767 30.223279) (xy 54.105216 28.595582) (xy 52.860968 27.34916)
        (xy 51.234448 26.67377) (xy 49.473279 26.672233) (xy 47.845582 27.344784) (xy 46.59916 28.589032) (xy 45.92377 30.215552)
        (xy 45.922233 31.976721) (xy 41.977 31.976721) (xy 41.977 18.61312) (xy 42.215416 19.190132) (xy 42.757017 19.732678)
        (xy 43.465014 20.026665) (xy 44.231622 20.027334) (xy 44.940132 19.734584) (xy 45.482678 19.192983) (xy 45.776665 18.484986)
        (xy 45.777334 17.718378) (xy 45.484584 17.009868) (xy 44.977601 16.502) (xy 63.373046 16.502)
      )
    )
  )
  (zone (net 1) (net_name GND) (layer B.Cu) (tstamp 574019FD) (hatch edge 0.508)
    (connect_pads (clearance 0.3))
    (min_thickness 0.254)
    (fill yes (arc_segments 16) (thermal_gap 0.508) (thermal_bridge_width 0.508))
    (polygon
      (pts
        (xy 16.1 16.077256) (xy 16.1 40.65) (xy 40.9 40.65) (xy 40.9 16.077256)
      )
    )
    (filled_polygon
      (pts
        (xy 37.267322 16.957017) (xy 36.973335 17.665014) (xy 36.972666 18.431622) (xy 37.265416 19.140132) (xy 37.807017 19.682678)
        (xy 38.515014 19.976665) (xy 39.281622 19.977334) (xy 39.990132 19.684584) (xy 40.532678 19.142983) (xy 40.773 18.564225)
        (xy 40.773 38.257889) (xy 40.484584 37.559868) (xy 39.942983 37.017322) (xy 39.234986 36.723335) (xy 38.468378 36.722666)
        (xy 37.759868 37.015416) (xy 37.217322 37.557017) (xy 36.923335 38.265014) (xy 36.922666 39.031622) (xy 37.215416 39.740132)
        (xy 37.722399 40.248) (xy 19.22678 40.248) (xy 19.732678 39.742983) (xy 20.026665 39.034986) (xy 20.027334 38.268378)
        (xy 19.922086 38.013658) (xy 23.50246 38.013658) (xy 23.643347 38.354632) (xy 23.903996 38.615736) (xy 24.244724 38.757218)
        (xy 24.613658 38.75754) (xy 24.884523 38.645621) (xy 24.772782 38.914724) (xy 24.77246 39.283658) (xy 24.913347 39.624632)
        (xy 25.173996 39.885736) (xy 25.514724 40.027218) (xy 25.883658 40.02754) (xy 26.224632 39.886653) (xy 26.279581 39.8318)
        (xy 31.6 39.8318) (xy 31.880048 39.776095) (xy 31.920651 39.748965) (xy 33.1136 39.748965) (xy 33.271837 39.719191)
        (xy 33.417167 39.625673) (xy 33.514664 39.482981) (xy 33.548965 39.3136) (xy 33.548965 38.826291) (xy 33.572357 38.943891)
        (xy 33.852124 39.362592) (xy 34.270825 39.642359) (xy 34.764716 39.7406) (xy 34.815284 39.7406) (xy 35.309175 39.642359)
        (xy 35.727876 39.362592) (xy 36.007643 38.943891) (xy 36.105884 38.45) (xy 36.007643 37.956109) (xy 35.727876 37.537408)
        (xy 35.5218 37.399712) (xy 35.5218 37.04) (xy 35.466095 36.759952) (xy 35.307461 36.522539) (xy 34.867461 36.082539)
        (xy 34.630048 35.923905) (xy 34.35 35.8682) (xy 30.700005 35.8682) (xy 30.7 35.868199) (xy 30.466416 35.914663)
        (xy 30.419952 35.923905) (xy 30.326395 35.986418) (xy 30.182539 36.082539) (xy 29.166878 37.0982) (xy 26.717337 37.0982)
        (xy 26.848491 36.70512) (xy 26.816602 36.254565) (xy 26.705532 35.986418) (xy 26.490381 35.949224) (xy 25.879605 36.56)
        (xy 25.893748 36.574143) (xy 25.714143 36.753748) (xy 25.7 36.739605) (xy 25.685858 36.753748) (xy 25.506253 36.574143)
        (xy 25.520395 36.56) (xy 24.909619 35.949224) (xy 24.694468 35.986418) (xy 24.551509 36.41488) (xy 24.583398 36.865435)
        (xy 24.598862 36.902768) (xy 24.246342 36.90246) (xy 23.905368 37.043347) (xy 23.644264 37.303996) (xy 23.502782 37.644724)
        (xy 23.50246 38.013658) (xy 19.922086 38.013658) (xy 19.734584 37.559868) (xy 19.192983 37.017322) (xy 18.484986 36.723335)
        (xy 17.718378 36.722666) (xy 17.009868 37.015416) (xy 16.502 37.522399) (xy 16.502 35.769619) (xy 25.089224 35.769619)
        (xy 25.7 36.380395) (xy 26.310776 35.769619) (xy 26.273582 35.554468) (xy 25.84512 35.411509) (xy 25.394565 35.443398)
        (xy 25.126418 35.554468) (xy 25.089224 35.769619) (xy 16.502 35.769619) (xy 16.502 25.99) (xy 18.02873 25.99)
        (xy 18.126971 26.483891) (xy 18.406738 26.902592) (xy 18.825439 27.182359) (xy 19.215767 27.26) (xy 18.825439 27.337641)
        (xy 18.406738 27.617408) (xy 18.126971 28.036109) (xy 18.02873 28.53) (xy 18.126971 29.023891) (xy 18.406738 29.442592)
        (xy 18.825439 29.722359) (xy 19.215767 29.8) (xy 18.825439 29.877641) (xy 18.406738 30.157408) (xy 18.126971 30.576109)
        (xy 18.02873 31.07) (xy 18.126971 31.563891) (xy 18.406738 31.982592) (xy 18.825439 32.262359) (xy 19.215767 32.34)
        (xy 18.825439 32.417641) (xy 18.406738 32.697408) (xy 18.126971 33.116109) (xy 18.02873 33.61) (xy 18.126971 34.103891)
        (xy 18.406738 34.522592) (xy 18.825439 34.802359) (xy 19.31933 34.9006) (xy 19.68067 34.9006) (xy 19.789421 34.878968)
        (xy 19.859952 34.926095) (xy 19.906416 34.935337) (xy 20.14 34.981801) (xy 20.140005 34.9818) (xy 32.358569 34.9818)
        (xy 32.551375 35.270355) (xy 33.019518 35.583158) (xy 33.57173 35.693) (xy 33.62827 35.693) (xy 34.180482 35.583158)
        (xy 34.489 35.377013) (xy 34.489 35.39231) (xy 34.585673 35.625699) (xy 34.764302 35.804327) (xy 34.997691 35.901)
        (xy 35.85425 35.901) (xy 36.013 35.74225) (xy 36.013 34.377) (xy 36.267 34.377) (xy 36.267 35.74225)
        (xy 36.42575 35.901) (xy 37.282309 35.901) (xy 37.515698 35.804327) (xy 37.694327 35.625699) (xy 37.791 35.39231)
        (xy 37.791 34.53575) (xy 37.63225 34.377) (xy 36.267 34.377) (xy 36.013 34.377) (xy 35.993 34.377)
        (xy 35.993 34.123) (xy 36.013 34.123) (xy 36.013 32.75775) (xy 36.267 32.75775) (xy 36.267 34.123)
        (xy 37.63225 34.123) (xy 37.791 33.96425) (xy 37.791 33.10769) (xy 37.694327 32.874301) (xy 37.515698 32.695673)
        (xy 37.282309 32.599) (xy 36.42575 32.599) (xy 36.267 32.75775) (xy 36.013 32.75775) (xy 35.85425 32.599)
        (xy 34.997691 32.599) (xy 34.764302 32.695673) (xy 34.585673 32.874301) (xy 34.489 33.10769) (xy 34.489 33.122987)
        (xy 34.180482 32.916842) (xy 33.62827 32.807) (xy 33.57173 32.807) (xy 33.019518 32.916842) (xy 32.551375 33.229645)
        (xy 32.358569 33.5182) (xy 20.95301 33.5182) (xy 20.873029 33.116109) (xy 20.593262 32.697408) (xy 20.174561 32.417641)
        (xy 19.784233 32.34) (xy 20.174561 32.262359) (xy 20.593262 31.982592) (xy 20.714063 31.8018) (xy 23.88 31.8018)
        (xy 24.160048 31.746095) (xy 24.397461 31.587461) (xy 25.103121 30.8818) (xy 32.418569 30.8818) (xy 32.611375 31.170355)
        (xy 33.079518 31.483158) (xy 33.63173 31.593) (xy 33.68827 31.593) (xy 34.240482 31.483158) (xy 34.549 31.277013)
        (xy 34.549 31.29231) (xy 34.645673 31.525699) (xy 34.824302 31.704327) (xy 35.057691 31.801) (xy 35.91425 31.801)
        (xy 36.073 31.64225) (xy 36.073 30.277) (xy 36.327 30.277) (xy 36.327 31.64225) (xy 36.48575 31.801)
        (xy 37.342309 31.801) (xy 37.575698 31.704327) (xy 37.754327 31.525699) (xy 37.851 31.29231) (xy 37.851 30.43575)
        (xy 37.69225 30.277) (xy 36.327 30.277) (xy 36.073 30.277) (xy 36.053 30.277) (xy 36.053 30.023)
        (xy 36.073 30.023) (xy 36.073 28.65775) (xy 36.327 28.65775) (xy 36.327 30.023) (xy 37.69225 30.023)
        (xy 37.851 29.86425) (xy 37.851 29.00769) (xy 37.754327 28.774301) (xy 37.575698 28.595673) (xy 37.342309 28.499)
        (xy 36.48575 28.499) (xy 36.327 28.65775) (xy 36.073 28.65775) (xy 35.91425 28.499) (xy 35.057691 28.499)
        (xy 34.824302 28.595673) (xy 34.645673 28.774301) (xy 34.549 29.00769) (xy 34.549 29.022987) (xy 34.240482 28.816842)
        (xy 33.68827 28.707) (xy 33.63173 28.707) (xy 33.079518 28.816842) (xy 32.611375 29.129645) (xy 32.418569 29.4182)
        (xy 24.8 29.4182) (xy 24.519952 29.473905) (xy 24.282539 29.632539) (xy 24.282537 29.632542) (xy 23.576878 30.3382)
        (xy 20.714063 30.3382) (xy 20.593262 30.157408) (xy 20.174561 29.877641) (xy 19.784233 29.8) (xy 20.174561 29.722359)
        (xy 20.593262 29.442592) (xy 20.714063 29.2618) (xy 29.74316 29.2618) (xy 30.023208 29.206095) (xy 30.260621 29.047461)
        (xy 32.461712 26.846369) (xy 32.611375 27.070355) (xy 33.079518 27.383158) (xy 33.63173 27.493) (xy 33.68827 27.493)
        (xy 34.240482 27.383158) (xy 34.549 27.177013) (xy 34.549 27.19231) (xy 34.645673 27.425699) (xy 34.824302 27.604327)
        (xy 35.057691 27.701) (xy 35.91425 27.701) (xy 36.073 27.54225) (xy 36.073 26.177) (xy 36.327 26.177)
        (xy 36.327 27.54225) (xy 36.48575 27.701) (xy 37.342309 27.701) (xy 37.575698 27.604327) (xy 37.754327 27.425699)
        (xy 37.851 27.19231) (xy 37.851 26.33575) (xy 37.69225 26.177) (xy 36.327 26.177) (xy 36.073 26.177)
        (xy 36.053 26.177) (xy 36.053 25.923) (xy 36.073 25.923) (xy 36.073 24.55775) (xy 36.327 24.55775)
        (xy 36.327 25.923) (xy 37.69225 25.923) (xy 37.851 25.76425) (xy 37.851 24.90769) (xy 37.754327 24.674301)
        (xy 37.575698 24.495673) (xy 37.342309 24.399) (xy 36.48575 24.399) (xy 36.327 24.55775) (xy 36.073 24.55775)
        (xy 35.91425 24.399) (xy 35.057691 24.399) (xy 34.824302 24.495673) (xy 34.645673 24.674301) (xy 34.549 24.90769)
        (xy 34.549 24.922987) (xy 34.240482 24.716842) (xy 33.68827 24.607) (xy 33.63173 24.607) (xy 33.079518 24.716842)
        (xy 32.611375 25.029645) (xy 32.418569 25.3182) (xy 32.223165 25.3182) (xy 32.22316 25.318199) (xy 31.989576 25.364663)
        (xy 31.943112 25.373905) (xy 31.705699 25.532539) (xy 31.705697 25.532542) (xy 29.440038 27.7982) (xy 20.714063 27.7982)
        (xy 20.593262 27.617408) (xy 20.174561 27.337641) (xy 19.784233 27.26) (xy 20.174561 27.182359) (xy 20.593262 26.902592)
        (xy 20.714063 26.7218) (xy 28.18316 26.7218) (xy 28.463208 26.666095) (xy 28.700621 26.507461) (xy 32.461713 22.746369)
        (xy 32.611375 22.970355) (xy 33.079518 23.283158) (xy 33.63173 23.393) (xy 33.68827 23.393) (xy 34.240482 23.283158)
        (xy 34.549 23.077013) (xy 34.549 23.09231) (xy 34.645673 23.325699) (xy 34.824302 23.504327) (xy 35.057691 23.601)
        (xy 35.91425 23.601) (xy 36.073 23.44225) (xy 36.073 22.077) (xy 36.327 22.077) (xy 36.327 23.44225)
        (xy 36.48575 23.601) (xy 37.342309 23.601) (xy 37.575698 23.504327) (xy 37.754327 23.325699) (xy 37.851 23.09231)
        (xy 37.851 22.23575) (xy 37.69225 22.077) (xy 36.327 22.077) (xy 36.073 22.077) (xy 36.053 22.077)
        (xy 36.053 21.823) (xy 36.073 21.823) (xy 36.073 20.45775) (xy 36.327 20.45775) (xy 36.327 21.823)
        (xy 37.69225 21.823) (xy 37.851 21.66425) (xy 37.851 20.80769) (xy 37.754327 20.574301) (xy 37.575698 20.395673)
        (xy 37.342309 20.299) (xy 36.48575 20.299) (xy 36.327 20.45775) (xy 36.073 20.45775) (xy 35.91425 20.299)
        (xy 35.057691 20.299) (xy 34.824302 20.395673) (xy 34.645673 20.574301) (xy 34.549 20.80769) (xy 34.549 20.822987)
        (xy 34.240482 20.616842) (xy 33.68827 20.507) (xy 33.63173 20.507) (xy 33.079518 20.616842) (xy 32.611375 20.929645)
        (xy 32.418569 21.2182) (xy 32.223165 21.2182) (xy 32.22316 21.218199) (xy 31.989576 21.264663) (xy 31.943112 21.273905)
        (xy 31.757708 21.397788) (xy 31.705699 21.432539) (xy 29.875 23.263238) (xy 29.875 22.43575) (xy 29.71625 22.277)
        (xy 28.367 22.277) (xy 28.367 23.62625) (xy 28.52575 23.785) (xy 29.353238 23.785) (xy 27.880038 25.2582)
        (xy 20.714063 25.2582) (xy 20.593262 25.077408) (xy 20.174561 24.797641) (xy 19.92985 24.748965) (xy 20.516 24.748965)
        (xy 20.674237 24.719191) (xy 20.819567 24.625673) (xy 20.917064 24.482981) (xy 20.951365 24.3136) (xy 20.951365 24.1818)
        (xy 24.4 24.1818) (xy 24.680048 24.126095) (xy 24.917461 23.967461) (xy 25.339487 23.545435) (xy 25.414907 23.576752)
        (xy 25.982603 23.577248) (xy 26.507275 23.360457) (xy 26.605 23.262903) (xy 26.605 23.276309) (xy 26.701673 23.509698)
        (xy 26.880301 23.688327) (xy 27.11369 23.785) (xy 27.95425 23.785) (xy 28.113 23.62625) (xy 28.113 22.277)
        (xy 28.093 22.277) (xy 28.093 22.023) (xy 28.113 22.023) (xy 28.113 20.67375) (xy 28.367 20.67375)
        (xy 28.367 22.023) (xy 29.71625 22.023) (xy 29.875 21.86425) (xy 29.875 21.023691) (xy 29.778327 20.790302)
        (xy 29.599699 20.611673) (xy 29.36631 20.515) (xy 28.52575 20.515) (xy 28.367 20.67375) (xy 28.113 20.67375)
        (xy 27.95425 20.515) (xy 27.11369 20.515) (xy 26.880301 20.611673) (xy 26.701673 20.790302) (xy 26.605 21.023691)
        (xy 26.605 21.036734) (xy 26.509386 20.940953) (xy 25.985093 20.723248) (xy 25.417397 20.722752) (xy 24.892725 20.939543)
        (xy 24.490953 21.340614) (xy 24.273248 21.864907) (xy 24.272752 22.432603) (xy 24.304833 22.510245) (xy 24.096878 22.7182)
        (xy 20.951365 22.7182) (xy 20.951365 22.5864) (xy 20.921591 22.428163) (xy 20.828073 22.282833) (xy 20.685381 22.185336)
        (xy 20.516 22.151035) (xy 18.484 22.151035) (xy 18.325763 22.180809) (xy 18.180433 22.274327) (xy 18.082936 22.417019)
        (xy 18.048635 22.5864) (xy 18.048635 24.3136) (xy 18.078409 24.471837) (xy 18.171927 24.617167) (xy 18.314619 24.714664)
        (xy 18.484 24.748965) (xy 19.07015 24.748965) (xy 18.825439 24.797641) (xy 18.406738 25.077408) (xy 18.126971 25.496109)
        (xy 18.02873 25.99) (xy 16.502 25.99) (xy 16.502 18.35) (xy 17.348 18.35) (xy 17.348 19.95)
        (xy 17.390018 20.161242) (xy 17.509677 20.340323) (xy 18.009677 20.840323) (xy 18.188758 20.959982) (xy 18.4 21.002)
        (xy 20 21.002) (xy 20.211241 20.959982) (xy 20.390323 20.840323) (xy 20.509982 20.661241) (xy 20.552 20.45)
        (xy 20.509982 20.238759) (xy 20.390323 20.059677) (xy 20.211241 19.940018) (xy 20 19.898) (xy 18.628646 19.898)
        (xy 18.452 19.721354) (xy 18.452 18.578646) (xy 18.528646 18.502) (xy 19.95 18.502) (xy 20.161241 18.459982)
        (xy 20.340323 18.340323) (xy 20.459982 18.161241) (xy 20.502 17.95) (xy 20.459982 17.738759) (xy 20.340323 17.559677)
        (xy 20.161241 17.440018) (xy 19.95 17.398) (xy 18.35 17.398) (xy 18.325 17.402973) (xy 18.3 17.398)
        (xy 18.088758 17.440019) (xy 17.909677 17.559677) (xy 17.509677 17.959677) (xy 17.390018 18.138758) (xy 17.390018 18.138759)
        (xy 17.348 18.35) (xy 16.502 18.35) (xy 16.502 16.502) (xy 37.723133 16.502)
      )
    )
  )
)
