PCBNEW-LibModule-V1  2014-07-20 02:57:23
# encoding utf-8
Units mm
$INDEX
mopsiok_nixie_IN-12A
mopsiok_nixie_INS-1
$EndINDEX
$MODULE mopsiok_nixie_IN-12A
Po 0 0 0 15 53CAFF1B 00000000 ~~
Li mopsiok_nixie_IN-12A
Cd MAY BE USED WITH SOCKET: SK-136
Kw MAY BE USED WITH SOCKET: SK-136
Sc 0
AR 
Op 0 0 0
At VIRTUAL
T0 8.636 0 1.27 1.27 900 0.0889 N V 20 N ">NAME"
T1 0 0 1.524 1.524 0 0.15 N V 21 N "Val**"
DS 10.033 -14.732 10.033 14.732 0.15 21
DS -10.033 -14.732 -10.033 14.732 0.15 21
DS -10 14.75 10 14.75 0.15 21
DS -10 -14.75 10 -14.75 0.15 21
DC 0 0 -1.27 1.27 0.0635 21
DC 0 0 -1.24968 1.24968 0.127 21
DS -2.49936 0 2.49936 0 0.127 21
DS 0 2.49936 0 -2.49936 0.127 21
$PAD
Sh "0" C 2.54 2.54 0 0 0
Dr 1.09982 0 0
At STD N 00A88001
Ne 0 ""
Po 5.55498 4.49834
$EndPAD
$PAD
Sh "1" C 2.54 2.54 0 0 0
Dr 1.09982 0 0
At STD N 00A88001
Ne 0 ""
Po -3.80746 7.81558
$EndPAD
$PAD
Sh "2" C 2.54 2.54 0 0 0
Dr 1.09982 0 0
At STD N 00A88001
Ne 0 ""
Po -5.49148 4.49834
$EndPAD
$PAD
Sh "3" C 2.54 2.54 0 0 0
Dr 1.09982 0 0
At STD N 00A88001
Ne 0 ""
Po -5.61848 0
$EndPAD
$PAD
Sh "4" C 2.54 2.54 0 0 0
Dr 1.09982 0 0
At STD N 00A88001
Ne 0 ""
Po -5.49148 -4.49834
$EndPAD
$PAD
Sh "5" C 2.54 2.54 0 0 0
Dr 1.09982 0 0
At STD N 00A88001
Ne 0 ""
Po -3.80746 -7.81558
$EndPAD
$PAD
Sh "6" C 2.54 2.54 0 0 0
Dr 1.09982 0 0
At STD N 00A88001
Ne 0 ""
Po 0.1905 -8.81634
$EndPAD
$PAD
Sh "7" C 2.54 2.54 0 0 0
Dr 1.09982 0 0
At STD N 00A88001
Ne 0 ""
Po 4.18846 -7.81558
$EndPAD
$PAD
Sh "8" C 2.54 2.54 0 0 0
Dr 1.09982 0 0
At STD N 00A88001
Ne 0 ""
Po 5.55498 -4.49834
$EndPAD
$PAD
Sh "9" C 2.54 2.54 0 0 0
Dr 1.09982 0 0
At STD N 00A88001
Ne 0 ""
Po 5.68198 0
$EndPAD
$PAD
Sh "A" C 2.54 2.54 0 0 0
Dr 1.09982 0 0
At STD N 00A88001
Ne 0 ""
Po 4.18846 7.81558
$EndPAD
$PAD
Sh "LHDP" C 2.54 2.54 0 0 0
Dr 1.09982 0 0
At STD N 00A88001
Ne 0 ""
Po 0.1905 8.81634
$EndPAD
$EndMODULE mopsiok_nixie_IN-12A
$MODULE mopsiok_nixie_INS-1
Po 0 0 0 15 53CB119E 00000000 ~~
Li mopsiok_nixie_INS-1
Sc 0
AR 
Op 0 0 0
T0 0 4.445 1 1 0 0.1 N V 21 N ">NAME"
T1 0 -4.191 1 1 0 0.1 N V 21 N "VAL**"
DC 0 0 3.302 0 0.15 21
$PAD
Sh "1" C 1.4 1.4 0 0 0
Dr 0.6 0 0
At STD N 00E0FFFF
Ne 0 ""
Po 0 -1.905
$EndPAD
$PAD
Sh "2" C 1.4 1.4 0 0 0
Dr 0.6 0 0
At STD N 00E0FFFF
Ne 0 ""
Po 0 1.905
$EndPAD
$EndMODULE mopsiok_nixie_INS-1
$EndLIBRARY
