EESchema Schematic File Version 2
LIBS:power
LIBS:device
LIBS:transistors
LIBS:conn
LIBS:linear
LIBS:regul
LIBS:74xx
LIBS:cmos4000
LIBS:adc-dac
LIBS:memory
LIBS:xilinx
LIBS:microcontrollers
LIBS:dsp
LIBS:microchip
LIBS:analog_switches
LIBS:motorola
LIBS:texas
LIBS:intel
LIBS:audio
LIBS:interface
LIBS:digital-audio
LIBS:philips
LIBS:display
LIBS:cypress
LIBS:siliconi
LIBS:opto
LIBS:atmel
LIBS:contrib
LIBS:valves
LIBS:stm32
LIBS:warsztaty
LIBS:minisumo-cache
EELAYER 25 0
EELAYER END
$Descr A3 16535 11693
encoding utf-8
Sheet 1 1
Title ""
Date ""
Rev ""
Comp ""
Comment1 ""
Comment2 ""
Comment3 ""
Comment4 ""
$EndDescr
$Comp
L LM1117 U2
U 1 1 564279F7
P 3400 3000
F 0 "U2" H 3550 2804 60  0000 C CNN
F 1 "LM1117" H 3400 3200 60  0000 C CNN
F 2 "worksh:LM1117_SOT223" H 3400 3000 60  0001 C CNN
F 3 "" H 3400 3000 60  0000 C CNN
	1    3400 3000
	1    0    0    -1  
$EndComp
$Comp
L C_Small C6
U 1 1 564279FD
P 2900 3100
F 0 "C6" H 2910 3170 50  0000 L CNN
F 1 "100nF" H 2910 3020 50  0000 L CNN
F 2 "Capacitors_SMD:C_0603_HandSoldering" H 2900 3100 60  0001 C CNN
F 3 "" H 2900 3100 60  0000 C CNN
	1    2900 3100
	1    0    0    -1  
$EndComp
$Comp
L C_Small C8
U 1 1 56427A03
P 3900 3100
F 0 "C8" H 3910 3170 50  0000 L CNN
F 1 "100nF" H 3910 3020 50  0000 L CNN
F 2 "Capacitors_SMD:C_0603_HandSoldering" H 3900 3100 60  0001 C CNN
F 3 "" H 3900 3100 60  0000 C CNN
	1    3900 3100
	1    0    0    -1  
$EndComp
$Comp
L CP_Small C4
U 1 1 56427A09
P 2650 3100
F 0 "C4" H 2660 3170 50  0000 L CNN
F 1 "47uF" H 2660 3020 50  0000 L CNN
F 2 "Capacitors_Tantalum_SMD:TantalC_SizeC_EIA-6032_HandSoldering" H 2650 3100 60  0001 C CNN
F 3 "" H 2650 3100 60  0000 C CNN
	1    2650 3100
	1    0    0    -1  
$EndComp
$Comp
L CP_Small C10
U 1 1 56427A0F
P 4250 3100
F 0 "C10" H 4260 3170 50  0000 L CNN
F 1 "10uF tantal" H 4260 3020 50  0000 L CNN
F 2 "Capacitors_Tantalum_SMD:TantalC_SizeA_EIA-3216_HandSoldering" H 4250 3100 60  0001 C CNN
F 3 "" H 4250 3100 60  0000 C CNN
	1    4250 3100
	1    0    0    -1  
$EndComp
$Comp
L LM1117 U1
U 1 1 56427C6A
P 3400 1700
F 0 "U1" H 3550 1504 60  0000 C CNN
F 1 "LM1117" H 3400 1900 60  0000 C CNN
F 2 "worksh:LM1117_SOT223" H 3400 1700 60  0001 C CNN
F 3 "" H 3400 1700 60  0000 C CNN
	1    3400 1700
	1    0    0    -1  
$EndComp
$Comp
L C_Small C5
U 1 1 56427C70
P 2900 1800
F 0 "C5" H 2910 1870 50  0000 L CNN
F 1 "100nF" H 2910 1720 50  0000 L CNN
F 2 "Capacitors_SMD:C_0603_HandSoldering" H 2900 1800 60  0001 C CNN
F 3 "" H 2900 1800 60  0000 C CNN
	1    2900 1800
	1    0    0    -1  
$EndComp
$Comp
L C_Small C7
U 1 1 56427C76
P 3900 1800
F 0 "C7" H 3910 1870 50  0000 L CNN
F 1 "100nF" H 3910 1720 50  0000 L CNN
F 2 "Capacitors_SMD:C_0603_HandSoldering" H 3900 1800 60  0001 C CNN
F 3 "" H 3900 1800 60  0000 C CNN
	1    3900 1800
	1    0    0    -1  
$EndComp
$Comp
L CP_Small C3
U 1 1 56427C7C
P 2650 1800
F 0 "C3" H 2660 1870 50  0000 L CNN
F 1 "47uF" H 2660 1720 50  0000 L CNN
F 2 "Capacitors_Tantalum_SMD:TantalC_SizeC_EIA-6032_HandSoldering" H 2650 1800 60  0001 C CNN
F 3 "" H 2650 1800 60  0000 C CNN
	1    2650 1800
	1    0    0    -1  
$EndComp
$Comp
L CP_Small C9
U 1 1 56427C82
P 4250 1800
F 0 "C9" H 4260 1870 50  0000 L CNN
F 1 "10uF tantal" H 4260 1720 50  0000 L CNN
F 2 "Capacitors_Tantalum_SMD:TantalC_SizeA_EIA-3216_HandSoldering" H 4250 1800 60  0001 C CNN
F 3 "" H 4250 1800 60  0000 C CNN
	1    4250 1800
	1    0    0    -1  
$EndComp
$Comp
L INDUCTOR_SMALL L1
U 1 1 56428322
P 3650 4600
F 0 "L1" H 3650 4700 50  0000 C CNN
F 1 "10uH" H 3650 4550 50  0000 C CNN
F 2 "Choke_SMD:Choke_SMD_7.3x7.3_H3.5" H 3650 4600 60  0001 C CNN
F 3 "" H 3650 4600 60  0000 C CNN
	1    3650 4600
	0    1    1    0   
$EndComp
$Comp
L C_Small C11
U 1 1 56428432
P 3150 5200
F 0 "C11" H 3160 5270 50  0000 L CNN
F 1 "100nF" H 3160 5120 50  0000 L CNN
F 2 "Capacitors_SMD:C_0603_HandSoldering" H 3150 5200 60  0001 C CNN
F 3 "" H 3150 5200 60  0000 C CNN
	1    3150 5200
	1    0    0    -1  
$EndComp
$Comp
L VCC #PWR01
U 1 1 564317D7
P 2350 1650
F 0 "#PWR01" H 2350 1500 50  0001 C CNN
F 1 "VCC" H 2350 1800 50  0000 C CNN
F 2 "" H 2350 1650 60  0000 C CNN
F 3 "" H 2350 1650 60  0000 C CNN
	1    2350 1650
	0    -1   -1   0   
$EndComp
$Comp
L VCC #PWR02
U 1 1 5643181C
P 2350 2950
F 0 "#PWR02" H 2350 2800 50  0001 C CNN
F 1 "VCC" H 2350 3100 50  0000 C CNN
F 2 "" H 2350 2950 60  0000 C CNN
F 3 "" H 2350 2950 60  0000 C CNN
	1    2350 2950
	0    -1   -1   0   
$EndComp
$Comp
L +3.3V #PWR03
U 1 1 5643195B
P 5100 2950
F 0 "#PWR03" H 5100 2800 50  0001 C CNN
F 1 "+3.3V" H 5100 3090 50  0000 C CNN
F 2 "" H 5100 2950 60  0000 C CNN
F 3 "" H 5100 2950 60  0000 C CNN
	1    5100 2950
	0    1    1    0   
$EndComp
$Comp
L +5V #PWR04
U 1 1 56431C59
P 5100 1650
F 0 "#PWR04" H 5100 1500 50  0001 C CNN
F 1 "+5V" H 5100 1790 50  0000 C CNN
F 2 "" H 5100 1650 60  0000 C CNN
F 3 "" H 5100 1650 60  0000 C CNN
	1    5100 1650
	0    1    1    0   
$EndComp
$Comp
L +3.3V #PWR05
U 1 1 56432D6A
P 3650 4150
F 0 "#PWR05" H 3650 4000 50  0001 C CNN
F 1 "+3.3V" H 3650 4290 50  0000 C CNN
F 2 "" H 3650 4150 60  0000 C CNN
F 3 "" H 3650 4150 60  0000 C CNN
	1    3650 4150
	1    0    0    -1  
$EndComp
$Comp
L C_Small C12
U 1 1 564334D5
P 4450 5350
F 0 "C12" H 4460 5420 50  0000 L CNN
F 1 "100nF" H 4460 5270 50  0000 L CNN
F 2 "Capacitors_SMD:C_0603_HandSoldering" H 4450 5350 60  0001 C CNN
F 3 "" H 4450 5350 60  0000 C CNN
	1    4450 5350
	0    -1   -1   0   
$EndComp
$Comp
L GND #PWR06
U 1 1 56433590
P 4700 5400
F 0 "#PWR06" H 4700 5150 50  0001 C CNN
F 1 "GND" H 4700 5250 50  0000 C CNN
F 2 "" H 4700 5400 60  0000 C CNN
F 3 "" H 4700 5400 60  0000 C CNN
	1    4700 5400
	1    0    0    -1  
$EndComp
$Comp
L CRYSTAL_SMD X1
U 1 1 5643BF9E
P 1150 7050
F 0 "X1" H 1150 7140 50  0000 C CNN
F 1 "8MHz" H 1180 6940 50  0000 L CNN
F 2 "Crystals:Crystal_SMD_0603_2Pads_obsolete" H 1150 7050 60  0001 C CNN
F 3 "" H 1150 7050 60  0000 C CNN
	1    1150 7050
	1    0    0    -1  
$EndComp
$Comp
L C_Small C1
U 1 1 5643C618
P 950 7450
F 0 "C1" H 960 7520 50  0000 L CNN
F 1 "22pF" H 960 7370 50  0000 L CNN
F 2 "Capacitors_SMD:C_0603_HandSoldering" H 950 7450 60  0001 C CNN
F 3 "" H 950 7450 60  0000 C CNN
	1    950  7450
	1    0    0    -1  
$EndComp
$Comp
L C_Small C2
U 1 1 5643C687
P 1350 7450
F 0 "C2" H 1360 7520 50  0000 L CNN
F 1 "22pF" H 1360 7370 50  0000 L CNN
F 2 "Capacitors_SMD:C_0603_HandSoldering" H 1350 7450 60  0001 C CNN
F 3 "" H 1350 7450 60  0000 C CNN
	1    1350 7450
	1    0    0    -1  
$EndComp
Text Label 950  6850 1    60   ~ 0
XTAL1
Text Label 1350 6850 1    60   ~ 0
XTAL2
Text Label 2000 6200 0    60   ~ 0
XTAL1
Text Label 2000 6350 0    60   ~ 0
XTAL2
$Comp
L SHARP_40CM U8
U 1 1 5643DE86
P 14100 2100
F 0 "U8" H 13700 1650 50  0000 C CNN
F 1 "SHARP_40CM" H 13900 2450 50  0000 C CNN
F 2 "worksh:GP2Y0D340K" H 14100 2100 50  0001 C CNN
F 3 "" H 14100 2100 50  0001 C CNN
	1    14100 2100
	1    0    0    -1  
$EndComp
$Comp
L C_Small C25
U 1 1 5643F2C0
P 12700 2450
F 0 "C25" H 12710 2520 50  0000 L CNN
F 1 "0.1uF" H 12710 2370 50  0000 L CNN
F 2 "Capacitors_SMD:C_0603_HandSoldering" H 12700 2450 60  0001 C CNN
F 3 "" H 12700 2450 60  0000 C CNN
	1    12700 2450
	1    0    0    -1  
$EndComp
$Comp
L R_Small R22
U 1 1 5643F546
P 12700 2000
F 0 "R22" H 12730 2020 50  0000 L CNN
F 1 "1R" H 12730 1960 50  0000 L CNN
F 2 "Resistors_SMD:R_0603_HandSoldering" H 12700 2000 60  0001 C CNN
F 3 "" H 12700 2000 60  0000 C CNN
	1    12700 2000
	0    1    1    0   
$EndComp
$Comp
L SHARP_40CM U9
U 1 1 56440F4A
P 14100 3600
F 0 "U9" H 13700 3150 50  0000 C CNN
F 1 "SHARP_40CM" H 13900 3950 50  0000 C CNN
F 2 "worksh:GP2Y0D340K" H 14100 3600 50  0001 C CNN
F 3 "" H 14100 3600 50  0001 C CNN
	1    14100 3600
	1    0    0    -1  
$EndComp
$Comp
L C_Small C26
U 1 1 56440F5C
P 12700 3950
F 0 "C26" H 12710 4020 50  0000 L CNN
F 1 "0.1uF" H 12710 3870 50  0000 L CNN
F 2 "Capacitors_SMD:C_0603_HandSoldering" H 12700 3950 60  0001 C CNN
F 3 "" H 12700 3950 60  0000 C CNN
	1    12700 3950
	1    0    0    -1  
$EndComp
$Comp
L R_Small R23
U 1 1 56440F67
P 12700 3500
F 0 "R23" H 12730 3520 50  0000 L CNN
F 1 "1R" H 12730 3460 50  0000 L CNN
F 2 "Resistors_SMD:R_0603_HandSoldering" H 12700 3500 60  0001 C CNN
F 3 "" H 12700 3500 60  0000 C CNN
	1    12700 3500
	0    1    1    0   
$EndComp
$Comp
L SHARP_40CM U10
U 1 1 5644131A
P 14100 5050
F 0 "U10" H 13700 4600 50  0000 C CNN
F 1 "SHARP_40CM" H 13900 5400 50  0000 C CNN
F 2 "worksh:GP2Y0D340K" H 14100 5050 50  0001 C CNN
F 3 "" H 14100 5050 50  0001 C CNN
	1    14100 5050
	1    0    0    -1  
$EndComp
$Comp
L C_Small C27
U 1 1 5644132C
P 12700 5400
F 0 "C27" H 12710 5470 50  0000 L CNN
F 1 "0.1uF" H 12710 5320 50  0000 L CNN
F 2 "Capacitors_SMD:C_0603_HandSoldering" H 12700 5400 60  0001 C CNN
F 3 "" H 12700 5400 60  0000 C CNN
	1    12700 5400
	1    0    0    -1  
$EndComp
$Comp
L R_Small R24
U 1 1 56441337
P 12700 4950
F 0 "R24" H 12730 4970 50  0000 L CNN
F 1 "1R" H 12730 4910 50  0000 L CNN
F 2 "Resistors_SMD:R_0603_HandSoldering" H 12700 4950 60  0001 C CNN
F 3 "" H 12700 4950 60  0000 C CNN
	1    12700 4950
	0    1    1    0   
$EndComp
$Comp
L SHARP_40CM U11
U 1 1 56441344
P 14100 6550
F 0 "U11" H 13700 6100 50  0000 C CNN
F 1 "SHARP_40CM" H 13900 6900 50  0000 C CNN
F 2 "worksh:GP2Y0D340K" H 14100 6550 50  0001 C CNN
F 3 "" H 14100 6550 50  0001 C CNN
	1    14100 6550
	1    0    0    -1  
$EndComp
$Comp
L C_Small C28
U 1 1 56441356
P 12700 6900
F 0 "C28" H 12710 6970 50  0000 L CNN
F 1 "0.1uF" H 12710 6820 50  0000 L CNN
F 2 "Capacitors_SMD:C_0603_HandSoldering" H 12700 6900 60  0001 C CNN
F 3 "" H 12700 6900 60  0000 C CNN
	1    12700 6900
	1    0    0    -1  
$EndComp
$Comp
L R_Small R25
U 1 1 56441361
P 12700 6450
F 0 "R25" H 12730 6470 50  0000 L CNN
F 1 "1R" H 12730 6410 50  0000 L CNN
F 2 "Resistors_SMD:R_0603_HandSoldering" H 12700 6450 60  0001 C CNN
F 3 "" H 12700 6450 60  0000 C CNN
	1    12700 6450
	0    1    1    0   
$EndComp
$Comp
L GND #PWR07
U 1 1 564461A8
P 3800 10150
F 0 "#PWR07" H 3800 9900 50  0001 C CNN
F 1 "GND" H 3800 10000 50  0000 C CNN
F 2 "" H 3800 10150 60  0000 C CNN
F 3 "" H 3800 10150 60  0000 C CNN
	1    3800 10150
	1    0    0    -1  
$EndComp
$Comp
L GND #PWR08
U 1 1 56446AA2
P 3150 5400
F 0 "#PWR08" H 3150 5150 50  0001 C CNN
F 1 "GND" H 3150 5250 50  0000 C CNN
F 2 "" H 3150 5400 60  0000 C CNN
F 3 "" H 3150 5400 60  0000 C CNN
	1    3150 5400
	1    0    0    -1  
$EndComp
$Comp
L GND #PWR09
U 1 1 56446DF5
P 1150 7800
F 0 "#PWR09" H 1150 7550 50  0001 C CNN
F 1 "GND" H 1150 7650 50  0000 C CNN
F 2 "" H 1150 7800 60  0000 C CNN
F 3 "" H 1150 7800 60  0000 C CNN
	1    1150 7800
	1    0    0    -1  
$EndComp
$Comp
L GND #PWR010
U 1 1 56447CE2
P 3400 3550
F 0 "#PWR010" H 3400 3300 50  0001 C CNN
F 1 "GND" H 3400 3400 50  0000 C CNN
F 2 "" H 3400 3550 60  0000 C CNN
F 3 "" H 3400 3550 60  0000 C CNN
	1    3400 3550
	1    0    0    -1  
$EndComp
$Comp
L GND #PWR011
U 1 1 56447FDB
P 3400 2250
F 0 "#PWR011" H 3400 2000 50  0001 C CNN
F 1 "GND" H 3400 2100 50  0000 C CNN
F 2 "" H 3400 2250 60  0000 C CNN
F 3 "" H 3400 2250 60  0000 C CNN
	1    3400 2250
	1    0    0    -1  
$EndComp
$Comp
L GND #PWR012
U 1 1 56448A96
P 12500 7250
F 0 "#PWR012" H 12500 7000 50  0001 C CNN
F 1 "GND" H 12500 7100 50  0000 C CNN
F 2 "" H 12500 7250 60  0000 C CNN
F 3 "" H 12500 7250 60  0000 C CNN
	1    12500 7250
	1    0    0    -1  
$EndComp
$Comp
L GND #PWR013
U 1 1 5644B17E
P 12500 5800
F 0 "#PWR013" H 12500 5550 50  0001 C CNN
F 1 "GND" H 12500 5650 50  0000 C CNN
F 2 "" H 12500 5800 60  0000 C CNN
F 3 "" H 12500 5800 60  0000 C CNN
	1    12500 5800
	1    0    0    -1  
$EndComp
$Comp
L GND #PWR014
U 1 1 5644B4D1
P 12500 4300
F 0 "#PWR014" H 12500 4050 50  0001 C CNN
F 1 "GND" H 12500 4150 50  0000 C CNN
F 2 "" H 12500 4300 60  0000 C CNN
F 3 "" H 12500 4300 60  0000 C CNN
	1    12500 4300
	1    0    0    -1  
$EndComp
$Comp
L GND #PWR015
U 1 1 5644C03A
P 12500 2800
F 0 "#PWR015" H 12500 2550 50  0001 C CNN
F 1 "GND" H 12500 2650 50  0000 C CNN
F 2 "" H 12500 2800 60  0000 C CNN
F 3 "" H 12500 2800 60  0000 C CNN
	1    12500 2800
	1    0    0    -1  
$EndComp
$Comp
L TB6612 U4
U 1 1 5644DA31
P 8900 2150
F 0 "U4" H 8500 1350 50  0000 C CNN
F 1 "TB6612" H 8900 2850 50  0000 C CNN
F 2 "worksh:TB6612" H 8900 2150 50  0001 C CNN
F 3 "" H 8900 2150 50  0001 C CNN
	1    8900 2150
	1    0    0    -1  
$EndComp
$Comp
L GND #PWR016
U 1 1 564552AF
P 7900 3050
F 0 "#PWR016" H 7900 2800 50  0001 C CNN
F 1 "GND" H 7900 2900 50  0000 C CNN
F 2 "" H 7900 3050 60  0000 C CNN
F 3 "" H 7900 3050 60  0000 C CNN
	1    7900 3050
	1    0    0    -1  
$EndComp
$Comp
L C_Small C14
U 1 1 5645544D
P 7800 1400
F 0 "C14" H 7810 1470 50  0000 L CNN
F 1 "0.1uF" H 7810 1320 50  0000 L CNN
F 2 "Capacitors_SMD:C_0603_HandSoldering" H 7800 1400 60  0001 C CNN
F 3 "" H 7800 1400 60  0000 C CNN
	1    7800 1400
	0    1    1    0   
$EndComp
$Comp
L GND #PWR017
U 1 1 56455AEC
P 7550 1400
F 0 "#PWR017" H 7550 1150 50  0001 C CNN
F 1 "GND" H 7550 1250 50  0000 C CNN
F 2 "" H 7550 1400 60  0000 C CNN
F 3 "" H 7550 1400 60  0000 C CNN
	1    7550 1400
	0    1    1    0   
$EndComp
$Comp
L +5V #PWR018
U 1 1 56455BE5
P 7950 950
F 0 "#PWR018" H 7950 800 50  0001 C CNN
F 1 "+5V" H 7950 1090 50  0000 C CNN
F 2 "" H 7950 950 60  0000 C CNN
F 3 "" H 7950 950 60  0000 C CNN
	1    7950 950 
	1    0    0    -1  
$EndComp
$Comp
L VCC #PWR019
U 1 1 564569B5
P 9800 1300
F 0 "#PWR019" H 9800 1150 50  0001 C CNN
F 1 "VCC" H 9800 1450 50  0000 C CNN
F 2 "" H 9800 1300 60  0000 C CNN
F 3 "" H 9800 1300 60  0000 C CNN
	1    9800 1300
	1    0    0    -1  
$EndComp
$Comp
L C_Small C17
U 1 1 56456A09
P 10100 1600
F 0 "C17" H 10110 1670 50  0000 L CNN
F 1 "0.1uF Tantal" H 10110 1520 50  0000 L CNN
F 2 "Capacitors_SMD:C_0603_HandSoldering" H 10100 1600 60  0001 C CNN
F 3 "" H 10100 1600 60  0000 C CNN
	1    10100 1600
	0    -1   -1   0   
$EndComp
$Comp
L CP_Small C18
U 1 1 56456AC2
P 10100 1800
F 0 "C18" H 10110 1870 50  0000 L CNN
F 1 "10uF" H 10110 1720 50  0000 L CNN
F 2 "Capacitors_Tantalum_SMD:TantalC_SizeA_EIA-3216_HandSoldering" H 10100 1800 60  0001 C CNN
F 3 "" H 10100 1800 60  0000 C CNN
	1    10100 1800
	0    -1   -1   0   
$EndComp
$Comp
L GND #PWR020
U 1 1 56456E37
P 10550 1700
F 0 "#PWR020" H 10550 1450 50  0001 C CNN
F 1 "GND" H 10550 1550 50  0000 C CNN
F 2 "" H 10550 1700 60  0000 C CNN
F 3 "" H 10550 1700 60  0000 C CNN
	1    10550 1700
	0    -1   -1   0   
$EndComp
$Comp
L CP_Small C13
U 1 1 56457039
P 7800 1150
F 0 "C13" H 7810 1220 50  0000 L CNN
F 1 "10uF" H 7810 1070 50  0000 L CNN
F 2 "Capacitors_Tantalum_SMD:TantalC_SizeA_EIA-3216_HandSoldering" H 7800 1150 60  0001 C CNN
F 3 "" H 7800 1150 60  0000 C CNN
	1    7800 1150
	0    1    1    0   
$EndComp
$Comp
L STM32F103RB U3
U 1 1 5645AF2B
P 3950 7550
F 0 "U3" H 2600 9500 50  0000 C CNN
F 1 "STM32F103RB" H 5100 5600 50  0000 C CNN
F 2 "misc:LQFP64" H 3950 7550 50  0000 C CNN
F 3 "" H 3950 7850 60  0000 C CNN
	1    3950 7550
	1    0    0    -1  
$EndComp
$Comp
L CONN_01X02 P3
U 1 1 5646273D
P 10900 2100
F 0 "P3" H 10900 2250 50  0000 C CNN
F 1 "ENG1" V 11000 2100 50  0000 C CNN
F 2 "Pin_Headers:Pin_Header_Straight_1x02" H 10900 2100 60  0001 C CNN
F 3 "" H 10900 2100 60  0000 C CNN
	1    10900 2100
	1    0    0    -1  
$EndComp
Text Label 7500 1900 2    60   ~ 0
IN-2ENG1
Text Label 7500 2000 2    60   ~ 0
IN-1ENG1
Text Label 2000 8350 0    60   ~ 0
IN-2ENG1
Text Label 2000 8450 0    60   ~ 0
IN-1ENG1
Text Label 7500 1800 2    60   ~ 0
PWM-ENG1
Text Label 13050 2100 2    60   ~ 0
SENS1
Text Label 13050 3600 2    60   ~ 0
SENS2
Text Label 13050 5050 2    60   ~ 0
SENS3
Text Label 13050 6550 2    60   ~ 0
SENS4
Text Label 5650 8950 0    60   ~ 0
SENS1
Text Label 6000 8250 0    60   ~ 0
SENS2
Text Label 6000 8550 0    60   ~ 0
SENS3
Text Label 6000 8450 0    60   ~ 0
SENS4
$Comp
L C_Small C21
U 1 1 5647B830
P 12300 3600
F 0 "C21" H 12310 3670 50  0000 L CNN
F 1 "100nF" H 12310 3520 50  0000 L CNN
F 2 "Capacitors_SMD:C_0603_HandSoldering" H 12300 3600 60  0001 C CNN
F 3 "" H 12300 3600 60  0000 C CNN
	1    12300 3600
	1    0    0    -1  
$EndComp
$Comp
L TB6612 U5
U 1 1 5647C8A2
P 8900 4850
F 0 "U5" H 8500 4050 50  0000 C CNN
F 1 "TB6612" H 8900 5550 50  0000 C CNN
F 2 "worksh:TB6612" H 8900 4850 50  0001 C CNN
F 3 "" H 8900 4850 50  0001 C CNN
	1    8900 4850
	1    0    0    -1  
$EndComp
$Comp
L GND #PWR021
U 1 1 5647C8A8
P 7900 5750
F 0 "#PWR021" H 7900 5500 50  0001 C CNN
F 1 "GND" H 7900 5600 50  0000 C CNN
F 2 "" H 7900 5750 60  0000 C CNN
F 3 "" H 7900 5750 60  0000 C CNN
	1    7900 5750
	1    0    0    -1  
$EndComp
$Comp
L C_Small C16
U 1 1 5647C8AE
P 7800 4100
F 0 "C16" H 7810 4170 50  0000 L CNN
F 1 "0.1uF" H 7810 4020 50  0000 L CNN
F 2 "Capacitors_SMD:C_0603_HandSoldering" H 7800 4100 60  0001 C CNN
F 3 "" H 7800 4100 60  0000 C CNN
	1    7800 4100
	0    1    1    0   
$EndComp
$Comp
L GND #PWR022
U 1 1 5647C8B4
P 7600 4100
F 0 "#PWR022" H 7600 3850 50  0001 C CNN
F 1 "GND" H 7600 3950 50  0000 C CNN
F 2 "" H 7600 4100 60  0000 C CNN
F 3 "" H 7600 4100 60  0000 C CNN
	1    7600 4100
	0    1    1    0   
$EndComp
$Comp
L +5V #PWR023
U 1 1 5647C8BA
P 7950 3650
F 0 "#PWR023" H 7950 3500 50  0001 C CNN
F 1 "+5V" H 7950 3790 50  0000 C CNN
F 2 "" H 7950 3650 60  0000 C CNN
F 3 "" H 7950 3650 60  0000 C CNN
	1    7950 3650
	1    0    0    -1  
$EndComp
$Comp
L VCC #PWR024
U 1 1 5647C8C0
P 9800 4050
F 0 "#PWR024" H 9800 3900 50  0001 C CNN
F 1 "VCC" H 9800 4200 50  0000 C CNN
F 2 "" H 9800 4050 60  0000 C CNN
F 3 "" H 9800 4050 60  0000 C CNN
	1    9800 4050
	1    0    0    -1  
$EndComp
$Comp
L C_Small C19
U 1 1 5647C8C6
P 10100 4300
F 0 "C19" H 10110 4370 50  0000 L CNN
F 1 "0.1uF Tantal" H 10110 4220 50  0000 L CNN
F 2 "Capacitors_SMD:C_0603_HandSoldering" H 10100 4300 60  0001 C CNN
F 3 "" H 10100 4300 60  0000 C CNN
	1    10100 4300
	0    -1   -1   0   
$EndComp
$Comp
L CP_Small C20
U 1 1 5647C8CC
P 10100 4500
F 0 "C20" H 10110 4570 50  0000 L CNN
F 1 "10uF" H 10110 4420 50  0000 L CNN
F 2 "Capacitors_Tantalum_SMD:TantalC_SizeA_EIA-3216_HandSoldering" H 10100 4500 60  0001 C CNN
F 3 "" H 10100 4500 60  0000 C CNN
	1    10100 4500
	0    -1   -1   0   
$EndComp
$Comp
L GND #PWR025
U 1 1 5647C8D2
P 10550 4400
F 0 "#PWR025" H 10550 4150 50  0001 C CNN
F 1 "GND" H 10550 4250 50  0000 C CNN
F 2 "" H 10550 4400 60  0000 C CNN
F 3 "" H 10550 4400 60  0000 C CNN
	1    10550 4400
	1    0    0    -1  
$EndComp
$Comp
L CP_Small C15
U 1 1 5647C8D8
P 7800 3850
F 0 "C15" H 7810 3920 50  0000 L CNN
F 1 "10uF" H 7810 3770 50  0000 L CNN
F 2 "Capacitors_Tantalum_SMD:TantalC_SizeA_EIA-3216_HandSoldering" H 7800 3850 60  0001 C CNN
F 3 "" H 7800 3850 60  0000 C CNN
	1    7800 3850
	0    1    1    0   
$EndComp
$Comp
L CONN_01X02 P4
U 1 1 5647C8DE
P 10900 4800
F 0 "P4" H 10900 4950 50  0000 C CNN
F 1 "ENG2" V 11000 4800 50  0000 C CNN
F 2 "Pin_Headers:Pin_Header_Straight_1x02" H 10900 4800 60  0001 C CNN
F 3 "" H 10900 4800 60  0000 C CNN
	1    10900 4800
	1    0    0    -1  
$EndComp
Text Label 7500 4600 2    60   ~ 0
IN-2ENG2
Text Label 7500 4700 2    60   ~ 0
IN-1ENG2
Text Label 7500 4500 2    60   ~ 0
PWM-ENG2
Text Label 5500 6850 0    60   ~ 0
IN-2ENG2
Text Label 2400 8550 2    60   ~ 0
IN-1ENG2
$Comp
L C_Small C24
U 1 1 56484799
P 12350 5050
F 0 "C24" H 12360 5120 50  0000 L CNN
F 1 "100nF" H 12360 4970 50  0000 L CNN
F 2 "Capacitors_SMD:C_0603_HandSoldering" H 12350 5050 60  0001 C CNN
F 3 "" H 12350 5050 60  0000 C CNN
	1    12350 5050
	1    0    0    -1  
$EndComp
$Comp
L C_Small C22
U 1 1 56485D80
P 12300 6550
F 0 "C22" H 12310 6620 50  0000 L CNN
F 1 "100nF" H 12310 6470 50  0000 L CNN
F 2 "Capacitors_SMD:C_0603_HandSoldering" H 12300 6550 60  0001 C CNN
F 3 "" H 12300 6550 60  0000 C CNN
	1    12300 6550
	1    0    0    -1  
$EndComp
$Comp
L C_Small C23
U 1 1 56488833
P 12350 2100
F 0 "C23" H 12360 2170 50  0000 L CNN
F 1 "100nF" H 12360 2020 50  0000 L CNN
F 2 "Capacitors_SMD:C_0603_HandSoldering" H 12350 2100 60  0001 C CNN
F 3 "" H 12350 2100 60  0000 C CNN
	1    12350 2100
	1    0    0    -1  
$EndComp
$Comp
L R_Small R1
U 1 1 5648B945
P 1550 8850
F 0 "R1" H 1580 8870 50  0000 L CNN
F 1 "180R" H 1580 8810 50  0000 L CNN
F 2 "Resistors_SMD:R_0603_HandSoldering" H 1550 8850 60  0001 C CNN
F 3 "" H 1550 8850 60  0000 C CNN
	1    1550 8850
	0    1    1    0   
$EndComp
$Comp
L GND #PWR026
U 1 1 5648BC68
P 1300 9000
F 0 "#PWR026" H 1300 8750 50  0001 C CNN
F 1 "GND" H 1300 8850 50  0000 C CNN
F 2 "" H 1300 9000 60  0000 C CNN
F 3 "" H 1300 9000 60  0000 C CNN
	1    1300 9000
	1    0    0    -1  
$EndComp
Text Label 6000 7050 2    60   ~ 0
PWM-ENG2
Text Label 6000 6950 2    60   ~ 0
PWM-ENG1
$Comp
L KTIR0711S U6
U 1 1 564A6B12
P 8950 7400
F 0 "U6" H 8750 7600 50  0000 L CNN
F 1 "KTIR0711S" H 8950 7600 50  0000 L CNN
F 2 "worksh:KTIR0711S" H 8750 7200 50  0001 L CIN
F 3 "" H 8950 7400 50  0000 L CNN
	1    8950 7400
	1    0    0    -1  
$EndComp
$Comp
L KTIR0711S U7
U 1 1 564A6ED1
P 8950 7950
F 0 "U7" H 8750 8150 50  0000 L CNN
F 1 "KTIR0711S" H 8950 8150 50  0000 L CNN
F 2 "worksh:KTIR0711S" H 8750 7750 50  0001 L CIN
F 3 "" H 8950 7950 50  0000 L CNN
	1    8950 7950
	1    0    0    -1  
$EndComp
$Comp
L GND #PWR027
U 1 1 564A7A60
P 8400 8900
F 0 "#PWR027" H 8400 8650 50  0001 C CNN
F 1 "GND" H 8400 8750 50  0000 C CNN
F 2 "" H 8400 8900 60  0000 C CNN
F 3 "" H 8400 8900 60  0000 C CNN
	1    8400 8900
	1    0    0    -1  
$EndComp
$Comp
L R_Small R20
U 1 1 564A8BF5
P 9600 7100
F 0 "R20" H 9630 7120 50  0000 L CNN
F 1 "20k" H 9630 7060 50  0000 L CNN
F 2 "Resistors_SMD:R_0603_HandSoldering" H 9600 7100 60  0001 C CNN
F 3 "" H 9600 7100 60  0000 C CNN
	1    9600 7100
	1    0    0    -1  
$EndComp
$Comp
L R_Small R21
U 1 1 564A8CF2
P 9600 7650
F 0 "R21" H 9630 7670 50  0000 L CNN
F 1 "20k" H 9630 7610 50  0000 L CNN
F 2 "Resistors_SMD:R_0603_HandSoldering" H 9600 7650 60  0001 C CNN
F 3 "" H 9600 7650 60  0000 C CNN
	1    9600 7650
	1    0    0    -1  
$EndComp
$Comp
L +3.3V #PWR028
U 1 1 564A94ED
P 9600 7500
F 0 "#PWR028" H 9600 7350 50  0001 C CNN
F 1 "+3.3V" H 9600 7640 50  0000 C CNN
F 2 "" H 9600 7500 60  0000 C CNN
F 3 "" H 9600 7500 60  0000 C CNN
	1    9600 7500
	1    0    0    -1  
$EndComp
$Comp
L +3.3V #PWR029
U 1 1 564A9687
P 9600 6950
F 0 "#PWR029" H 9600 6800 50  0001 C CNN
F 1 "+3.3V" H 9600 7090 50  0000 C CNN
F 2 "" H 9600 6950 60  0000 C CNN
F 3 "" H 9600 6950 60  0000 C CNN
	1    9600 6950
	1    0    0    -1  
$EndComp
Text Label 9750 7300 0    60   ~ 0
LINESENS_LEFT
Text Label 9750 7850 0    60   ~ 0
LINESENS_RIGHT
$Comp
L R_Small R19
U 1 1 564AA725
P 8300 7300
F 0 "R19" H 8330 7320 50  0000 L CNN
F 1 "220R" H 8330 7260 50  0000 L CNN
F 2 "Resistors_SMD:R_0603_HandSoldering" H 8300 7300 60  0001 C CNN
F 3 "" H 8300 7300 60  0000 C CNN
	1    8300 7300
	0    1    1    0   
$EndComp
$Comp
L R_Small R18
U 1 1 564AF760
P 8150 7650
F 0 "R18" H 8180 7670 50  0000 L CNN
F 1 "220R" H 8180 7610 50  0000 L CNN
F 2 "Resistors_SMD:R_0603_HandSoldering" H 8150 7650 60  0001 C CNN
F 3 "" H 8150 7650 60  0000 C CNN
	1    8150 7650
	-1   0    0    1   
$EndComp
Text Label 6000 8750 0    60   ~ 0
LINESENS_RIGHT
Text Label 6000 8650 0    60   ~ 0
LINESENS_LEFT
$Comp
L SW_PUSH SW2
U 1 1 564B93C6
P 6300 8850
F 0 "SW2" H 6450 8960 50  0000 C CNN
F 1 "BOT_ENABLE" H 6300 8770 50  0000 C CNN
F 2 "Buttons_Switches_SMD:SW_SPST_EVQPE1" H 6300 8850 60  0001 C CNN
F 3 "" H 6300 8850 60  0000 C CNN
	1    6300 8850
	1    0    0    -1  
$EndComp
$Comp
L R_Small R17
U 1 1 564B9991
P 6850 8850
F 0 "R17" H 6880 8870 50  0000 L CNN
F 1 "20k" H 6880 8810 50  0000 L CNN
F 2 "Resistors_SMD:R_0603_HandSoldering" H 6850 8850 60  0001 C CNN
F 3 "" H 6850 8850 60  0000 C CNN
	1    6850 8850
	0    -1   -1   0   
$EndComp
$Comp
L +3.3V #PWR030
U 1 1 564B9A71
P 7100 8850
F 0 "#PWR030" H 7100 8700 50  0001 C CNN
F 1 "+3.3V" H 7100 8990 50  0000 C CNN
F 2 "" H 7100 8850 60  0000 C CNN
F 3 "" H 7100 8850 60  0000 C CNN
	1    7100 8850
	0    1    1    0   
$EndComp
$Comp
L CONN_01X04 P2
U 1 1 564BDFBA
P 6800 9300
F 0 "P2" H 6800 9550 50  0000 C CNN
F 1 "START_MODULE" V 6900 9300 50  0000 C CNN
F 2 "Pin_Headers:Pin_Header_Straight_1x04" H 6800 9300 60  0001 C CNN
F 3 "" H 6800 9300 60  0000 C CNN
	1    6800 9300
	1    0    0    -1  
$EndComp
$Comp
L +3.3V #PWR031
U 1 1 564BE464
P 6450 9150
F 0 "#PWR031" H 6450 9000 50  0001 C CNN
F 1 "+3.3V" H 6450 9290 50  0000 C CNN
F 2 "" H 6450 9150 60  0000 C CNN
F 3 "" H 6450 9150 60  0000 C CNN
	1    6450 9150
	0    -1   -1   0   
$EndComp
Text Label 5800 9250 0    60   ~ 0
START
$Comp
L Led_Small D1
U 1 1 564D56D2
P 1850 8850
F 0 "D1" H 1800 8975 50  0000 L CNN
F 1 "LED BLUE BOT OPERATING" H 1675 8750 50  0000 L CNN
F 2 "LEDs:LED-0603" V 1850 8850 60  0001 C CNN
F 3 "" V 1850 8850 60  0000 C CNN
	1    1850 8850
	1    0    0    -1  
$EndComp
$Comp
L R_Small R4
U 1 1 564F4F07
P 2100 5300
F 0 "R4" H 2130 5320 50  0000 L CNN
F 1 "20k" H 2130 5260 50  0000 L CNN
F 2 "Resistors_SMD:R_0603_HandSoldering" H 2100 5300 60  0001 C CNN
F 3 "" H 2100 5300 60  0000 C CNN
	1    2100 5300
	1    0    0    -1  
$EndComp
$Comp
L +3.3V #PWR032
U 1 1 564F52E2
P 2100 5050
F 0 "#PWR032" H 2100 4900 50  0001 C CNN
F 1 "+3.3V" H 2100 5190 50  0000 C CNN
F 2 "" H 2100 5050 60  0000 C CNN
F 3 "" H 2100 5050 60  0000 C CNN
	1    2100 5050
	1    0    0    -1  
$EndComp
$Comp
L GND #PWR033
U 1 1 564F6A7F
P 1350 6050
F 0 "#PWR033" H 1350 5800 50  0001 C CNN
F 1 "GND" H 1350 5900 50  0000 C CNN
F 2 "" H 1350 6050 60  0000 C CNN
F 3 "" H 1350 6050 60  0000 C CNN
	1    1350 6050
	1    0    0    -1  
$EndComp
$Comp
L +3.3V #PWR034
U 1 1 564F8018
P 2100 6550
F 0 "#PWR034" H 2100 6400 50  0001 C CNN
F 1 "+3.3V" H 2100 6690 50  0000 C CNN
F 2 "" H 2100 6550 60  0000 C CNN
F 3 "" H 2100 6550 60  0000 C CNN
	1    2100 6550
	0    -1   -1   0   
$EndComp
$Comp
L SW_PUSH SW1
U 1 1 56501CCD
P 1750 5850
F 0 "SW1" H 1900 5960 50  0000 C CNN
F 1 "BOT_RESET" H 1750 5770 50  0000 C CNN
F 2 "Buttons_Switches_SMD:SW_SPST_EVQPE1" H 1750 5850 60  0001 C CNN
F 3 "" H 1750 5850 60  0000 C CNN
	1    1750 5850
	1    0    0    -1  
$EndComp
$Comp
L GND #PWR035
U 1 1 56508930
P 9450 8900
F 0 "#PWR035" H 9450 8650 50  0001 C CNN
F 1 "GND" H 9450 8750 50  0000 C CNN
F 2 "" H 9450 8900 60  0000 C CNN
F 3 "" H 9450 8900 60  0000 C CNN
	1    9450 8900
	1    0    0    -1  
$EndComp
$Comp
L INDUCTOR_SMALL L2
U 1 1 56512828
P 12200 1500
F 0 "L2" H 12200 1600 50  0000 C CNN
F 1 "100uH" H 12200 1450 50  0000 C CNN
F 2 "Choke_SMD:Choke_SMD_7.3x7.3_H4.5" H 12200 1500 60  0001 C CNN
F 3 "" H 12200 1500 60  0000 C CNN
	1    12200 1500
	0    -1   -1   0   
$EndComp
$Comp
L +5V #PWR036
U 1 1 565159FD
P 12200 1150
F 0 "#PWR036" H 12200 1000 50  0001 C CNN
F 1 "+5V" H 12200 1290 50  0000 C CNN
F 2 "" H 12200 1150 60  0000 C CNN
F 3 "" H 12200 1150 60  0000 C CNN
	1    12200 1150
	1    0    0    -1  
$EndComp
$Comp
L +5V #PWR037
U 1 1 56518E19
P 7900 7300
F 0 "#PWR037" H 7900 7150 50  0001 C CNN
F 1 "+5V" H 7900 7440 50  0000 C CNN
F 2 "" H 7900 7300 60  0000 C CNN
F 3 "" H 7900 7300 60  0000 C CNN
	1    7900 7300
	0    -1   -1   0   
$EndComp
$Comp
L Led_Small D6
U 1 1 5651DD27
P 5750 6550
F 0 "D6" H 5850 6600 50  0000 L CNN
F 1 "SHARP4" H 5500 6600 39  0000 L CNN
F 2 "LEDs:LED-0603" V 5750 6550 60  0001 C CNN
F 3 "" V 5750 6550 60  0000 C CNN
	1    5750 6550
	-1   0    0    1   
$EndComp
$Comp
L Led_Small D10
U 1 1 5651DE04
P 6100 6450
F 0 "D10" H 6200 6500 50  0000 L CNN
F 1 "SHARP3" H 5950 6400 39  0000 L CNN
F 2 "LEDs:LED-0603" V 6100 6450 60  0001 C CNN
F 3 "" V 6100 6450 60  0000 C CNN
	1    6100 6450
	-1   0    0    1   
$EndComp
$Comp
L Led_Small D5
U 1 1 5651DEEC
P 5750 6350
F 0 "D5" H 5850 6400 50  0000 L CNN
F 1 "SHARP2" H 5500 6400 39  0000 L CNN
F 2 "LEDs:LED-0603" V 5750 6350 60  0001 C CNN
F 3 "" V 5750 6350 60  0000 C CNN
	1    5750 6350
	-1   0    0    1   
$EndComp
$Comp
L Led_Small D9
U 1 1 5651E059
P 6100 6250
F 0 "D9" H 6200 6300 50  0000 L CNN
F 1 "SHARP1" H 5925 6150 39  0000 L CNN
F 2 "LEDs:LED-0603" V 6100 6250 60  0001 C CNN
F 3 "" V 6100 6250 60  0000 C CNN
	1    6100 6250
	-1   0    0    1   
$EndComp
$Comp
L R_Small R16
U 1 1 56520E98
P 6750 6550
F 0 "R16" H 6900 6600 50  0000 L CNN
F 1 "220R" H 6780 6510 50  0000 L CNN
F 2 "Resistors_SMD:R_0603_HandSoldering" H 6750 6550 60  0001 C CNN
F 3 "" H 6750 6550 60  0000 C CNN
	1    6750 6550
	0    1    1    0   
$EndComp
$Comp
L R_Small R11
U 1 1 56520F8B
P 6350 6450
F 0 "R11" H 6150 6450 50  0000 L CNN
F 1 "220R" H 6380 6410 50  0000 L CNN
F 2 "Resistors_SMD:R_0603_HandSoldering" H 6350 6450 60  0001 C CNN
F 3 "" H 6350 6450 60  0000 C CNN
	1    6350 6450
	0    1    1    0   
$EndComp
$Comp
L R_Small R13
U 1 1 56521923
P 6550 6350
F 0 "R13" H 6400 6350 50  0000 L CNN
F 1 "220R" H 6580 6310 50  0000 L CNN
F 2 "Resistors_SMD:R_0603_HandSoldering" H 6550 6350 60  0001 C CNN
F 3 "" H 6550 6350 60  0000 C CNN
	1    6550 6350
	0    1    1    0   
$EndComp
$Comp
L R_Small R15
U 1 1 56521A1A
P 6750 6250
F 0 "R15" H 6600 6250 50  0000 L CNN
F 1 "220R" H 6780 6210 50  0000 L CNN
F 2 "Resistors_SMD:R_0603_HandSoldering" H 6750 6250 60  0001 C CNN
F 3 "" H 6750 6250 60  0000 C CNN
	1    6750 6250
	0    1    1    0   
$EndComp
$Comp
L GND #PWR038
U 1 1 56523AC6
P 7000 6800
F 0 "#PWR038" H 7000 6550 50  0001 C CNN
F 1 "GND" H 7000 6650 50  0000 C CNN
F 2 "" H 7000 6800 60  0000 C CNN
F 3 "" H 7000 6800 60  0000 C CNN
	1    7000 6800
	1    0    0    -1  
$EndComp
$Comp
L R_Small R26
U 1 1 56569EE3
P 1500 2750
F 0 "R26" H 1530 2770 50  0000 L CNN
F 1 "1k" H 1530 2710 50  0000 L CNN
F 2 "Resistors_SMD:R_0603_HandSoldering" H 1500 2750 60  0001 C CNN
F 3 "" H 1500 2750 60  0000 C CNN
	1    1500 2750
	1    0    0    -1  
$EndComp
$Comp
L GND #PWR039
U 1 1 5656A37C
P 1750 3000
F 0 "#PWR039" H 1750 2750 50  0001 C CNN
F 1 "GND" H 1750 2850 50  0000 C CNN
F 2 "" H 1750 3000 60  0000 C CNN
F 3 "" H 1750 3000 60  0000 C CNN
	1    1750 3000
	1    0    0    -1  
$EndComp
$Comp
L CONN_01X02 P5
U 1 1 5655F2DF
P 800 1850
F 0 "P5" H 800 2000 50  0000 C CNN
F 1 "BATERIA" V 900 1850 50  0000 C CNN
F 2 "Pin_Headers:Pin_Header_Angled_1x02" H 800 1850 60  0001 C CNN
F 3 "" H 800 1850 60  0000 C CNN
	1    800  1850
	0    -1   -1   0   
$EndComp
$Comp
L VCC #PWR040
U 1 1 5656BCBD
P 1650 2150
F 0 "#PWR040" H 1650 2000 50  0001 C CNN
F 1 "VCC" H 1650 2300 50  0000 C CNN
F 2 "" H 1650 2150 60  0000 C CNN
F 3 "" H 1650 2150 60  0000 C CNN
	1    1650 2150
	0    1    1    0   
$EndComp
$Comp
L PWR_FLAG #FLG041
U 1 1 5656C2E8
P 1600 2150
F 0 "#FLG041" H 1600 2245 50  0001 C CNN
F 1 "PWR_FLAG" H 1600 2330 50  0000 C CNN
F 2 "" H 1600 2150 60  0000 C CNN
F 3 "" H 1600 2150 60  0000 C CNN
	1    1600 2150
	1    0    0    -1  
$EndComp
$Comp
L GND #PWR042
U 1 1 56575288
P 1150 7250
F 0 "#PWR042" H 1150 7000 50  0001 C CNN
F 1 "GND" H 1150 7100 50  0000 C CNN
F 2 "" H 1150 7250 60  0000 C CNN
F 3 "" H 1150 7250 60  0000 C CNN
	1    1150 7250
	1    0    0    -1  
$EndComp
$Comp
L KTIR0711S U12
U 1 1 5658AE54
P 8950 8600
F 0 "U12" H 8750 8800 50  0000 L CNN
F 1 "KTIR0711S" H 8950 8800 50  0000 L CNN
F 2 "worksh:KTIR0711S" H 8750 8400 50  0001 L CIN
F 3 "" H 8950 8600 50  0000 L CNN
	1    8950 8600
	1    0    0    -1  
$EndComp
$Comp
L R_Small R27
U 1 1 5658AF90
P 7950 8050
F 0 "R27" H 7980 8070 50  0000 L CNN
F 1 "220R" H 7980 8010 50  0000 L CNN
F 2 "Resistors_SMD:R_0603_HandSoldering" H 7950 8050 60  0001 C CNN
F 3 "" H 7950 8050 60  0000 C CNN
	1    7950 8050
	-1   0    0    1   
$EndComp
$Comp
L R_Small R28
U 1 1 5658B886
P 9600 8300
F 0 "R28" H 9630 8320 50  0000 L CNN
F 1 "20k" H 9630 8260 50  0000 L CNN
F 2 "Resistors_SMD:R_0603_HandSoldering" H 9600 8300 60  0001 C CNN
F 3 "" H 9600 8300 60  0000 C CNN
	1    9600 8300
	1    0    0    -1  
$EndComp
$Comp
L +3.3V #PWR043
U 1 1 5658B88C
P 9600 8150
F 0 "#PWR043" H 9600 8000 50  0001 C CNN
F 1 "+3.3V" H 9600 8290 50  0000 C CNN
F 2 "" H 9600 8150 60  0000 C CNN
F 3 "" H 9600 8150 60  0000 C CNN
	1    9600 8150
	1    0    0    -1  
$EndComp
Text Label 9750 8500 0    60   ~ 0
LINESENS_BACK
Text Label 6000 8150 0    60   ~ 0
LINESENS_BACK
$Comp
L GND #PWR044
U 1 1 565A7D95
P 6450 9250
F 0 "#PWR044" H 6450 9000 50  0001 C CNN
F 1 "GND" H 6450 9100 50  0000 C CNN
F 2 "" H 6450 9250 60  0000 C CNN
F 3 "" H 6450 9250 60  0000 C CNN
	1    6450 9250
	0    1    1    0   
$EndComp
$Comp
L CP_Small C29
U 1 1 565B9031
P 4800 1850
F 0 "C29" H 4810 1920 50  0000 L CNN
F 1 "100uF" H 4810 1770 50  0000 L CNN
F 2 "Capacitors_Tantalum_SMD:TantalC_SizeB_EIA-3528_HandSoldering" H 4800 1850 60  0001 C CNN
F 3 "" H 4800 1850 60  0000 C CNN
	1    4800 1850
	1    0    0    -1  
$EndComp
$Comp
L Q_NMOS_GDS Q1
U 1 1 565C003C
P 1200 2650
F 0 "Q1" H 1500 2700 50  0000 R CNN
F 1 "Q_NMOS_GDS" H 1850 2600 50  0000 R CNN
F 2 "TO_SOT_Packages_SMD:TO-252-2Lead" H 1400 2750 29  0001 C CNN
F 3 "" H 1200 2650 60  0000 C CNN
	1    1200 2650
	0    -1   -1   0   
$EndComp
Wire Wire Line
	2900 2950 2900 3000
Wire Wire Line
	2350 2950 3000 2950
Wire Wire Line
	2650 2950 2650 3000
Connection ~ 2900 2950
Wire Wire Line
	3800 2950 5100 2950
Wire Wire Line
	3900 2950 3900 3000
Wire Wire Line
	4250 2950 4250 3000
Connection ~ 3900 2950
Wire Wire Line
	3400 3250 3400 3550
Wire Wire Line
	4250 3400 4250 3200
Wire Wire Line
	3900 3400 3900 3200
Connection ~ 3900 3400
Wire Wire Line
	2650 3400 2650 3200
Connection ~ 3400 3400
Wire Wire Line
	2900 3200 2900 3400
Connection ~ 2900 3400
Wire Wire Line
	2900 1650 2900 1700
Wire Wire Line
	2350 1650 3000 1650
Wire Wire Line
	2650 1650 2650 1700
Connection ~ 2900 1650
Wire Wire Line
	3900 1650 3900 1700
Wire Wire Line
	4250 1650 4250 1700
Connection ~ 3900 1650
Wire Wire Line
	3400 1950 3400 2250
Wire Wire Line
	2650 2100 4800 2100
Wire Wire Line
	4250 2100 4250 1900
Wire Wire Line
	3900 1900 3900 2100
Connection ~ 3900 2100
Wire Wire Line
	2650 2100 2650 1900
Connection ~ 3400 2100
Wire Wire Line
	2900 1900 2900 2100
Connection ~ 2900 2100
Wire Wire Line
	3500 5350 4350 5350
Wire Wire Line
	3650 4850 3650 5500
Wire Wire Line
	3800 5350 3800 5500
Connection ~ 3650 5350
Wire Wire Line
	3650 5000 3150 5000
Connection ~ 3650 5000
Wire Wire Line
	3150 5000 3150 5100
Wire Wire Line
	3150 5400 3150 5300
Connection ~ 2650 2950
Connection ~ 2650 1650
Connection ~ 4250 2950
Connection ~ 4250 1650
Wire Wire Line
	3800 1650 5100 1650
Wire Wire Line
	3650 4150 3650 4350
Connection ~ 3800 5350
Connection ~ 3950 5350
Wire Wire Line
	4550 5350 4700 5350
Wire Wire Line
	4700 5350 4700 5400
Wire Wire Line
	3500 9700 4250 9700
Wire Wire Line
	3650 9700 3650 9600
Wire Wire Line
	3800 9600 3800 10150
Connection ~ 3650 9700
Connection ~ 3800 9700
Connection ~ 3500 9700
Wire Wire Line
	5500 7250 6250 7250
Wire Wire Line
	5500 7350 6250 7350
Wire Wire Line
	3500 9700 3500 9600
Wire Wire Line
	4250 9700 4250 9600
Wire Wire Line
	950  6850 950  7350
Wire Wire Line
	1350 6850 1350 7350
Wire Wire Line
	950  7550 950  7700
Wire Wire Line
	950  7700 1350 7700
Wire Wire Line
	1350 7700 1350 7550
Wire Wire Line
	1150 7700 1150 7800
Connection ~ 1150 7700
Connection ~ 950  7050
Connection ~ 1350 7050
Wire Wire Line
	12800 2000 13350 2000
Wire Wire Line
	13350 2100 13050 2100
Wire Wire Line
	12700 2300 13350 2300
Wire Wire Line
	12500 2000 12500 2800
Wire Wire Line
	12700 2300 12700 2350
Wire Wire Line
	12700 2650 12700 2550
Connection ~ 12500 2200
Wire Wire Line
	12350 2650 12700 2650
Connection ~ 12500 2650
Wire Wire Line
	12500 2200 13350 2200
Wire Wire Line
	12600 2000 12500 2000
Wire Wire Line
	12800 3500 13350 3500
Wire Wire Line
	13350 3600 13050 3600
Wire Wire Line
	12700 3800 13350 3800
Wire Wire Line
	12500 3500 12500 4300
Wire Wire Line
	12700 3800 12700 3850
Wire Wire Line
	12700 4150 12700 4050
Connection ~ 12500 3700
Connection ~ 12500 4150
Wire Wire Line
	12500 3700 13350 3700
Wire Wire Line
	12600 3500 12500 3500
Wire Wire Line
	12800 4950 13350 4950
Wire Wire Line
	13350 5050 13050 5050
Wire Wire Line
	12700 5250 13350 5250
Wire Wire Line
	12500 4950 12500 5800
Wire Wire Line
	12700 5250 12700 5300
Wire Wire Line
	12700 5600 12700 5500
Connection ~ 12500 5150
Wire Wire Line
	12350 5600 12700 5600
Connection ~ 12500 5600
Wire Wire Line
	12500 5150 13350 5150
Wire Wire Line
	12600 4950 12500 4950
Wire Wire Line
	12800 6450 13350 6450
Wire Wire Line
	13350 6550 13050 6550
Wire Wire Line
	12700 6750 13350 6750
Wire Wire Line
	12500 6450 12500 7250
Wire Wire Line
	12700 6750 12700 6800
Wire Wire Line
	12700 7100 12700 7000
Connection ~ 12500 6650
Connection ~ 12500 7100
Wire Wire Line
	12500 6650 13350 6650
Wire Wire Line
	12600 6450 12500 6450
Wire Wire Line
	12300 7100 12700 7100
Wire Wire Line
	8150 2450 7900 2450
Wire Wire Line
	7900 2450 7900 3050
Wire Wire Line
	7900 2850 8150 2850
Wire Wire Line
	8150 2750 7900 2750
Connection ~ 7900 2750
Wire Wire Line
	7900 2650 8150 2650
Connection ~ 7900 2650
Wire Wire Line
	8150 2550 7900 2550
Connection ~ 7900 2550
Connection ~ 7900 2850
Wire Wire Line
	7950 1400 7900 1400
Wire Wire Line
	7550 1400 7700 1400
Wire Wire Line
	9650 1600 9800 1600
Wire Wire Line
	9800 1300 9800 1800
Wire Wire Line
	9650 1700 9900 1700
Connection ~ 9800 1700
Connection ~ 9800 1600
Connection ~ 9800 1800
Wire Wire Line
	10000 1600 9900 1600
Wire Wire Line
	9900 1600 9900 1800
Connection ~ 9900 1800
Wire Wire Line
	10350 1600 10350 1800
Wire Wire Line
	10350 1800 10200 1800
Connection ~ 7950 1400
Wire Wire Line
	7650 1150 7650 1400
Connection ~ 7650 1400
Wire Wire Line
	3950 9600 3950 9700
Connection ~ 3950 9700
Wire Wire Line
	2400 6200 2000 6200
Wire Wire Line
	2400 6350 2000 6350
Wire Wire Line
	3950 5350 3950 5500
Wire Wire Line
	4250 5500 4250 5350
Connection ~ 4250 5350
Wire Wire Line
	9650 2050 10700 2050
Wire Wire Line
	9650 2150 10700 2150
Wire Wire Line
	9750 1950 9750 2500
Connection ~ 9750 2400
Connection ~ 9750 2050
Wire Wire Line
	10050 2150 10050 2750
Connection ~ 10050 2650
Connection ~ 10050 2250
Wire Wire Line
	9750 1950 9650 1950
Wire Wire Line
	9750 2400 9650 2400
Wire Wire Line
	9750 2500 9650 2500
Wire Wire Line
	10050 2250 9650 2250
Connection ~ 10050 2150
Wire Wire Line
	10050 2650 9650 2650
Wire Wire Line
	10050 2750 9650 2750
Wire Wire Line
	7500 1900 8150 1900
Wire Wire Line
	7500 2000 8150 2000
Wire Wire Line
	7750 2350 8150 2350
Wire Wire Line
	2400 8350 2000 8350
Wire Wire Line
	2400 8450 2000 8450
Connection ~ 7750 1900
Connection ~ 7850 2000
Wire Wire Line
	7500 1800 8150 1800
Wire Wire Line
	8000 1800 8000 2150
Wire Wire Line
	8000 2150 8150 2150
Connection ~ 8000 1800
Wire Wire Line
	7650 1150 7700 1150
Wire Wire Line
	7900 1150 7950 1150
Wire Wire Line
	7950 950  7950 1600
Wire Wire Line
	7950 1600 8150 1600
Connection ~ 7950 1150
Wire Wire Line
	5500 8250 6000 8250
Wire Wire Line
	5500 8450 6000 8450
Wire Wire Line
	5500 8550 6000 8550
Wire Wire Line
	12300 3500 12300 3400
Connection ~ 12300 3400
Wire Wire Line
	12300 3700 12300 4150
Wire Wire Line
	8150 5150 7900 5150
Wire Wire Line
	7900 5150 7900 5750
Wire Wire Line
	7900 5550 8150 5550
Wire Wire Line
	8150 5450 7900 5450
Connection ~ 7900 5450
Wire Wire Line
	7900 5350 8150 5350
Connection ~ 7900 5350
Wire Wire Line
	8150 5250 7900 5250
Connection ~ 7900 5250
Connection ~ 7900 5550
Wire Wire Line
	7950 4100 7900 4100
Wire Wire Line
	7600 4100 7700 4100
Wire Wire Line
	9650 4300 9800 4300
Wire Wire Line
	9800 4050 9800 4500
Wire Wire Line
	9650 4500 10000 4500
Wire Wire Line
	9650 4400 9800 4400
Connection ~ 9800 4400
Connection ~ 9800 4300
Connection ~ 9800 4500
Wire Wire Line
	10000 4300 9900 4300
Wire Wire Line
	9900 4300 9900 4500
Connection ~ 9900 4500
Wire Wire Line
	10200 4300 10550 4300
Wire Wire Line
	10350 4300 10350 4500
Wire Wire Line
	10350 4500 10200 4500
Wire Wire Line
	10550 4300 10550 4400
Connection ~ 10350 4300
Connection ~ 7950 4100
Wire Wire Line
	7650 3850 7650 4100
Connection ~ 7650 4100
Wire Wire Line
	9650 4750 10700 4750
Wire Wire Line
	9650 4850 10700 4850
Wire Wire Line
	9750 4650 9750 5200
Connection ~ 9750 5100
Connection ~ 9750 4750
Wire Wire Line
	10050 4850 10050 5450
Connection ~ 10050 5350
Connection ~ 10050 4950
Wire Wire Line
	9750 4650 9650 4650
Wire Wire Line
	9750 5100 9650 5100
Wire Wire Line
	9750 5200 9650 5200
Wire Wire Line
	10050 4950 9650 4950
Connection ~ 10050 4850
Wire Wire Line
	10050 5350 9650 5350
Wire Wire Line
	10050 5450 9650 5450
Wire Wire Line
	7500 4600 8150 4600
Wire Wire Line
	7500 4700 8150 4700
Connection ~ 7750 4600
Connection ~ 7850 4700
Wire Wire Line
	7500 4500 8150 4500
Wire Wire Line
	8000 4500 8000 4850
Wire Wire Line
	8000 4850 8150 4850
Connection ~ 8000 4500
Wire Wire Line
	7650 3850 7700 3850
Wire Wire Line
	7900 3850 7950 3850
Wire Wire Line
	7950 3650 7950 4300
Wire Wire Line
	7950 4300 8150 4300
Connection ~ 7950 3850
Wire Wire Line
	2000 8750 2400 8750
Wire Wire Line
	12300 6350 12300 6450
Connection ~ 12300 6350
Wire Wire Line
	12300 6650 12300 7100
Connection ~ 12350 4850
Wire Wire Line
	12350 5150 12350 5600
Wire Wire Line
	12350 4950 12350 4850
Wire Wire Line
	12350 1900 12350 2000
Connection ~ 12350 1900
Wire Wire Line
	12350 2200 12350 2650
Wire Wire Line
	1950 8850 2400 8850
Wire Wire Line
	1650 8850 1750 8850
Wire Wire Line
	1450 8850 1300 8850
Wire Wire Line
	1300 8850 1300 9000
Wire Wire Line
	12200 3400 13350 3400
Wire Wire Line
	12200 6350 13350 6350
Wire Wire Line
	12200 4850 13350 4850
Wire Wire Line
	12200 1900 13350 1900
Wire Wire Line
	5500 6950 6000 6950
Wire Wire Line
	5500 7050 6000 7050
Wire Wire Line
	8150 7850 8650 7850
Wire Wire Line
	8400 7300 8650 7300
Wire Wire Line
	8650 7500 8400 7500
Wire Wire Line
	8400 7500 8400 8900
Wire Wire Line
	8400 8050 8650 8050
Connection ~ 8400 8050
Wire Wire Line
	9250 7500 9450 7500
Wire Wire Line
	9450 7500 9450 8900
Wire Wire Line
	9450 8050 9250 8050
Wire Wire Line
	9250 7850 9750 7850
Wire Wire Line
	9250 7300 9750 7300
Wire Wire Line
	9600 7850 9600 7750
Connection ~ 9600 7850
Wire Wire Line
	9600 7300 9600 7200
Connection ~ 9600 7300
Wire Wire Line
	9600 6950 9600 7000
Wire Wire Line
	9600 7500 9600 7550
Wire Wire Line
	7900 7300 8200 7300
Wire Wire Line
	8150 7850 8150 7750
Wire Wire Line
	8150 7550 8150 7300
Connection ~ 8150 7300
Wire Wire Line
	5500 8650 6000 8650
Wire Wire Line
	5500 8750 6000 8750
Wire Wire Line
	6600 8850 6750 8850
Wire Wire Line
	6950 8850 7100 8850
Wire Wire Line
	5500 8850 6000 8850
Wire Wire Line
	9800 1800 9650 1800
Wire Wire Line
	9900 1800 10000 1800
Connection ~ 9900 1700
Wire Wire Line
	10350 1600 10200 1600
Wire Wire Line
	10350 1700 10550 1700
Connection ~ 10350 1700
Connection ~ 4250 2100
Connection ~ 4900 1650
Connection ~ 4900 2950
Wire Wire Line
	12300 4150 12700 4150
Wire Wire Line
	2050 5850 2400 5850
Wire Wire Line
	2100 5850 2100 5400
Wire Wire Line
	2100 5200 2100 5050
Wire Wire Line
	2100 6550 2400 6550
Wire Wire Line
	1350 6000 2400 6000
Wire Wire Line
	1350 5850 1350 6050
Wire Wire Line
	1350 5850 1450 5850
Connection ~ 2100 5850
Connection ~ 9450 8050
Wire Wire Line
	12200 1750 12200 6350
Connection ~ 12200 4850
Connection ~ 12200 3400
Connection ~ 12200 1900
Wire Wire Line
	12200 1250 12200 1150
Wire Wire Line
	5650 6550 5500 6550
Wire Wire Line
	6000 6450 5500 6450
Wire Wire Line
	5500 6350 5650 6350
Wire Wire Line
	6000 6250 5500 6250
Wire Wire Line
	6650 6550 5850 6550
Wire Wire Line
	6200 6450 6250 6450
Wire Wire Line
	5850 6350 6450 6350
Wire Wire Line
	6200 6250 6650 6250
Wire Wire Line
	7000 6550 6850 6550
Connection ~ 7000 6650
Wire Wire Line
	7000 6450 6450 6450
Connection ~ 7000 6550
Wire Wire Line
	7000 6350 6650 6350
Connection ~ 7000 6450
Wire Wire Line
	6850 6250 7000 6250
Connection ~ 7000 6350
Connection ~ 7000 6750
Connection ~ 7000 6250
Wire Wire Line
	8150 2250 7850 2250
Wire Wire Line
	7850 2250 7850 2000
Wire Wire Line
	7750 2350 7750 1900
Wire Wire Line
	8150 4950 7850 4950
Wire Wire Line
	7850 4950 7850 4700
Wire Wire Line
	7750 4600 7750 5050
Wire Wire Line
	7750 5050 8150 5050
Connection ~ 1350 6000
Wire Wire Line
	850  2050 850  2150
Wire Wire Line
	850  2150 1650 2150
Connection ~ 9800 1300
Wire Wire Line
	1150 7250 1150 7150
Wire Wire Line
	9600 8500 9600 8400
Wire Wire Line
	9600 8150 9600 8200
Wire Wire Line
	9250 8500 9750 8500
Connection ~ 9600 8500
Wire Wire Line
	9250 8700 9450 8700
Connection ~ 9450 8700
Wire Wire Line
	8650 8700 8400 8700
Connection ~ 8400 8700
Wire Wire Line
	8650 8500 7950 8500
Wire Wire Line
	7950 8500 7950 8150
Wire Wire Line
	7950 7950 7950 7300
Connection ~ 7950 7300
Wire Wire Line
	5500 8150 6000 8150
Connection ~ 3150 5400
Wire Wire Line
	7000 6250 7000 6800
Wire Wire Line
	7000 6350 7000 6650
Connection ~ 1600 2150
Connection ~ 1650 2150
Connection ~ 3950 5500
Connection ~ 9450 8900
Connection ~ 3800 5500
Connection ~ 3650 5500
Wire Wire Line
	3500 5500 3500 5350
Wire Wire Line
	3650 5350 3950 5350
Wire Wire Line
	2650 3400 4250 3400
Wire Wire Line
	6450 9150 6600 9150
Wire Wire Line
	6600 9250 6450 9250
Wire Wire Line
	6600 9350 5950 9350
Wire Wire Line
	5950 9350 5950 9250
Wire Wire Line
	5950 9250 5800 9250
Wire Wire Line
	8100 1600 8100 1700
Wire Wire Line
	8100 1700 8150 1700
Connection ~ 8100 1600
Wire Wire Line
	8150 4400 8050 4400
Wire Wire Line
	8050 4400 8050 4300
Connection ~ 8050 4300
Wire Wire Line
	4800 2100 4800 1950
Wire Wire Line
	4800 1750 4800 1650
Connection ~ 4800 1650
Wire Wire Line
	1400 2550 1750 2550
Wire Wire Line
	1750 2550 1750 3000
Wire Wire Line
	1200 2850 1200 2950
Wire Wire Line
	1200 2950 1500 2950
Wire Wire Line
	1500 2950 1500 2850
Wire Wire Line
	1500 2650 1500 2150
Connection ~ 1500 2150
Connection ~ 12500 2800
Wire Wire Line
	1000 2550 750  2550
Wire Wire Line
	750  2550 750  2050
Text Label 5700 7150 0    60   ~ 0
START
Wire Wire Line
	5500 7150 5700 7150
Wire Wire Line
	5500 8950 5650 8950
$Comp
L CONN_01X01 P6
U 1 1 565D8E79
P 13000 8200
F 0 "P6" H 13000 8300 50  0000 C CNN
F 1 "CONN_01X01" V 13100 8200 50  0000 C CNN
F 2 "Pin_Headers:Pin_Header_Straight_1x01" H 13000 8200 60  0001 C CNN
F 3 "" H 13000 8200 60  0000 C CNN
	1    13000 8200
	1    0    0    -1  
$EndComp
$Comp
L CONN_01X01 P7
U 1 1 565D8F98
P 13000 8700
F 0 "P7" H 13000 8800 50  0000 C CNN
F 1 "CONN_01X01" V 13100 8700 50  0000 C CNN
F 2 "Pin_Headers:Pin_Header_Straight_1x01" H 13000 8700 60  0001 C CNN
F 3 "" H 13000 8700 60  0000 C CNN
	1    13000 8700
	1    0    0    -1  
$EndComp
$Comp
L CONN_01X01 P8
U 1 1 565D909F
P 13000 9200
F 0 "P8" H 13000 9300 50  0000 C CNN
F 1 "CONN_01X01" V 13100 9200 50  0000 C CNN
F 2 "Pin_Headers:Pin_Header_Straight_1x01" H 13000 9200 60  0001 C CNN
F 3 "" H 13000 9200 60  0000 C CNN
	1    13000 9200
	1    0    0    -1  
$EndComp
Wire Wire Line
	12800 8200 12650 8200
Wire Wire Line
	12650 8200 12650 9400
Wire Wire Line
	12650 8700 12800 8700
Wire Wire Line
	12650 9200 12800 9200
Connection ~ 12650 8700
Connection ~ 12650 9200
$Comp
L GND #PWR045
U 1 1 565D9700
P 12650 9400
F 0 "#PWR045" H 12650 9150 50  0001 C CNN
F 1 "GND" H 12650 9250 50  0000 C CNN
F 2 "" H 12650 9400 60  0000 C CNN
F 3 "" H 12650 9400 60  0000 C CNN
	1    12650 9400
	1    0    0    -1  
$EndComp
Connection ~ 5500 6150
$Comp
L CONN_01X02 P1
U 1 1 565E48AA
P 6450 7300
F 0 "P1" H 6450 7450 50  0000 C CNN
F 1 "CONN_01X02" V 6550 7300 50  0000 C CNN
F 2 "Pin_Headers:Pin_Header_Straight_1x02" H 6450 7300 60  0001 C CNN
F 3 "" H 6450 7300 60  0000 C CNN
	1    6450 7300
	1    0    0    -1  
$EndComp
$EndSCHEMATC
