(export (version D)
  (design
    (source C:/Users/Maciej/Desktop/RoboticArena/minisumo.sch)
    (date "23/11/2015 23:23:00")
    (tool "Eeschema 4.0.0-rc1-stable")
    (sheet (number 1) (name /) (tstamps /)
      (title_block
        (title)
        (company)
        (rev)
        (date)
        (source minisumo.sch)
        (comment (number 1) (value ""))
        (comment (number 2) (value ""))
        (comment (number 3) (value ""))
        (comment (number 4) (value "")))))
  (components
    (comp (ref U2)
      (value LM1117)
      (footprint worksh:LM1117_SOT223)
      (libsource (lib warsztaty) (part LM1117))
      (sheetpath (names /) (tstamps /))
      (tstamp 564279F7))
    (comp (ref C6)
      (value 100nF)
      (footprint Capacitors_SMD:C_0603_HandSoldering)
      (libsource (lib device) (part C_Small))
      (sheetpath (names /) (tstamps /))
      (tstamp 564279FD))
    (comp (ref C8)
      (value 100nF)
      (footprint Capacitors_SMD:C_0603_HandSoldering)
      (libsource (lib device) (part C_Small))
      (sheetpath (names /) (tstamps /))
      (tstamp 56427A03))
    (comp (ref C4)
      (value 47uF)
      (footprint Capacitors_Tantalum_SMD:TantalC_SizeC_EIA-6032_HandSoldering)
      (libsource (lib device) (part CP_Small))
      (sheetpath (names /) (tstamps /))
      (tstamp 56427A09))
    (comp (ref C10)
      (value "10uF tantal")
      (footprint Capacitors_Tantalum_SMD:TantalC_SizeA_EIA-3216_HandSoldering)
      (libsource (lib device) (part CP_Small))
      (sheetpath (names /) (tstamps /))
      (tstamp 56427A0F))
    (comp (ref U1)
      (value LM1117)
      (footprint worksh:LM1117_SOT223)
      (libsource (lib warsztaty) (part LM1117))
      (sheetpath (names /) (tstamps /))
      (tstamp 56427C6A))
    (comp (ref C5)
      (value 100nF)
      (footprint Capacitors_SMD:C_0603_HandSoldering)
      (libsource (lib device) (part C_Small))
      (sheetpath (names /) (tstamps /))
      (tstamp 56427C70))
    (comp (ref C7)
      (value 100nF)
      (footprint Capacitors_SMD:C_0603_HandSoldering)
      (libsource (lib device) (part C_Small))
      (sheetpath (names /) (tstamps /))
      (tstamp 56427C76))
    (comp (ref C3)
      (value 47uF)
      (footprint Capacitors_Tantalum_SMD:TantalC_SizeC_EIA-6032_HandSoldering)
      (libsource (lib device) (part CP_Small))
      (sheetpath (names /) (tstamps /))
      (tstamp 56427C7C))
    (comp (ref C9)
      (value "10uF tantal")
      (footprint Capacitors_Tantalum_SMD:TantalC_SizeA_EIA-3216_HandSoldering)
      (libsource (lib device) (part CP_Small))
      (sheetpath (names /) (tstamps /))
      (tstamp 56427C82))
    (comp (ref L1)
      (value 10uH)
      (footprint Choke_SMD:Choke_SMD_7.3x7.3_H3.5)
      (libsource (lib device) (part INDUCTOR_SMALL))
      (sheetpath (names /) (tstamps /))
      (tstamp 56428322))
    (comp (ref C11)
      (value 100nF)
      (footprint Capacitors_SMD:C_0603_HandSoldering)
      (libsource (lib device) (part C_Small))
      (sheetpath (names /) (tstamps /))
      (tstamp 56428432))
    (comp (ref C12)
      (value 100nF)
      (footprint Capacitors_SMD:C_0603_HandSoldering)
      (libsource (lib device) (part C_Small))
      (sheetpath (names /) (tstamps /))
      (tstamp 564334D5))
    (comp (ref X1)
      (value 8MHz)
      (footprint Crystals:Crystal_SMD_0603_2Pads_obsolete)
      (libsource (lib device) (part CRYSTAL_SMD))
      (sheetpath (names /) (tstamps /))
      (tstamp 5643BF9E))
    (comp (ref C1)
      (value 22pF)
      (footprint Capacitors_SMD:C_0603_HandSoldering)
      (libsource (lib device) (part C_Small))
      (sheetpath (names /) (tstamps /))
      (tstamp 5643C618))
    (comp (ref C2)
      (value 22pF)
      (footprint Capacitors_SMD:C_0603_HandSoldering)
      (libsource (lib device) (part C_Small))
      (sheetpath (names /) (tstamps /))
      (tstamp 5643C687))
    (comp (ref U8)
      (value SHARP_40CM)
      (footprint worksh:GP2Y0D340K)
      (libsource (lib warsztaty) (part SHARP_40CM))
      (sheetpath (names /) (tstamps /))
      (tstamp 5643DE86))
    (comp (ref C25)
      (value 0.1uF)
      (footprint Capacitors_SMD:C_0603_HandSoldering)
      (libsource (lib device) (part C_Small))
      (sheetpath (names /) (tstamps /))
      (tstamp 5643F2C0))
    (comp (ref R22)
      (value 1R)
      (footprint Resistors_SMD:R_0805_HandSoldering)
      (libsource (lib device) (part R_Small))
      (sheetpath (names /) (tstamps /))
      (tstamp 5643F546))
    (comp (ref U9)
      (value SHARP_40CM)
      (footprint worksh:GP2Y0D340K)
      (libsource (lib warsztaty) (part SHARP_40CM))
      (sheetpath (names /) (tstamps /))
      (tstamp 56440F4A))
    (comp (ref C26)
      (value 0.1uF)
      (footprint Capacitors_SMD:C_0603_HandSoldering)
      (libsource (lib device) (part C_Small))
      (sheetpath (names /) (tstamps /))
      (tstamp 56440F5C))
    (comp (ref R23)
      (value 1R)
      (footprint Resistors_SMD:R_0805_HandSoldering)
      (libsource (lib device) (part R_Small))
      (sheetpath (names /) (tstamps /))
      (tstamp 56440F67))
    (comp (ref U10)
      (value SHARP_40CM)
      (footprint worksh:GP2Y0D340K)
      (libsource (lib warsztaty) (part SHARP_40CM))
      (sheetpath (names /) (tstamps /))
      (tstamp 5644131A))
    (comp (ref C27)
      (value 0.1uF)
      (footprint Capacitors_SMD:C_0603_HandSoldering)
      (libsource (lib device) (part C_Small))
      (sheetpath (names /) (tstamps /))
      (tstamp 5644132C))
    (comp (ref R24)
      (value 1R)
      (footprint Resistors_SMD:R_0805_HandSoldering)
      (libsource (lib device) (part R_Small))
      (sheetpath (names /) (tstamps /))
      (tstamp 56441337))
    (comp (ref U11)
      (value SHARP_40CM)
      (footprint worksh:GP2Y0D340K)
      (libsource (lib warsztaty) (part SHARP_40CM))
      (sheetpath (names /) (tstamps /))
      (tstamp 56441344))
    (comp (ref C28)
      (value 0.1uF)
      (footprint Capacitors_SMD:C_0603_HandSoldering)
      (libsource (lib device) (part C_Small))
      (sheetpath (names /) (tstamps /))
      (tstamp 56441356))
    (comp (ref R25)
      (value 1R)
      (footprint Resistors_SMD:R_0805_HandSoldering)
      (libsource (lib device) (part R_Small))
      (sheetpath (names /) (tstamps /))
      (tstamp 56441361))
    (comp (ref U4)
      (value TB6612)
      (footprint worksh:TB6612)
      (libsource (lib warsztaty) (part TB6612))
      (sheetpath (names /) (tstamps /))
      (tstamp 5644DA31))
    (comp (ref C14)
      (value 0.1uF)
      (footprint Capacitors_SMD:C_0603_HandSoldering)
      (libsource (lib device) (part C_Small))
      (sheetpath (names /) (tstamps /))
      (tstamp 5645544D))
    (comp (ref C17)
      (value "0.1uF Tantal")
      (footprint Capacitors_SMD:C_0603_HandSoldering)
      (libsource (lib device) (part C_Small))
      (sheetpath (names /) (tstamps /))
      (tstamp 56456A09))
    (comp (ref C18)
      (value 10uF)
      (footprint Capacitors_Tantalum_SMD:TantalC_SizeA_EIA-3216_HandSoldering)
      (libsource (lib device) (part CP_Small))
      (sheetpath (names /) (tstamps /))
      (tstamp 56456AC2))
    (comp (ref C13)
      (value 10uF)
      (footprint Capacitors_Tantalum_SMD:TantalC_SizeA_EIA-3216_HandSoldering)
      (libsource (lib device) (part CP_Small))
      (sheetpath (names /) (tstamps /))
      (tstamp 56457039))
    (comp (ref U3)
      (value STM32F103RB)
      (footprint misc:LQFP64)
      (libsource (lib stm32) (part STM32F103RB))
      (sheetpath (names /) (tstamps /))
      (tstamp 5645AF2B))
    (comp (ref P3)
      (value ENG1)
      (footprint Pin_Headers:Pin_Header_Straight_1x02)
      (libsource (lib conn) (part CONN_01X02))
      (sheetpath (names /) (tstamps /))
      (tstamp 5646273D))
    (comp (ref C21)
      (value 100nF)
      (footprint Capacitors_SMD:C_0603_HandSoldering)
      (libsource (lib device) (part C_Small))
      (sheetpath (names /) (tstamps /))
      (tstamp 5647B830))
    (comp (ref U5)
      (value TB6612)
      (footprint worksh:TB6612)
      (libsource (lib warsztaty) (part TB6612))
      (sheetpath (names /) (tstamps /))
      (tstamp 5647C8A2))
    (comp (ref C16)
      (value 0.1uF)
      (footprint Capacitors_SMD:C_0603_HandSoldering)
      (libsource (lib device) (part C_Small))
      (sheetpath (names /) (tstamps /))
      (tstamp 5647C8AE))
    (comp (ref C19)
      (value "0.1uF Tantal")
      (footprint Capacitors_SMD:C_0603_HandSoldering)
      (libsource (lib device) (part C_Small))
      (sheetpath (names /) (tstamps /))
      (tstamp 5647C8C6))
    (comp (ref C20)
      (value 10uF)
      (footprint Capacitors_Tantalum_SMD:TantalC_SizeA_EIA-3216_HandSoldering)
      (libsource (lib device) (part CP_Small))
      (sheetpath (names /) (tstamps /))
      (tstamp 5647C8CC))
    (comp (ref C15)
      (value 10uF)
      (footprint Capacitors_Tantalum_SMD:TantalC_SizeA_EIA-3216_HandSoldering)
      (libsource (lib device) (part CP_Small))
      (sheetpath (names /) (tstamps /))
      (tstamp 5647C8D8))
    (comp (ref P4)
      (value ENG2)
      (footprint Pin_Headers:Pin_Header_Straight_1x02)
      (libsource (lib conn) (part CONN_01X02))
      (sheetpath (names /) (tstamps /))
      (tstamp 5647C8DE))
    (comp (ref C24)
      (value 100nF)
      (footprint Capacitors_SMD:C_0603_HandSoldering)
      (libsource (lib device) (part C_Small))
      (sheetpath (names /) (tstamps /))
      (tstamp 56484799))
    (comp (ref C22)
      (value 100nF)
      (footprint Capacitors_SMD:C_0603_HandSoldering)
      (libsource (lib device) (part C_Small))
      (sheetpath (names /) (tstamps /))
      (tstamp 56485D80))
    (comp (ref C23)
      (value 100nF)
      (footprint Capacitors_SMD:C_0603_HandSoldering)
      (libsource (lib device) (part C_Small))
      (sheetpath (names /) (tstamps /))
      (tstamp 56488833))
    (comp (ref R1)
      (value 180R)
      (footprint Resistors_SMD:R_0603_HandSoldering)
      (libsource (lib device) (part R_Small))
      (sheetpath (names /) (tstamps /))
      (tstamp 5648B945))
    (comp (ref U6)
      (value KTIR0711S)
      (footprint worksh:KTIR0711S)
      (libsource (lib warsztaty) (part KTIR0711S))
      (sheetpath (names /) (tstamps /))
      (tstamp 564A6B12))
    (comp (ref U7)
      (value KTIR0711S)
      (footprint worksh:KTIR0711S)
      (libsource (lib warsztaty) (part KTIR0711S))
      (sheetpath (names /) (tstamps /))
      (tstamp 564A6ED1))
    (comp (ref R20)
      (value 20k)
      (footprint Resistors_SMD:R_0603_HandSoldering)
      (libsource (lib device) (part R_Small))
      (sheetpath (names /) (tstamps /))
      (tstamp 564A8BF5))
    (comp (ref R21)
      (value 20k)
      (footprint Resistors_SMD:R_0603_HandSoldering)
      (libsource (lib device) (part R_Small))
      (sheetpath (names /) (tstamps /))
      (tstamp 564A8CF2))
    (comp (ref R19)
      (value 220R)
      (footprint Resistors_SMD:R_0603_HandSoldering)
      (libsource (lib device) (part R_Small))
      (sheetpath (names /) (tstamps /))
      (tstamp 564AA725))
    (comp (ref R18)
      (value 220R)
      (footprint Resistors_SMD:R_0603_HandSoldering)
      (libsource (lib device) (part R_Small))
      (sheetpath (names /) (tstamps /))
      (tstamp 564AF760))
    (comp (ref SW2)
      (value BOT_ENABLE)
      (footprint Buttons_Switches_SMD:SW_SPST_EVQPE1)
      (libsource (lib device) (part SW_PUSH))
      (sheetpath (names /) (tstamps /))
      (tstamp 564B93C6))
    (comp (ref R17)
      (value 20k)
      (footprint Resistors_SMD:R_0603_HandSoldering)
      (libsource (lib device) (part R_Small))
      (sheetpath (names /) (tstamps /))
      (tstamp 564B9991))
    (comp (ref P2)
      (value START_MODULE)
      (footprint Pin_Headers:Pin_Header_Straight_1x04)
      (libsource (lib conn) (part CONN_01X04))
      (sheetpath (names /) (tstamps /))
      (tstamp 564BDFBA))
    (comp (ref D1)
      (value "LED BLUE BOT OPERATING")
      (footprint LEDs:LED-0603)
      (libsource (lib device) (part Led_Small))
      (sheetpath (names /) (tstamps /))
      (tstamp 564D56D2))
    (comp (ref R4)
      (value 20k)
      (footprint Resistors_SMD:R_0603_HandSoldering)
      (libsource (lib device) (part R_Small))
      (sheetpath (names /) (tstamps /))
      (tstamp 564F4F07))
    (comp (ref SW1)
      (value BOT_RESET)
      (footprint Buttons_Switches_SMD:SW_SPST_EVQPE1)
      (libsource (lib device) (part SW_PUSH))
      (sheetpath (names /) (tstamps /))
      (tstamp 56501CCD))
    (comp (ref L2)
      (value 100uH)
      (footprint Choke_SMD:Choke_SMD_7.3x7.3_H4.5)
      (libsource (lib device) (part INDUCTOR_SMALL))
      (sheetpath (names /) (tstamps /))
      (tstamp 56512828))
    (comp (ref D6)
      (value SHARP4)
      (footprint LEDs:LED-0603)
      (libsource (lib device) (part Led_Small))
      (sheetpath (names /) (tstamps /))
      (tstamp 5651DD27))
    (comp (ref D10)
      (value SHARP3)
      (footprint LEDs:LED-0603)
      (libsource (lib device) (part Led_Small))
      (sheetpath (names /) (tstamps /))
      (tstamp 5651DE04))
    (comp (ref D5)
      (value SHARP2)
      (footprint LEDs:LED-0603)
      (libsource (lib device) (part Led_Small))
      (sheetpath (names /) (tstamps /))
      (tstamp 5651DEEC))
    (comp (ref D9)
      (value SHARP1)
      (footprint LEDs:LED-0603)
      (libsource (lib device) (part Led_Small))
      (sheetpath (names /) (tstamps /))
      (tstamp 5651E059))
    (comp (ref R16)
      (value 220R)
      (footprint Resistors_SMD:R_0603_HandSoldering)
      (libsource (lib device) (part R_Small))
      (sheetpath (names /) (tstamps /))
      (tstamp 56520E98))
    (comp (ref R11)
      (value 220R)
      (footprint Resistors_SMD:R_0603_HandSoldering)
      (libsource (lib device) (part R_Small))
      (sheetpath (names /) (tstamps /))
      (tstamp 56520F8B))
    (comp (ref R13)
      (value 220R)
      (footprint Resistors_SMD:R_0603_HandSoldering)
      (libsource (lib device) (part R_Small))
      (sheetpath (names /) (tstamps /))
      (tstamp 56521923))
    (comp (ref R15)
      (value 220R)
      (footprint Resistors_SMD:R_0603_HandSoldering)
      (libsource (lib device) (part R_Small))
      (sheetpath (names /) (tstamps /))
      (tstamp 56521A1A))
    (comp (ref R26)
      (value 1k)
      (footprint Resistors_SMD:R_0603_HandSoldering)
      (libsource (lib device) (part R_Small))
      (sheetpath (names /) (tstamps /))
      (tstamp 56569EE3))
    (comp (ref P5)
      (value BATERIA)
      (footprint Pin_Headers:Pin_Header_Angled_1x02)
      (libsource (lib conn) (part CONN_01X02))
      (sheetpath (names /) (tstamps /))
      (tstamp 5655F2DF))
    (comp (ref U12)
      (value KTIR0711S)
      (footprint worksh:KTIR0711S)
      (libsource (lib warsztaty) (part KTIR0711S))
      (sheetpath (names /) (tstamps /))
      (tstamp 5658AE54))
    (comp (ref R27)
      (value 220R)
      (footprint Resistors_SMD:R_0603_HandSoldering)
      (libsource (lib device) (part R_Small))
      (sheetpath (names /) (tstamps /))
      (tstamp 5658AF90))
    (comp (ref R28)
      (value 20k)
      (footprint Resistors_SMD:R_0603_HandSoldering)
      (libsource (lib device) (part R_Small))
      (sheetpath (names /) (tstamps /))
      (tstamp 5658B886))
    (comp (ref C29)
      (value 100uF)
      (footprint Capacitors_Tantalum_SMD:TantalC_SizeB_EIA-3528_HandSoldering)
      (libsource (lib device) (part CP_Small))
      (sheetpath (names /) (tstamps /))
      (tstamp 565B9031))
    (comp (ref Q1)
      (value Q_NMOS_GDS)
      (footprint TO_SOT_Packages_SMD:TO-252-2Lead)
      (libsource (lib device) (part Q_NMOS_GDS))
      (sheetpath (names /) (tstamps /))
      (tstamp 565C003C))
    (comp (ref P6)
      (value CONN_01X01)
      (footprint Pin_Headers:Pin_Header_Straight_1x01)
      (libsource (lib conn) (part CONN_01X01))
      (sheetpath (names /) (tstamps /))
      (tstamp 565D8E79))
    (comp (ref P7)
      (value CONN_01X01)
      (footprint Pin_Headers:Pin_Header_Straight_1x01)
      (libsource (lib conn) (part CONN_01X01))
      (sheetpath (names /) (tstamps /))
      (tstamp 565D8F98))
    (comp (ref P8)
      (value CONN_01X01)
      (footprint Pin_Headers:Pin_Header_Straight_1x01)
      (libsource (lib conn) (part CONN_01X01))
      (sheetpath (names /) (tstamps /))
      (tstamp 565D909F))
    (comp (ref P1)
      (value CONN_01X02)
      (footprint Pin_Headers:Pin_Header_Straight_1x02)
      (libsource (lib conn) (part CONN_01X02))
      (sheetpath (names /) (tstamps /))
      (tstamp 565E48AA)))
  (libparts
    (libpart (lib device) (part R_Small)
      (description Resistor)
      (footprints
        (fp Resistor_*)
        (fp R_*))
      (fields
        (field (name Reference) R)
        (field (name Value) R_Small))
      (pins
        (pin (num 1) (name ~) (type passive))
        (pin (num 2) (name ~) (type passive))))
    (libpart (lib device) (part SW_PUSH)
      (description Button)
      (fields
        (field (name Reference) SW)
        (field (name Value) SW_PUSH))
      (pins
        (pin (num 1) (name 1) (type passive))
        (pin (num 2) (name 2) (type passive))))
    (libpart (lib device) (part INDUCTOR_SMALL)
      (fields
        (field (name Reference) L)
        (field (name Value) INDUCTOR_SMALL))
      (pins
        (pin (num 1) (name 1) (type input))
        (pin (num 2) (name 2) (type input))))
    (libpart (lib device) (part Q_NMOS_GDS)
      (description "Transistor N-MOSFET (general)")
      (fields
        (field (name Reference) Q)
        (field (name Value) Q_NMOS_GDS))
      (pins
        (pin (num 1) (name G) (type input))
        (pin (num 2) (name D) (type passive))
        (pin (num 3) (name S) (type passive))))
    (libpart (lib warsztaty) (part KTIR0711S)
      (fields
        (field (name Reference) U)
        (field (name Value) KTIR0711S))
      (pins
        (pin (num 1) (name ~) (type passive))
        (pin (num 2) (name ~) (type passive))
        (pin (num 3) (name ~) (type passive))
        (pin (num 4) (name ~) (type passive))))
    (libpart (lib warsztaty) (part LM1117)
      (fields
        (field (name Reference) U)
        (field (name Value) LM1117))
      (pins
        (pin (num 1) (name VI) (type input))
        (pin (num 2) (name VO) (type power_out))
        (pin (num 3) (name GND) (type input))))
    (libpart (lib warsztaty) (part SHARP_40CM)
      (fields
        (field (name Reference) U)
        (field (name Value) SHARP_40CM))
      (pins
        (pin (num 1) (name VCC) (type input))
        (pin (num 2) (name LED) (type input))
        (pin (num 3) (name VO) (type input))
        (pin (num 4) (name GND) (type input))
        (pin (num 5) (name REG) (type input))))
    (libpart (lib warsztaty) (part TB6612)
      (fields
        (field (name Reference) U)
        (field (name Value) TB6612))
      (pins
        (pin (num 1) (name AO1) (type input))
        (pin (num 2) (name AO1) (type input))
        (pin (num 3) (name PGND1) (type input))
        (pin (num 4) (name PGND1) (type input))
        (pin (num 5) (name AO2) (type input))
        (pin (num 6) (name AO2) (type input))
        (pin (num 7) (name BO2) (type input))
        (pin (num 8) (name BO2) (type input))
        (pin (num 9) (name PGND2) (type input))
        (pin (num 10) (name PGND2) (type input))
        (pin (num 11) (name BO1) (type input))
        (pin (num 12) (name BO1) (type input))
        (pin (num 13) (name VM2) (type input))
        (pin (num 14) (name VM3) (type input))
        (pin (num 15) (name PWMB) (type input))
        (pin (num 16) (name BIN2) (type input))
        (pin (num 17) (name BIN1) (type input))
        (pin (num 18) (name GND) (type input))
        (pin (num 19) (name STBY) (type input))
        (pin (num 20) (name VCC) (type input))
        (pin (num 21) (name AIN1) (type input))
        (pin (num 22) (name AIN2) (type input))
        (pin (num 23) (name PWMA) (type input))
        (pin (num 24) (name VM1) (type input))))
    (libpart (lib device) (part CP_Small)
      (description "Polarised capacitor")
      (footprints
        (fp CP*)
        (fp Elko*)
        (fp TantalC*)
        (fp C*elec)
        (fp c_elec*)
        (fp SMD*_Pol))
      (fields
        (field (name Reference) C)
        (field (name Value) CP_Small))
      (pins
        (pin (num 1) (name ~) (type passive))
        (pin (num 2) (name ~) (type passive))))
    (libpart (lib device) (part CRYSTAL_SMD)
      (fields
        (field (name Reference) X)
        (field (name Value) CRYSTAL_SMD))
      (pins
        (pin (num 1) (name 1) (type passive))
        (pin (num 2) (name 2) (type passive))
        (pin (num 3) (name case) (type passive))))
    (libpart (lib device) (part C_Small)
      (description "Unpolarized capacitor")
      (footprints
        (fp C?)
        (fp C_????_*)
        (fp C_????)
        (fp SMD*_c)
        (fp Capacitor*))
      (fields
        (field (name Reference) C)
        (field (name Value) C_Small))
      (pins
        (pin (num 1) (name ~) (type passive))
        (pin (num 2) (name ~) (type passive))))
    (libpart (lib device) (part Led_Small)
      (description Led)
      (footprints
        (fp CP*)
        (fp SM*))
      (fields
        (field (name Reference) D)
        (field (name Value) Led_Small))
      (pins
        (pin (num 1) (name K) (type passive))
        (pin (num 2) (name A) (type passive))))
    (libpart (lib conn) (part CONN_01X01)
      (footprints
        (fp Pin_Header_Straight_1X01)
        (fp Pin_Header_Angled_1X01)
        (fp Socket_Strip_Straight_1X01)
        (fp Socket_Strip_Angled_1X01))
      (fields
        (field (name Reference) P)
        (field (name Value) CONN_01X01))
      (pins
        (pin (num 1) (name P1) (type passive))))
    (libpart (lib stm32) (part STM32F103R8)
      (aliases
        (alias STM32F103RB))
      (fields
        (field (name Reference) U)
        (field (name Value) STM32F103R8)
        (field (name Footprint) LQFP64))
      (pins
        (pin (num 1) (name VBAT) (type power_in))
        (pin (num 2) (name PC13/TAMPER_RTC) (type BiDi))
        (pin (num 3) (name PC14/OSC32_IN) (type BiDi))
        (pin (num 4) (name PC15/OSC32_OUT) (type BiDi))
        (pin (num 5) (name PD0/OSC_IN) (type BiDi))
        (pin (num 6) (name PD1/OSC_OUT) (type BiDi))
        (pin (num 7) (name ~NRST) (type input))
        (pin (num 8) (name PC0/ADC12_IN10) (type BiDi))
        (pin (num 9) (name PC1/ADC12_IN11) (type BiDi))
        (pin (num 10) (name PC2/ADC12_IN12) (type BiDi))
        (pin (num 11) (name PC3/ADC12_IN13) (type BiDi))
        (pin (num 12) (name VSSA) (type power_in))
        (pin (num 13) (name VDDA) (type power_in))
        (pin (num 14) (name WKUP/USART2_CTS/ADC12_IN0/TIM2_CH1_ETR/PA0) (type BiDi))
        (pin (num 15) (name USART2_RTS/ADC12_IN1/TIM2_CH2/PA1) (type BiDi))
        (pin (num 16) (name USART2_TX/ADC12_IN2/TIM2_CH3/PA2) (type BiDi))
        (pin (num 17) (name USART2_RX/ADC12_IN3/TIM2_CH4/PA3) (type BiDi))
        (pin (num 18) (name VSS) (type power_in))
        (pin (num 19) (name VDD) (type power_in))
        (pin (num 20) (name SPI1_NSS/USART2_CK/ADC12_IN4/PA4) (type BiDi))
        (pin (num 21) (name SPI1_SCK/ADC12_IN5/PA5) (type BiDi))
        (pin (num 22) (name SPI1_MISO/ADC12_IN6/TIM3_CH1/PA6) (type BiDi))
        (pin (num 23) (name SPI1_MOSI/ADC12_IN7/TIM3_CH2/PA7) (type BiDi))
        (pin (num 24) (name PC4/ADC12_IN14) (type BiDi))
        (pin (num 25) (name PC5/ADC12_IN15) (type BiDi))
        (pin (num 26) (name ADC12_IN8/TIM3_CH3/PB0) (type BiDi))
        (pin (num 27) (name ADC12_IN9/TIM3_CH4/PB1) (type BiDi))
        (pin (num 28) (name BOOT1/PB2) (type BiDi))
        (pin (num 29) (name I2C2_SCL/USART3_TX/PB10) (type BiDi))
        (pin (num 30) (name I2C2_SDA/USART3_RX/PB11) (type BiDi))
        (pin (num 31) (name VSS) (type power_in))
        (pin (num 32) (name VDD) (type power_in))
        (pin (num 33) (name SPI2_NSS/I2C2_SMBA/USART3_CK/TIM1_BKIN/PB12) (type BiDi))
        (pin (num 34) (name SPI2_SCK/USART3_CTS/TIM1_CH1N/PB13) (type BiDi))
        (pin (num 35) (name SPI2_MISO/USART3_RTS/TIM1_CH2N/PB14) (type BiDi))
        (pin (num 36) (name SPI2_MOSI/TIM1_CH3N/PB15) (type BiDi))
        (pin (num 37) (name PC6) (type BiDi))
        (pin (num 38) (name PC7) (type BiDi))
        (pin (num 39) (name PC8) (type BiDi))
        (pin (num 40) (name PC9) (type BiDi))
        (pin (num 41) (name USART1_CK/TIM1_CH1/MCO/PA8) (type BiDi))
        (pin (num 42) (name USART1_TX/TIM1_CH2/PA9) (type BiDi))
        (pin (num 43) (name USART1_RX/TIM1_CH3/PA10) (type BiDi))
        (pin (num 44) (name USART1_CTS/CANRX/USBDM/TIM1_CH4/PA11) (type BiDi))
        (pin (num 45) (name USART1_RTS/CANTX/USBDP/TIM1_ETR/PA12) (type BiDi))
        (pin (num 46) (name JTMS/SWDIO/PA13) (type BiDi))
        (pin (num 47) (name VSS) (type power_in))
        (pin (num 48) (name VDD) (type power_in))
        (pin (num 49) (name JTCK/SWCLK/PA14) (type BiDi))
        (pin (num 50) (name JTDI/PA15) (type BiDi))
        (pin (num 51) (name PC10) (type BiDi))
        (pin (num 52) (name PC11) (type BiDi))
        (pin (num 53) (name PC12) (type BiDi))
        (pin (num 54) (name PD2/TIM3_ETR) (type BiDi))
        (pin (num 55) (name JTDO/PB3) (type BiDi))
        (pin (num 56) (name NJTRST/PB4) (type BiDi))
        (pin (num 57) (name I2C1_SMBA/PB5) (type BiDi))
        (pin (num 58) (name I2C1_SCL/TIM4_CH1/PB6) (type BiDi))
        (pin (num 59) (name I2C1_SDA/TIM4_CH2/PB7) (type BiDi))
        (pin (num 60) (name BOOT0) (type input))
        (pin (num 61) (name TIM4_CH3/PB8) (type BiDi))
        (pin (num 62) (name TIM4_CH4/PB9) (type BiDi))
        (pin (num 63) (name VSS) (type power_in))
        (pin (num 64) (name VDD) (type power_in))))
    (libpart (lib conn) (part CONN_01X02)
      (footprints
        (fp Pin_Header_Straight_1X02)
        (fp Pin_Header_Angled_1X02)
        (fp Socket_Strip_Straight_1X02)
        (fp Socket_Strip_Angled_1X02))
      (fields
        (field (name Reference) P)
        (field (name Value) CONN_01X02))
      (pins
        (pin (num 1) (name P1) (type passive))
        (pin (num 2) (name P2) (type passive))))
    (libpart (lib conn) (part CONN_01X04)
      (footprints
        (fp Pin_Header_Straight_1X04)
        (fp Pin_Header_Angled_1X04)
        (fp Socket_Strip_Straight_1X04)
        (fp Socket_Strip_Angled_1X04))
      (fields
        (field (name Reference) P)
        (field (name Value) CONN_01X04))
      (pins
        (pin (num 1) (name P1) (type passive))
        (pin (num 2) (name P2) (type passive))
        (pin (num 3) (name P3) (type passive))
        (pin (num 4) (name P4) (type passive)))))
  (libraries
    (library (logical device)
      (uri "C:\\Program Files\\KiCad\\share\\kicad\\library\\device.lib"))
    (library (logical stm32)
      (uri "C:\\Users\\Maciej\\Desktop\\warsztaty_kicad\\paczka na strone\\libsy i footprinty\\lib\\stm32.lib"))
    (library (logical warsztaty)
      (uri "C:\\Users\\Maciej\\Desktop\\warsztaty_kicad\\paczka na strone\\libsy i footprinty\\lib\\warsztaty.lib"))
    (library (logical conn)
      (uri "C:\\Program Files\\KiCad\\share\\kicad\\library\\conn.lib")))
  (nets
    (net (code 1) (name "Net-(P3-Pad1)")
      (node (ref U4) (pin 11))
      (node (ref U4) (pin 12))
      (node (ref U4) (pin 2))
      (node (ref U4) (pin 1))
      (node (ref P3) (pin 1)))
    (net (code 2) (name "Net-(P3-Pad2)")
      (node (ref P3) (pin 2))
      (node (ref U4) (pin 5))
      (node (ref U4) (pin 6))
      (node (ref U4) (pin 7))
      (node (ref U4) (pin 8)))
    (net (code 3) (name VCC)
      (node (ref C18) (pin 1))
      (node (ref C17) (pin 1))
      (node (ref U2) (pin 1))
      (node (ref C19) (pin 1))
      (node (ref C20) (pin 1))
      (node (ref U5) (pin 24))
      (node (ref U5) (pin 14))
      (node (ref U5) (pin 13))
      (node (ref P5) (pin 2))
      (node (ref R26) (pin 1))
      (node (ref U4) (pin 13))
      (node (ref C3) (pin 1))
      (node (ref C5) (pin 1))
      (node (ref U1) (pin 1))
      (node (ref C4) (pin 1))
      (node (ref C6) (pin 1))
      (node (ref U4) (pin 24))
      (node (ref U4) (pin 14)))
    (net (code 4) (name /PWM-ENG1)
      (node (ref U4) (pin 23))
      (node (ref U4) (pin 15))
      (node (ref U3) (pin 43)))
    (net (code 5) (name /IN-2ENG1)
      (node (ref U4) (pin 16))
      (node (ref U3) (pin 38))
      (node (ref U4) (pin 22)))
    (net (code 6) (name "Net-(C28-Pad1)")
      (node (ref C28) (pin 1))
      (node (ref U11) (pin 5)))
    (net (code 7) (name "Net-(C11-Pad1)")
      (node (ref U3) (pin 64))
      (node (ref C11) (pin 1))
      (node (ref L1) (pin 2))
      (node (ref C12) (pin 1))
      (node (ref U3) (pin 13))
      (node (ref U3) (pin 48))
      (node (ref U3) (pin 32))
      (node (ref U3) (pin 19)))
    (net (code 8) (name /SENS2)
      (node (ref U9) (pin 3))
      (node (ref U3) (pin 58)))
    (net (code 9) (name "Net-(C26-Pad1)")
      (node (ref U9) (pin 5))
      (node (ref C26) (pin 1)))
    (net (code 10) (name "Net-(R24-Pad1)")
      (node (ref U10) (pin 2))
      (node (ref R24) (pin 1)))
    (net (code 11) (name /SENS3)
      (node (ref U3) (pin 62))
      (node (ref U10) (pin 3)))
    (net (code 12) (name "Net-(C27-Pad1)")
      (node (ref U10) (pin 5))
      (node (ref C27) (pin 1)))
    (net (code 13) (name "Net-(R23-Pad1)")
      (node (ref U9) (pin 2))
      (node (ref R23) (pin 1)))
    (net (code 14) (name "Net-(R25-Pad1)")
      (node (ref R25) (pin 1))
      (node (ref U11) (pin 2)))
    (net (code 15) (name /SENS4)
      (node (ref U11) (pin 3))
      (node (ref U3) (pin 61)))
    (net (code 16) (name "Net-(P1-Pad1)")
      (node (ref U3) (pin 46))
      (node (ref P1) (pin 1)))
    (net (code 17) (name "Net-(P1-Pad2)")
      (node (ref P1) (pin 2))
      (node (ref U3) (pin 49)))
    (net (code 18) (name "Net-(R22-Pad1)")
      (node (ref R22) (pin 1))
      (node (ref U8) (pin 2)))
    (net (code 19) (name /SENS1)
      (node (ref U8) (pin 3))
      (node (ref U3) (pin 34)))
    (net (code 20) (name "Net-(C25-Pad1)")
      (node (ref C25) (pin 1))
      (node (ref U8) (pin 5)))
    (net (code 21) (name /IN-2ENG2)
      (node (ref U3) (pin 42))
      (node (ref U5) (pin 22))
      (node (ref U5) (pin 16)))
    (net (code 22) (name /LINESENS_BACK)
      (node (ref U3) (pin 57))
      (node (ref R28) (pin 2))
      (node (ref U12) (pin 4)))
    (net (code 23) (name "Net-(R27-Pad1)")
      (node (ref R27) (pin 1))
      (node (ref U12) (pin 1)))
    (net (code 24) (name "Net-(D6-Pad2)")
      (node (ref D6) (pin 2))
      (node (ref U3) (pin 22)))
    (net (code 25) (name "Net-(D10-Pad2)")
      (node (ref D10) (pin 2))
      (node (ref U3) (pin 21)))
    (net (code 26) (name "Net-(D5-Pad2)")
      (node (ref U3) (pin 20))
      (node (ref D5) (pin 2)))
    (net (code 27) (name "Net-(D9-Pad2)")
      (node (ref U3) (pin 17))
      (node (ref D9) (pin 2)))
    (net (code 28) (name "Net-(D6-Pad1)")
      (node (ref D6) (pin 1))
      (node (ref R16) (pin 2)))
    (net (code 29) (name "Net-(D10-Pad1)")
      (node (ref D10) (pin 1))
      (node (ref R11) (pin 2)))
    (net (code 30) (name "Net-(D5-Pad1)")
      (node (ref D5) (pin 1))
      (node (ref R13) (pin 2)))
    (net (code 31) (name "Net-(D9-Pad1)")
      (node (ref D9) (pin 1))
      (node (ref R15) (pin 2)))
    (net (code 32) (name /IN-1ENG1)
      (node (ref U4) (pin 17))
      (node (ref U3) (pin 39))
      (node (ref U4) (pin 21)))
    (net (code 33) (name GND)
      (node (ref C2) (pin 2))
      (node (ref U1) (pin 3))
      (node (ref C9) (pin 2))
      (node (ref C3) (pin 2))
      (node (ref U2) (pin 3))
      (node (ref C7) (pin 2))
      (node (ref C6) (pin 2))
      (node (ref C5) (pin 2))
      (node (ref C10) (pin 2))
      (node (ref C8) (pin 2))
      (node (ref C4) (pin 2))
      (node (ref C27) (pin 2))
      (node (ref R25) (pin 2))
      (node (ref C28) (pin 2))
      (node (ref U11) (pin 4))
      (node (ref R24) (pin 2))
      (node (ref U3) (pin 47))
      (node (ref C15) (pin 2))
      (node (ref U3) (pin 63))
      (node (ref U3) (pin 31))
      (node (ref U4) (pin 10))
      (node (ref U4) (pin 4))
      (node (ref U4) (pin 3))
      (node (ref X1) (pin 3))
      (node (ref C11) (pin 2))
      (node (ref C12) (pin 2))
      (node (ref C1) (pin 2))
      (node (ref U3) (pin 12))
      (node (ref C20) (pin 2))
      (node (ref U3) (pin 60))
      (node (ref U5) (pin 18))
      (node (ref U5) (pin 10))
      (node (ref U5) (pin 9))
      (node (ref U5) (pin 4))
      (node (ref U5) (pin 3))
      (node (ref C21) (pin 2))
      (node (ref R15) (pin 1))
      (node (ref R13) (pin 1))
      (node (ref R11) (pin 1))
      (node (ref R16) (pin 1))
      (node (ref U7) (pin 3))
      (node (ref U6) (pin 3))
      (node (ref U6) (pin 2))
      (node (ref R1) (pin 2))
      (node (ref C23) (pin 2))
      (node (ref C22) (pin 2))
      (node (ref C24) (pin 2))
      (node (ref SW1) (pin 1))
      (node (ref U10) (pin 4))
      (node (ref R23) (pin 2))
      (node (ref C19) (pin 2))
      (node (ref C26) (pin 2))
      (node (ref U3) (pin 18))
      (node (ref R22) (pin 2))
      (node (ref U7) (pin 2))
      (node (ref C25) (pin 2))
      (node (ref U8) (pin 4))
      (node (ref Q1) (pin 3))
      (node (ref C29) (pin 2))
      (node (ref U9) (pin 4))
      (node (ref C16) (pin 2))
      (node (ref U12) (pin 3))
      (node (ref U12) (pin 2))
      (node (ref P2) (pin 2))
      (node (ref P7) (pin 1))
      (node (ref P6) (pin 1))
      (node (ref P8) (pin 1))
      (node (ref C14) (pin 2))
      (node (ref C17) (pin 2))
      (node (ref C18) (pin 2))
      (node (ref U4) (pin 9))
      (node (ref C13) (pin 2))
      (node (ref U4) (pin 18)))
    (net (code 34) (name "Net-(Q1-Pad1)")
      (node (ref Q1) (pin 1))
      (node (ref R26) (pin 2)))
    (net (code 35) (name "Net-(P5-Pad1)")
      (node (ref Q1) (pin 2))
      (node (ref P5) (pin 1)))
    (net (code 36) (name /START)
      (node (ref U3) (pin 45))
      (node (ref P2) (pin 3)))
    (net (code 37) (name +5V)
      (node (ref C29) (pin 1))
      (node (ref L2) (pin 2))
      (node (ref R27) (pin 2))
      (node (ref U4) (pin 20))
      (node (ref U4) (pin 19))
      (node (ref R18) (pin 2))
      (node (ref R19) (pin 2))
      (node (ref C15) (pin 1))
      (node (ref C13) (pin 1))
      (node (ref C7) (pin 1))
      (node (ref U1) (pin 2))
      (node (ref C16) (pin 1))
      (node (ref U5) (pin 20))
      (node (ref C14) (pin 1))
      (node (ref U5) (pin 19))
      (node (ref C9) (pin 1)))
    (net (code 38) (name "Net-(U3-Pad52)")
      (node (ref U3) (pin 52)))
    (net (code 39) (name "Net-(C21-Pad1)")
      (node (ref L2) (pin 1))
      (node (ref C21) (pin 1))
      (node (ref C23) (pin 1))
      (node (ref C22) (pin 1))
      (node (ref C24) (pin 1))
      (node (ref U11) (pin 1))
      (node (ref U8) (pin 1))
      (node (ref U10) (pin 1))
      (node (ref U9) (pin 1)))
    (net (code 40) (name "Net-(D1-Pad2)")
      (node (ref U3) (pin 53))
      (node (ref D1) (pin 2)))
    (net (code 41) (name "Net-(D1-Pad1)")
      (node (ref R1) (pin 1))
      (node (ref D1) (pin 1)))
    (net (code 42) (name "Net-(P4-Pad1)")
      (node (ref P4) (pin 1))
      (node (ref U5) (pin 11))
      (node (ref U5) (pin 12))
      (node (ref U5) (pin 1))
      (node (ref U5) (pin 2)))
    (net (code 43) (name "Net-(P4-Pad2)")
      (node (ref U5) (pin 6))
      (node (ref P4) (pin 2))
      (node (ref U5) (pin 8))
      (node (ref U5) (pin 7))
      (node (ref U5) (pin 5)))
    (net (code 44) (name "Net-(R17-Pad1)")
      (node (ref R17) (pin 1))
      (node (ref SW2) (pin 2)))
    (net (code 45) (name "Net-(SW2-Pad1)")
      (node (ref SW2) (pin 1))
      (node (ref U3) (pin 33)))
    (net (code 46) (name /LINESENS_LEFT)
      (node (ref U3) (pin 29))
      (node (ref R20) (pin 2))
      (node (ref U6) (pin 4)))
    (net (code 47) (name "Net-(R4-Pad2)")
      (node (ref R4) (pin 2))
      (node (ref U3) (pin 7))
      (node (ref SW1) (pin 2)))
    (net (code 48) (name /PWM-ENG2)
      (node (ref U5) (pin 15))
      (node (ref U3) (pin 44))
      (node (ref U5) (pin 23)))
    (net (code 49) (name "Net-(R18-Pad1)")
      (node (ref U7) (pin 1))
      (node (ref R18) (pin 1)))
    (net (code 50) (name "Net-(R19-Pad1)")
      (node (ref R19) (pin 1))
      (node (ref U6) (pin 1)))
    (net (code 51) (name /LINESENS_RIGHT)
      (node (ref R21) (pin 2))
      (node (ref U3) (pin 30))
      (node (ref U7) (pin 4)))
    (net (code 52) (name "Net-(U3-Pad2)")
      (node (ref U3) (pin 2)))
    (net (code 53) (name "Net-(U3-Pad3)")
      (node (ref U3) (pin 3)))
    (net (code 54) (name "Net-(U3-Pad4)")
      (node (ref U3) (pin 4)))
    (net (code 55) (name "Net-(U3-Pad14)")
      (node (ref U3) (pin 14)))
    (net (code 56) (name "Net-(U3-Pad24)")
      (node (ref U3) (pin 24)))
    (net (code 57) (name "Net-(U3-Pad54)")
      (node (ref U3) (pin 54)))
    (net (code 58) (name "Net-(U3-Pad15)")
      (node (ref U3) (pin 15)))
    (net (code 59) (name "Net-(U3-Pad25)")
      (node (ref U3) (pin 25)))
    (net (code 60) (name "Net-(U3-Pad35)")
      (node (ref U3) (pin 35)))
    (net (code 61) (name "Net-(U3-Pad55)")
      (node (ref U3) (pin 55)))
    (net (code 62) (name "Net-(U3-Pad16)")
      (node (ref U3) (pin 16)))
    (net (code 63) (name "Net-(U3-Pad26)")
      (node (ref U3) (pin 26)))
    (net (code 64) (name "Net-(U3-Pad36)")
      (node (ref U3) (pin 36)))
    (net (code 65) (name "Net-(U3-Pad56)")
      (node (ref U3) (pin 56)))
    (net (code 66) (name "Net-(U3-Pad27)")
      (node (ref U3) (pin 27)))
    (net (code 67) (name "Net-(U3-Pad37)")
      (node (ref U3) (pin 37)))
    (net (code 68) (name "Net-(U3-Pad8)")
      (node (ref U3) (pin 8)))
    (net (code 69) (name "Net-(U3-Pad9)")
      (node (ref U3) (pin 9)))
    (net (code 70) (name "Net-(U3-Pad10)")
      (node (ref U3) (pin 10)))
    (net (code 71) (name /IN-1ENG2)
      (node (ref U5) (pin 21))
      (node (ref U3) (pin 40))
      (node (ref U5) (pin 17)))
    (net (code 72) (name "Net-(U3-Pad50)")
      (node (ref U3) (pin 50)))
    (net (code 73) (name "Net-(U3-Pad11)")
      (node (ref U3) (pin 11)))
    (net (code 74) (name "Net-(U3-Pad41)")
      (node (ref U3) (pin 41)))
    (net (code 75) (name "Net-(U3-Pad51)")
      (node (ref U3) (pin 51)))
    (net (code 76) (name "Net-(U3-Pad23)")
      (node (ref U3) (pin 23)))
    (net (code 77) (name /XTAL1)
      (node (ref X1) (pin 1))
      (node (ref C1) (pin 1))
      (node (ref U3) (pin 5)))
    (net (code 78) (name /XTAL2)
      (node (ref U3) (pin 6))
      (node (ref C2) (pin 1))
      (node (ref X1) (pin 2)))
    (net (code 79) (name +3V3)
      (node (ref R20) (pin 1))
      (node (ref U3) (pin 1))
      (node (ref C10) (pin 1))
      (node (ref L1) (pin 1))
      (node (ref R21) (pin 1))
      (node (ref R4) (pin 1))
      (node (ref R17) (pin 2))
      (node (ref P2) (pin 1))
      (node (ref R28) (pin 1))
      (node (ref U2) (pin 2))
      (node (ref C8) (pin 1)))
    (net (code 80) (name "Net-(P2-Pad4)")
      (node (ref P2) (pin 4)))
    (net (code 81) (name "Net-(U3-Pad28)")
      (node (ref U3) (pin 28)))
    (net (code 82) (name "Net-(U3-Pad59)")
      (node (ref U3) (pin 59)))))