<?xml version="1.0" encoding="utf-8"?>
<!DOCTYPE eagle SYSTEM "eagle.dtd">
<eagle version="6.3">
<drawing>
<settings>
<setting alwaysvectorfont="no"/>
<setting verticaltext="up"/>
</settings>
<grid distance="0.03937" unitdist="mil" unit="mil" style="lines" multiple="1" display="no" altdistance="0.025" altunitdist="inch" altunit="inch"/>
<layers>
<layer number="1" name="Top" color="4" fill="1" visible="yes" active="yes"/>
<layer number="2" name="Route2" color="1" fill="3" visible="no" active="no"/>
<layer number="3" name="Route3" color="4" fill="3" visible="no" active="no"/>
<layer number="4" name="Route4" color="1" fill="4" visible="no" active="no"/>
<layer number="5" name="Route5" color="4" fill="4" visible="no" active="no"/>
<layer number="6" name="Route6" color="1" fill="8" visible="no" active="no"/>
<layer number="7" name="Route7" color="4" fill="8" visible="no" active="no"/>
<layer number="8" name="Route8" color="1" fill="2" visible="no" active="no"/>
<layer number="9" name="Route9" color="4" fill="2" visible="no" active="no"/>
<layer number="10" name="Route10" color="1" fill="7" visible="no" active="no"/>
<layer number="11" name="Route11" color="4" fill="7" visible="no" active="no"/>
<layer number="12" name="Route12" color="1" fill="5" visible="no" active="no"/>
<layer number="13" name="Route13" color="4" fill="5" visible="no" active="no"/>
<layer number="14" name="Route14" color="1" fill="6" visible="no" active="no"/>
<layer number="15" name="Route15" color="4" fill="6" visible="no" active="no"/>
<layer number="16" name="Bottom" color="1" fill="1" visible="yes" active="yes"/>
<layer number="17" name="Pads" color="2" fill="1" visible="yes" active="yes"/>
<layer number="18" name="Vias" color="2" fill="1" visible="yes" active="yes"/>
<layer number="19" name="Unrouted" color="6" fill="1" visible="yes" active="yes"/>
<layer number="20" name="Dimension" color="15" fill="1" visible="yes" active="yes"/>
<layer number="21" name="tPlace" color="7" fill="1" visible="yes" active="yes"/>
<layer number="22" name="bPlace" color="7" fill="1" visible="yes" active="yes"/>
<layer number="23" name="tOrigins" color="15" fill="1" visible="yes" active="yes"/>
<layer number="24" name="bOrigins" color="15" fill="1" visible="yes" active="yes"/>
<layer number="25" name="tNames" color="7" fill="1" visible="yes" active="yes"/>
<layer number="26" name="bNames" color="7" fill="1" visible="yes" active="yes"/>
<layer number="27" name="tValues" color="7" fill="1" visible="yes" active="yes"/>
<layer number="28" name="bValues" color="7" fill="1" visible="yes" active="yes"/>
<layer number="29" name="tStop" color="7" fill="3" visible="yes" active="yes"/>
<layer number="30" name="bStop" color="7" fill="6" visible="no" active="yes"/>
<layer number="31" name="tCream" color="7" fill="4" visible="no" active="yes"/>
<layer number="32" name="bCream" color="7" fill="5" visible="no" active="yes"/>
<layer number="33" name="tFinish" color="6" fill="3" visible="no" active="yes"/>
<layer number="34" name="bFinish" color="6" fill="6" visible="no" active="yes"/>
<layer number="35" name="tGlue" color="7" fill="4" visible="no" active="yes"/>
<layer number="36" name="bGlue" color="7" fill="5" visible="no" active="yes"/>
<layer number="37" name="tTest" color="7" fill="1" visible="no" active="yes"/>
<layer number="38" name="bTest" color="7" fill="1" visible="no" active="yes"/>
<layer number="39" name="tKeepout" color="4" fill="11" visible="yes" active="yes"/>
<layer number="40" name="bKeepout" color="1" fill="11" visible="yes" active="yes"/>
<layer number="41" name="tRestrict" color="4" fill="10" visible="yes" active="yes"/>
<layer number="42" name="bRestrict" color="1" fill="10" visible="yes" active="yes"/>
<layer number="43" name="vRestrict" color="2" fill="10" visible="yes" active="yes"/>
<layer number="44" name="Drills" color="7" fill="1" visible="no" active="yes"/>
<layer number="45" name="Holes" color="7" fill="1" visible="no" active="yes"/>
<layer number="46" name="Milling" color="3" fill="1" visible="no" active="yes"/>
<layer number="47" name="Measures" color="7" fill="1" visible="yes" active="yes"/>
<layer number="48" name="Document" color="7" fill="1" visible="yes" active="yes"/>
<layer number="49" name="Reference" color="7" fill="1" visible="yes" active="yes"/>
<layer number="51" name="tDocu" color="7" fill="1" visible="yes" active="yes"/>
<layer number="52" name="bDocu" color="7" fill="1" visible="yes" active="yes"/>
<layer number="91" name="Nets" color="2" fill="1" visible="no" active="no"/>
<layer number="92" name="Busses" color="1" fill="1" visible="no" active="no"/>
<layer number="93" name="Pins" color="2" fill="1" visible="no" active="no"/>
<layer number="94" name="Symbols" color="4" fill="1" visible="no" active="no"/>
<layer number="95" name="Names" color="7" fill="1" visible="no" active="no"/>
<layer number="96" name="Values" color="7" fill="1" visible="no" active="no"/>
<layer number="97" name="Info" color="7" fill="1" visible="no" active="no"/>
<layer number="98" name="Guide" color="6" fill="1" visible="no" active="no"/>
</layers>
<board>
<plain>
<wire x1="0" y1="0" x2="11" y2="0" width="0.01" layer="20"/>
<wire x1="11" y1="0" x2="11" y2="-18" width="0.01" layer="20"/>
<wire x1="0" y1="0" x2="0" y2="-18" width="0.01" layer="20"/>
<wire x1="0" y1="-18" x2="3" y2="-18" width="0.01" layer="20"/>
<wire x1="11" y1="-18" x2="8" y2="-18" width="0.01" layer="20"/>
<wire x1="8" y1="-18" x2="8" y2="-28" width="0.01" layer="20"/>
<wire x1="-48.5" y1="-27.5" x2="-48.5" y2="-32.5" width="0.01" layer="20"/>
<wire x1="8" y1="-28" x2="3.5" y2="-32.5" width="0.01" layer="20"/>
<wire x1="3.5" y1="-32.5" x2="-48.5" y2="-32.5" width="0.01" layer="20"/>
<wire x1="-48.5" y1="-27.5" x2="1.5" y2="-27.5" width="0.01" layer="20"/>
<wire x1="1.5" y1="-27.5" x2="3" y2="-26" width="0.01" layer="20"/>
<wire x1="3" y1="-26" x2="3" y2="-18" width="0.01" layer="20"/>
<rectangle x1="-48.495" y1="-31.85" x2="-45.495" y2="-31.15" layer="1"/>
<rectangle x1="-48.495" y1="-30.848" x2="-45.495" y2="-30.148" layer="1"/>
<rectangle x1="-48.495" y1="-29.849" x2="-45.495" y2="-29.149" layer="1"/>
<rectangle x1="-48.495" y1="-28.849" x2="-45.495" y2="-28.149" layer="1"/>
<rectangle x1="-48.492" y1="-28.845" x2="-45.492" y2="-28.145" layer="29"/>
<rectangle x1="-48.499" y1="-29.845" x2="-45.499" y2="-29.145" layer="29"/>
<rectangle x1="-48.495" y1="-30.846" x2="-45.495" y2="-30.146" layer="29"/>
<rectangle x1="-48.489" y1="-31.852" x2="-45.489" y2="-31.152" layer="29"/>
<rectangle x1="0.726" y1="-5.001" x2="10.308" y2="-0.643" layer="1"/>
</plain>
<libraries>
<library name="LGA48">
<packages>
<package name="LGA48">
<description>LGA48 dla STOLLMAN +SR</description>
<wire x1="-8.5" y1="5" x2="8.5" y2="5" width="0.15" layer="21"/>
<wire x1="-8.5" y1="-5" x2="8.5" y2="-5" width="0.15" layer="21"/>
<wire x1="-8.5" y1="5" x2="-8.5" y2="-5" width="0.15" layer="21"/>
<wire x1="8.5" y1="5" x2="8.5" y2="-5" width="0.15" layer="21"/>
<smd name="P$1" x="-7.25" y="3.75" dx="0.9" dy="0.9" layer="1" roundness="100"/>
<smd name="P$2" x="-5.75" y="3.75" dx="0.9" dy="0.9" layer="1" roundness="100"/>
<smd name="P$3" x="-4.25" y="3.75" dx="0.9" dy="0.9" layer="1" roundness="100"/>
<smd name="P$4" x="-7.25" y="2.25" dx="0.9" dy="0.9" layer="1" roundness="100"/>
<smd name="P$5" x="-5.75" y="2.25" dx="0.9" dy="0.9" layer="1" roundness="100"/>
<smd name="P$6" x="-2.75" y="3.75" dx="0.9" dy="0.9" layer="1" roundness="100"/>
<smd name="P$7" x="-4.25" y="2.25" dx="0.9" dy="0.9" layer="1" roundness="100"/>
<smd name="P$8" x="-2.8" y="2.25" dx="0.9" dy="0.9" layer="1" roundness="100"/>
<smd name="P$9" x="-7.25" y="0.75" dx="0.9" dy="0.9" layer="1" roundness="100"/>
<smd name="P$10" x="-5.75" y="0.75" dx="0.9" dy="0.9" layer="1" roundness="100"/>
<smd name="P$11" x="-7.25" y="-0.75" dx="0.9" dy="0.9" layer="1" roundness="100"/>
<smd name="P$12" x="-5.75" y="-0.75" dx="0.9" dy="0.9" layer="1" roundness="100"/>
<smd name="P$13" x="-7.25" y="-2.25" dx="0.9" dy="0.9" layer="1" roundness="100"/>
<smd name="P$14" x="-5.75" y="-2.25" dx="0.9" dy="0.9" layer="1" roundness="100"/>
<smd name="P$15" x="-4.25" y="-2.25" dx="0.9" dy="0.9" layer="1" roundness="100"/>
<smd name="P$16" x="-4.25" y="-0.75" dx="0.9" dy="0.9" layer="1" roundness="100"/>
<smd name="P$17" x="-4.25" y="0.75" dx="0.9" dy="0.9" layer="1" roundness="100"/>
<smd name="P$18" x="-7.25" y="-3.75" dx="0.9" dy="0.9" layer="1" roundness="100"/>
<smd name="P$19" x="-5.75" y="-3.75" dx="0.9" dy="0.9" layer="1" roundness="100"/>
<smd name="P$20" x="-4.25" y="-3.75" dx="0.9" dy="0.9" layer="1" roundness="100"/>
<smd name="P$21" x="-2.75" y="-3.75" dx="0.9" dy="0.9" layer="1" roundness="100"/>
<smd name="P$22" x="-2.75" y="-2.25" dx="0.9" dy="0.9" layer="1" roundness="100"/>
<smd name="P$23" x="-1.25" y="-2.25" dx="0.9" dy="0.9" layer="1" roundness="100"/>
<smd name="P$24" x="-1.25" y="-3.75" dx="0.9" dy="0.9" layer="1" roundness="100"/>
<smd name="P$25" x="0.25" y="-3.75" dx="0.9" dy="0.9" layer="1" roundness="100"/>
<smd name="P$26" x="1.75" y="-3.75" dx="0.9" dy="0.9" layer="1" roundness="100"/>
<smd name="P$27" x="3.25" y="-3.75" dx="0.9" dy="0.9" layer="1" roundness="100"/>
<smd name="P$28" x="3.25" y="-2.25" dx="0.9" dy="0.9" layer="1" roundness="100"/>
<smd name="P$29" x="1.75" y="-2.25" dx="0.9" dy="0.9" layer="1" roundness="100"/>
<smd name="P$30" x="0.25" y="-2.25" dx="0.9" dy="0.9" layer="1" roundness="100"/>
<smd name="P$31" x="3.25" y="-0.75" dx="0.9" dy="0.9" layer="1" roundness="100"/>
<smd name="P$32" x="1.75" y="-0.75" dx="0.9" dy="0.9" layer="1" roundness="100"/>
<smd name="P$33" x="-2.75" y="-0.75" dx="0.9" dy="0.9" layer="1" roundness="100"/>
<smd name="P$34" x="-1.25" y="-0.75" dx="0.9" dy="0.9" layer="1" roundness="100"/>
<smd name="P$35" x="0.25" y="-0.75" dx="0.9" dy="0.9" layer="1" roundness="100"/>
<smd name="P$36" x="-2.75" y="0.75" dx="0.9" dy="0.9" layer="1" roundness="100"/>
<smd name="P$37" x="-1.25" y="0.75" dx="0.9" dy="0.9" layer="1" roundness="100"/>
<smd name="P$38" x="0.25" y="0.75" dx="0.9" dy="0.9" layer="1" roundness="100"/>
<smd name="P$39" x="1.75" y="0.75" dx="0.9" dy="0.9" layer="1" roundness="100"/>
<smd name="P$40" x="-1.25" y="2.25" dx="0.9" dy="0.9" layer="1" roundness="100"/>
<smd name="P$41" x="0.25" y="2.25" dx="0.9" dy="0.9" layer="1" roundness="100"/>
<smd name="P$42" x="-1.25" y="3.75" dx="0.9" dy="0.9" layer="1" roundness="100"/>
<smd name="P$43" x="0.25" y="3.75" dx="0.9" dy="0.9" layer="1" roundness="100"/>
<smd name="P$44" x="1.75" y="3.75" dx="0.9" dy="0.9" layer="1" roundness="100"/>
<smd name="P$45" x="3.25" y="3.75" dx="0.9" dy="0.9" layer="1" roundness="100"/>
<smd name="P$46" x="1.75" y="2.25" dx="0.9" dy="0.9" layer="1" roundness="100"/>
<smd name="P$47" x="3.25" y="2.25" dx="0.9" dy="0.9" layer="1" roundness="100"/>
<smd name="P$48" x="3.25" y="0.75" dx="0.9" dy="0.9" layer="1" roundness="100"/>
<circle x="-8.2" y="4.7" radius="0.111803125" width="0.15" layer="21"/>
<rectangle x1="-8.65" y1="-5.15" x2="8.65" y2="5.15" layer="39"/>
</package>
</packages>
</library>
<library name="ref-packages-longpad">
<description>&lt;b&gt;Reference Package&lt;/b&gt;&lt;p&gt;</description>
<packages>
<package name="C1206K">
<description>&lt;b&gt;Ceramic Chip Capacitor KEMET 1206 Reflow solder&lt;/b&gt;&lt;p&gt;
Metric Code Size 3216</description>
<wire x1="-1.525" y1="0.75" x2="1.525" y2="0.75" width="0.1016" layer="51"/>
<wire x1="1.525" y1="-0.75" x2="-1.525" y2="-0.75" width="0.1016" layer="51"/>
<smd name="1" x="-1.5" y="0" dx="1.5" dy="2" layer="1"/>
<smd name="2" x="1.5" y="0" dx="1.5" dy="2" layer="1"/>
<text x="-1.6" y="1.1" size="1.016" layer="25">&gt;NAME</text>
<text x="-1.6" y="-2.1" size="1.016" layer="27">&gt;VALUE</text>
<rectangle x1="-1.6" y1="-0.8" x2="-1.1" y2="0.8" layer="51"/>
<rectangle x1="1.1" y1="-0.8" x2="1.6" y2="0.8" layer="51"/>
</package>
</packages>
</library>
</libraries>
<attributes>
</attributes>
<variantdefs>
</variantdefs>
<classes>
<class number="0" name="default" width="0" drill="0">
</class>
</classes>
<designrules name="default">
<description language="de">&lt;b&gt;EAGLE Design Rules&lt;/b&gt;
&lt;p&gt;
Die Standard-Design-Rules sind so gewählt, dass sie für 
die meisten Anwendungen passen. Sollte ihre Platine 
besondere Anforderungen haben, treffen Sie die erforderlichen
Einstellungen hier und speichern die Design Rules unter 
einem neuen Namen ab.</description>
<description language="en">&lt;b&gt;EAGLE Design Rules&lt;/b&gt;
&lt;p&gt;
The default Design Rules have been set to cover
a wide range of applications. Your particular design
may have different requirements, so please make the
necessary adjustments and save your customized
design rules under a new name.</description>
<param name="layerSetup" value="(1*16)"/>
<param name="mtCopper" value="0.035mm 0.035mm 0.035mm 0.035mm 0.035mm 0.035mm 0.035mm 0.035mm 0.035mm 0.035mm 0.035mm 0.035mm 0.035mm 0.035mm 0.035mm 0.035mm"/>
<param name="mtIsolate" value="1.5mm 0.15mm 0.2mm 0.15mm 0.2mm 0.15mm 0.2mm 0.15mm 0.2mm 0.15mm 0.2mm 0.15mm 0.2mm 0.15mm 0.2mm"/>
<param name="mdWireWire" value="8mil"/>
<param name="mdWirePad" value="8mil"/>
<param name="mdWireVia" value="8mil"/>
<param name="mdPadPad" value="8mil"/>
<param name="mdPadVia" value="8mil"/>
<param name="mdViaVia" value="8mil"/>
<param name="mdSmdPad" value="8mil"/>
<param name="mdSmdVia" value="8mil"/>
<param name="mdSmdSmd" value="8mil"/>
<param name="mdViaViaSameLayer" value="8mil"/>
<param name="mnLayersViaInSmd" value="2"/>
<param name="mdCopperDimension" value="40mil"/>
<param name="mdDrill" value="8mil"/>
<param name="mdSmdStop" value="0mil"/>
<param name="msWidth" value="10mil"/>
<param name="msDrill" value="24mil"/>
<param name="msMicroVia" value="9.99mm"/>
<param name="msBlindViaRatio" value="0.5"/>
<param name="rvPadTop" value="0.25"/>
<param name="rvPadInner" value="0.25"/>
<param name="rvPadBottom" value="0.25"/>
<param name="rvViaOuter" value="0.25"/>
<param name="rvViaInner" value="0.25"/>
<param name="rvMicroViaOuter" value="0.25"/>
<param name="rvMicroViaInner" value="0.25"/>
<param name="rlMinPadTop" value="10mil"/>
<param name="rlMaxPadTop" value="20mil"/>
<param name="rlMinPadInner" value="10mil"/>
<param name="rlMaxPadInner" value="20mil"/>
<param name="rlMinPadBottom" value="10mil"/>
<param name="rlMaxPadBottom" value="20mil"/>
<param name="rlMinViaOuter" value="8mil"/>
<param name="rlMaxViaOuter" value="20mil"/>
<param name="rlMinViaInner" value="8mil"/>
<param name="rlMaxViaInner" value="20mil"/>
<param name="rlMinMicroViaOuter" value="4mil"/>
<param name="rlMaxMicroViaOuter" value="20mil"/>
<param name="rlMinMicroViaInner" value="4mil"/>
<param name="rlMaxMicroViaInner" value="20mil"/>
<param name="psTop" value="-1"/>
<param name="psBottom" value="-1"/>
<param name="psFirst" value="-1"/>
<param name="psElongationLong" value="100"/>
<param name="psElongationOffset" value="100"/>
<param name="mvStopFrame" value="1"/>
<param name="mvCreamFrame" value="0"/>
<param name="mlMinStopFrame" value="4mil"/>
<param name="mlMaxStopFrame" value="4mil"/>
<param name="mlMinCreamFrame" value="0mil"/>
<param name="mlMaxCreamFrame" value="0mil"/>
<param name="mlViaStopLimit" value="0mil"/>
<param name="srRoundness" value="0"/>
<param name="srMinRoundness" value="0mil"/>
<param name="srMaxRoundness" value="0mil"/>
<param name="slThermalIsolate" value="10mil"/>
<param name="slThermalsForVias" value="0"/>
<param name="dpMaxLengthDifference" value="10mm"/>
<param name="dpGapFactor" value="2.5"/>
<param name="checkGrid" value="0"/>
<param name="checkAngle" value="0"/>
<param name="checkFont" value="1"/>
<param name="checkRestrict" value="1"/>
<param name="useDiameter" value="13"/>
<param name="maxErrors" value="50"/>
</designrules>
<autorouter>
<pass name="Default">
<param name="RoutingGrid" value="50mil"/>
<param name="tpViaShape" value="round"/>
<param name="PrefDir.1" value="|"/>
<param name="PrefDir.2" value="0"/>
<param name="PrefDir.3" value="0"/>
<param name="PrefDir.4" value="0"/>
<param name="PrefDir.5" value="0"/>
<param name="PrefDir.6" value="0"/>
<param name="PrefDir.7" value="0"/>
<param name="PrefDir.8" value="0"/>
<param name="PrefDir.9" value="0"/>
<param name="PrefDir.10" value="0"/>
<param name="PrefDir.11" value="0"/>
<param name="PrefDir.12" value="0"/>
<param name="PrefDir.13" value="0"/>
<param name="PrefDir.14" value="0"/>
<param name="PrefDir.15" value="0"/>
<param name="PrefDir.16" value="-"/>
<param name="cfVia" value="8"/>
<param name="cfNonPref" value="5"/>
<param name="cfChangeDir" value="2"/>
<param name="cfOrthStep" value="2"/>
<param name="cfDiagStep" value="3"/>
<param name="cfExtdStep" value="0"/>
<param name="cfBonusStep" value="1"/>
<param name="cfMalusStep" value="1"/>
<param name="cfPadImpact" value="4"/>
<param name="cfSmdImpact" value="4"/>
<param name="cfBusImpact" value="0"/>
<param name="cfHugging" value="3"/>
<param name="cfAvoid" value="4"/>
<param name="cfPolygon" value="10"/>
<param name="cfBase.1" value="0"/>
<param name="cfBase.2" value="1"/>
<param name="cfBase.3" value="1"/>
<param name="cfBase.4" value="1"/>
<param name="cfBase.5" value="1"/>
<param name="cfBase.6" value="1"/>
<param name="cfBase.7" value="1"/>
<param name="cfBase.8" value="1"/>
<param name="cfBase.9" value="1"/>
<param name="cfBase.10" value="1"/>
<param name="cfBase.11" value="1"/>
<param name="cfBase.12" value="1"/>
<param name="cfBase.13" value="1"/>
<param name="cfBase.14" value="1"/>
<param name="cfBase.15" value="1"/>
<param name="cfBase.16" value="0"/>
<param name="mnVias" value="20"/>
<param name="mnSegments" value="9999"/>
<param name="mnExtdSteps" value="9999"/>
<param name="mnRipupLevel" value="10"/>
<param name="mnRipupSteps" value="100"/>
<param name="mnRipupTotal" value="100"/>
</pass>
<pass name="Follow-me" refer="Default" active="yes">
</pass>
<pass name="Busses" refer="Default" active="yes">
<param name="cfNonPref" value="4"/>
<param name="cfBusImpact" value="4"/>
<param name="cfHugging" value="0"/>
<param name="mnVias" value="0"/>
</pass>
<pass name="Route" refer="Default" active="yes">
</pass>
<pass name="Optimize1" refer="Default" active="yes">
<param name="cfVia" value="99"/>
<param name="cfExtdStep" value="10"/>
<param name="cfHugging" value="1"/>
<param name="mnExtdSteps" value="1"/>
<param name="mnRipupLevel" value="0"/>
</pass>
<pass name="Optimize2" refer="Optimize1" active="yes">
<param name="cfNonPref" value="0"/>
<param name="cfChangeDir" value="6"/>
<param name="cfExtdStep" value="0"/>
<param name="cfBonusStep" value="2"/>
<param name="cfMalusStep" value="2"/>
<param name="cfPadImpact" value="2"/>
<param name="cfSmdImpact" value="2"/>
<param name="cfHugging" value="0"/>
</pass>
<pass name="Optimize3" refer="Optimize2" active="yes">
<param name="cfChangeDir" value="8"/>
<param name="cfPadImpact" value="0"/>
<param name="cfSmdImpact" value="0"/>
</pass>
<pass name="Optimize4" refer="Optimize3" active="yes">
<param name="cfChangeDir" value="25"/>
</pass>
</autorouter>
<elements>
<element name="E$1" library="LGA48" package="LGA48" value="" x="5.5" y="-9" rot="R90"/>
<element name="C1" library="ref-packages-longpad" package="C1206K" value="" x="5.503" y="-21.514"/>
</elements>
<signals>
<signal name="S$1">
<wire x1="9.26" y1="-8.78" x2="7.77" y2="-8.78" width="0.4064" layer="1"/>
<wire x1="7.77" y1="-8.78" x2="7.75" y2="-8.76" width="0.4064" layer="1"/>
</signal>
<signal name="S$2">
<wire x1="4.78" y1="-16.26" x2="4.78" y2="-17.5" width="0.4064" layer="1"/>
<wire x1="4.78" y1="-17.5" x2="3.82" y2="-18.46" width="0.4064" layer="1"/>
<wire x1="3.82" y1="-18.46" x2="3.82" y2="-19.83" width="0.4064" layer="1"/>
</signal>
<signal name="S$3">
<wire x1="7.78" y1="-8.73" x2="7.66" y2="-8.73" width="0.254" layer="1"/>
<wire x1="7.66" y1="-8.73" x2="7.01" y2="-9.38" width="0.2032" layer="1"/>
</signal>
<signal name="S$5">
<wire x1="6.25" y1="-14.74" x2="6.24" y2="-14.74" width="0.254" layer="1"/>
<wire x1="6.24" y1="-14.74" x2="6.923" y2="-15.434" width="0.2032" layer="1"/>
</signal>
<signal name="S$6">
<wire x1="9.245" y1="-11.751" x2="8.506" y2="-12.495" width="0.2032" layer="1"/>
<wire x1="8.506" y1="-12.495" x2="8.503" y2="-13.643" width="0.2032" layer="1"/>
<wire x1="8.503" y1="-13.643" x2="8.13" y2="-14.001" width="0.2032" layer="1"/>
<wire x1="8.13" y1="-14.001" x2="5.721" y2="-14" width="0.2032" layer="1"/>
<wire x1="5.721" y1="-14" x2="5.511" y2="-14.224" width="0.2032" layer="1"/>
</signal>
<signal name="S$10">
<wire x1="5.499" y1="-14.254" x2="5.499" y2="-16.779" width="0.2032" layer="1"/>
</signal>
<signal name="S$4">
<wire x1="5.495" y1="-16.81" x2="5.495" y2="-18.144" width="0.2032" layer="1"/>
</signal>
<signal name="S$7">
<wire x1="6.857" y1="-15.366" x2="6.992" y2="-15.501" width="0.2032" layer="1"/>
</signal>
<signal name="S$9">
<wire x1="3.814" y1="-19.816" x2="3.814" y2="-20.996" width="0.4064" layer="1"/>
</signal>
<signal name="S$11">
<wire x1="-45.59" y1="-28.505" x2="1.757" y2="-28.505" width="0.4064" layer="1"/>
<wire x1="1.757" y1="-28.505" x2="3.957" y2="-26.305" width="0.4064" layer="1"/>
<wire x1="3.957" y1="-26.305" x2="3.957" y2="-21.487" width="0.4064" layer="1"/>
</signal>
<signal name="S$12">
<wire x1="-45.676" y1="-29.484" x2="2.262" y2="-29.484" width="0.4064" layer="1"/>
<wire x1="2.262" y1="-29.484" x2="5.317" y2="-26.429" width="0.4064" layer="1"/>
<wire x1="5.317" y1="-26.429" x2="5.317" y2="-24.328" width="0.4064" layer="1"/>
</signal>
<signal name="S$13">
<wire x1="-45.756" y1="-30.518" x2="2.554" y2="-30.518" width="0.4064" layer="1"/>
<wire x1="2.554" y1="-30.518" x2="6.517" y2="-26.555" width="0.4064" layer="1"/>
<wire x1="6.517" y1="-26.555" x2="6.517" y2="-24.507" width="0.4064" layer="1"/>
<wire x1="6.517" y1="-24.507" x2="6.517" y2="-24.44" width="0.4064" layer="1"/>
<wire x1="6.517" y1="-24.44" x2="6.517" y2="-24.337" width="0.4064" layer="1"/>
</signal>
<signal name="S$15">
<wire x1="6.521" y1="-24.189" x2="6.521" y2="-24.361" width="0.2032" layer="1"/>
</signal>
<signal name="S$14">
<wire x1="5.32" y1="-18.467" x2="5.32" y2="-24.325" width="0.2032" layer="1"/>
</signal>
<signal name="S$17">
<wire x1="6.521" y1="-24.165" x2="5.864" y2="-23.508" width="0.2032" layer="1"/>
</signal>
<signal name="S$8">
<wire x1="6.998" y1="-15.525" x2="6.998" y2="-17.325" width="0.2032" layer="1"/>
</signal>
<signal name="S$18">
<wire x1="5.867" y1="-20.978" x2="5.867" y2="-18.693" width="0.2032" layer="1"/>
<wire x1="5.867" y1="-18.693" x2="6.999" y2="-17.561" width="0.2032" layer="1"/>
<wire x1="6.999" y1="-17.561" x2="6.999" y2="-17.308" width="0.2032" layer="1"/>
</signal>
<signal name="S$19">
<wire x1="7.014" y1="-9.391" x2="7.008" y2="-9.397" width="0.2032" layer="1"/>
<wire x1="7.008" y1="-9.397" x2="7.008" y2="-11.586" width="0.2032" layer="1"/>
<wire x1="7.008" y1="-11.586" x2="7.009" y2="-11.587" width="0.2032" layer="1"/>
<wire x1="7.009" y1="-11.587" x2="7.009" y2="-12.237" width="0.2032" layer="1"/>
<wire x1="7.009" y1="-12.237" x2="6.749" y2="-12.497" width="0.2032" layer="1"/>
<wire x1="6.749" y1="-12.497" x2="4.118" y2="-12.497" width="0.2032" layer="1"/>
</signal>
<signal name="S$20">
<wire x1="4.109" y1="-12.496" x2="3.996" y2="-12.609" width="0.2032" layer="1"/>
<wire x1="3.996" y1="-12.609" x2="3.996" y2="-13.275" width="0.2032" layer="1"/>
<wire x1="3.996" y1="-13.275" x2="3.995" y2="-13.666" width="0.2032" layer="1"/>
<wire x1="3.995" y1="-13.666" x2="3.995" y2="-15.766" width="0.2032" layer="1"/>
<wire x1="3.995" y1="-15.766" x2="4.523" y2="-16.286" width="0.2032" layer="1"/>
<wire x1="4.523" y1="-16.286" x2="4.781" y2="-16.286" width="0.2032" layer="1"/>
</signal>
<signal name="S$21">
<wire x1="3.232" y1="-10.278" x2="3.232" y2="-8.742" width="0.4064" layer="1"/>
</signal>
<signal name="S$22">
<wire x1="3.246" y1="-8.729" x2="3.246" y2="-7.274" width="0.4064" layer="1"/>
<wire x1="3.246" y1="-7.274" x2="3.246" y2="-5.806" width="0.4064" layer="1"/>
<wire x1="1.737" y1="-7.274" x2="3.246" y2="-7.274" width="0.4064" layer="1"/>
</signal>
<signal name="S$23">
<wire x1="4.741" y1="-10.304" x2="3.273" y2="-10.304" width="0.4064" layer="1"/>
</signal>
<signal name="S$24">
<wire x1="4.754" y1="-10.291" x2="4.754" y2="-5.792" width="0.4064" layer="1"/>
</signal>
<signal name="S$25">
<wire x1="3.246" y1="-5.752" x2="4.781" y2="-5.752" width="0.4064" layer="1"/>
</signal>
<signal name="S$26">
<wire x1="3.232" y1="-7.287" x2="4.781" y2="-7.287" width="0.4064" layer="1"/>
</signal>
<signal name="S$27">
<wire x1="3.246" y1="-8.796" x2="4.768" y2="-8.796" width="0.4064" layer="1"/>
</signal>
<signal name="S$28">
<wire x1="4.768" y1="-5.754" x2="4.785" y2="-5.771" width="0.4064" layer="1"/>
<wire x1="4.785" y1="-5.771" x2="9.229" y2="-5.771" width="0.4064" layer="1"/>
</signal>
<signal name="S$29">
<wire x1="7.722" y1="-5.78" x2="7.744" y2="-5.802" width="0.4064" layer="1"/>
<wire x1="7.744" y1="-5.802" x2="7.744" y2="-7.307" width="0.4064" layer="1"/>
</signal>
<signal name="S$30">
<wire x1="9.248" y1="-5.758" x2="9.237" y2="-5.769" width="0.4064" layer="1"/>
<wire x1="9.237" y1="-5.769" x2="9.237" y2="-7.318" width="0.4064" layer="1"/>
<wire x1="9.237" y1="-7.318" x2="9.192" y2="-7.273" width="0.4064" layer="1"/>
<wire x1="9.192" y1="-7.273" x2="7.755" y2="-7.273" width="0.4064" layer="1"/>
</signal>
<signal name="S$31">
<wire x1="9.212" y1="-7.258" x2="9.894" y2="-7.258" width="0.4064" layer="1"/>
<wire x1="9.894" y1="-7.258" x2="10.415" y2="-7.779" width="0.4064" layer="1"/>
<wire x1="10.415" y1="-7.779" x2="10.415" y2="-16.876" width="0.4064" layer="1"/>
<wire x1="10.415" y1="-16.876" x2="9.814" y2="-17.477" width="0.4064" layer="1"/>
<wire x1="9.814" y1="-17.477" x2="7.855" y2="-17.477" width="0.4064" layer="1"/>
<wire x1="7.855" y1="-17.477" x2="7.719" y2="-17.613" width="0.4064" layer="1"/>
<wire x1="7.719" y1="-17.613" x2="7.719" y2="-17.617" width="0.4064" layer="1"/>
<wire x1="7.719" y1="-17.617" x2="7.228" y2="-18.108" width="0.4064" layer="1"/>
<wire x1="7.228" y1="-18.108" x2="7.228" y2="-21.509" width="0.4064" layer="1"/>
<wire x1="7.228" y1="-21.509" x2="7.192" y2="-21.545" width="0.4064" layer="1"/>
</signal>
<signal name="S$32">
<wire x1="-45.786" y1="-31.52" x2="3.079" y2="-31.52" width="0.4064" layer="1"/>
</signal>
<signal name="S$33">
<wire x1="3.075" y1="-31.505" x2="3.075" y2="-31.494" width="0.4064" layer="1"/>
<wire x1="3.075" y1="-31.494" x2="7.475" y2="-27.094" width="0.4064" layer="1"/>
<wire x1="7.475" y1="-27.094" x2="7.475" y2="-21.553" width="0.4064" layer="1"/>
<wire x1="7.475" y1="-21.553" x2="7.451" y2="-21.529" width="0.4064" layer="1"/>
</signal>
<signal name="S$16">
<wire x1="5.322" y1="-18.457" x2="5.322" y2="-18.314" width="0.2032" layer="1"/>
<wire x1="5.322" y1="-18.314" x2="5.491" y2="-18.145" width="0.2032" layer="1"/>
</signal>
<signal name="S$34">
<wire x1="3.254" y1="-5.748" x2="3.254" y2="-4.8" width="0.4064" layer="1"/>
</signal>
<signal name="S$35">
<wire x1="4.76" y1="-5.767" x2="4.76" y2="-4.747" width="0.4064" layer="1"/>
<wire x1="4.76" y1="-4.747" x2="4.754" y2="-4.741" width="0.4064" layer="1"/>
</signal>
<signal name="S$36">
<wire x1="6.254" y1="-5.774" x2="6.254" y2="-4.793" width="0.4064" layer="1"/>
</signal>
<signal name="S$37">
<wire x1="7.744" y1="-5.765" x2="7.744" y2="-4.741" width="0.4064" layer="1"/>
</signal>
<signal name="S$38">
<wire x1="9.266" y1="-5.738" x2="9.266" y2="-4.795" width="0.4064" layer="1"/>
</signal>
<signal name="S$39">
<wire x1="5.866" y1="-20.991" x2="5.866" y2="-23.511" width="0.2032" layer="1"/>
<wire x1="5.866" y1="-23.511" x2="6.023" y2="-23.668" width="0.2032" layer="1"/>
</signal>
</signals>
</board>
</drawing>
</eagle>
